<?xml version="1.0" encoding="utf-8"?>
<!DOCTYPE eagle SYSTEM "eagle.dtd">
<eagle version="6.4">
<drawing>
<settings>
<setting alwaysvectorfont="yes"/>
<setting verticaltext="up"/>
</settings>
<grid distance="25" unitdist="mil" unit="mil" style="lines" multiple="1" display="yes" altdistance="0.025" altunitdist="inch" altunit="inch"/>
<layers>
<layer number="1" name="Top" color="4" fill="1" visible="yes" active="yes"/>
<layer number="2" name="Route2" color="1" fill="3" visible="no" active="no"/>
<layer number="3" name="Route3" color="4" fill="3" visible="no" active="no"/>
<layer number="14" name="Route14" color="1" fill="6" visible="no" active="no"/>
<layer number="15" name="Route15" color="4" fill="6" visible="no" active="no"/>
<layer number="16" name="Bottom" color="1" fill="1" visible="yes" active="yes"/>
<layer number="17" name="Pads" color="2" fill="1" visible="yes" active="yes"/>
<layer number="18" name="Vias" color="2" fill="1" visible="yes" active="yes"/>
<layer number="19" name="Unrouted" color="6" fill="1" visible="yes" active="yes"/>
<layer number="20" name="Dimension" color="15" fill="1" visible="yes" active="yes"/>
<layer number="21" name="tPlace" color="7" fill="1" visible="yes" active="yes"/>
<layer number="22" name="bPlace" color="7" fill="1" visible="yes" active="yes"/>
<layer number="23" name="tOrigins" color="15" fill="1" visible="yes" active="yes"/>
<layer number="24" name="bOrigins" color="15" fill="1" visible="yes" active="yes"/>
<layer number="25" name="tNames" color="7" fill="1" visible="yes" active="yes"/>
<layer number="26" name="bNames" color="7" fill="1" visible="yes" active="yes"/>
<layer number="27" name="tValues" color="7" fill="1" visible="yes" active="yes"/>
<layer number="28" name="bValues" color="7" fill="1" visible="yes" active="yes"/>
<layer number="29" name="tStop" color="7" fill="3" visible="no" active="yes"/>
<layer number="30" name="bStop" color="7" fill="6" visible="no" active="yes"/>
<layer number="31" name="tCream" color="7" fill="4" visible="no" active="yes"/>
<layer number="32" name="bCream" color="7" fill="5" visible="no" active="yes"/>
<layer number="33" name="tFinish" color="6" fill="3" visible="no" active="yes"/>
<layer number="34" name="bFinish" color="6" fill="6" visible="no" active="yes"/>
<layer number="35" name="tGlue" color="7" fill="4" visible="no" active="yes"/>
<layer number="36" name="bGlue" color="7" fill="5" visible="no" active="yes"/>
<layer number="37" name="tTest" color="7" fill="1" visible="no" active="yes"/>
<layer number="38" name="bTest" color="7" fill="1" visible="no" active="yes"/>
<layer number="39" name="tKeepout" color="4" fill="11" visible="yes" active="yes"/>
<layer number="40" name="bKeepout" color="1" fill="11" visible="yes" active="yes"/>
<layer number="41" name="tRestrict" color="4" fill="10" visible="yes" active="yes"/>
<layer number="42" name="bRestrict" color="1" fill="10" visible="yes" active="yes"/>
<layer number="43" name="vRestrict" color="2" fill="10" visible="yes" active="yes"/>
<layer number="44" name="Drills" color="7" fill="1" visible="no" active="yes"/>
<layer number="45" name="Holes" color="7" fill="1" visible="no" active="yes"/>
<layer number="46" name="Milling" color="3" fill="1" visible="no" active="yes"/>
<layer number="47" name="Measures" color="7" fill="1" visible="no" active="yes"/>
<layer number="48" name="Document" color="7" fill="1" visible="yes" active="yes"/>
<layer number="49" name="Reference" color="7" fill="1" visible="yes" active="yes"/>
<layer number="50" name="dxf" color="7" fill="1" visible="no" active="no"/>
<layer number="51" name="tDocu" color="7" fill="1" visible="yes" active="yes"/>
<layer number="52" name="bDocu" color="7" fill="1" visible="yes" active="yes"/>
<layer number="53" name="tGND_GNDA" color="7" fill="9" visible="no" active="no"/>
<layer number="54" name="bGND_GNDA" color="1" fill="9" visible="no" active="no"/>
<layer number="56" name="wert" color="7" fill="1" visible="no" active="no"/>
<layer number="57" name="tCAD" color="7" fill="1" visible="no" active="no"/>
<layer number="91" name="Nets" color="2" fill="1" visible="no" active="no"/>
<layer number="92" name="Busses" color="1" fill="1" visible="no" active="no"/>
<layer number="93" name="Pins" color="2" fill="1" visible="no" active="no"/>
<layer number="94" name="Symbols" color="4" fill="1" visible="no" active="no"/>
<layer number="95" name="Names" color="7" fill="1" visible="no" active="no"/>
<layer number="96" name="Values" color="7" fill="1" visible="no" active="no"/>
<layer number="97" name="Info" color="7" fill="1" visible="no" active="no"/>
<layer number="98" name="Guide" color="6" fill="1" visible="no" active="no"/>
<layer number="99" name="SpiceOrder" color="7" fill="1" visible="no" active="no"/>
<layer number="100" name="Image" color="15" fill="10" visible="yes" active="yes"/>
<layer number="101" name="Patch_Top" color="12" fill="4" visible="yes" active="yes"/>
<layer number="102" name="Vscore" color="7" fill="1" visible="yes" active="yes"/>
<layer number="103" name="tMap" color="7" fill="1" visible="yes" active="yes"/>
<layer number="104" name="Name" color="16" fill="1" visible="yes" active="yes"/>
<layer number="105" name="tPlate" color="7" fill="1" visible="yes" active="yes"/>
<layer number="106" name="bPlate" color="7" fill="1" visible="yes" active="yes"/>
<layer number="107" name="Crop" color="7" fill="1" visible="yes" active="yes"/>
<layer number="108" name="tplace-old" color="10" fill="1" visible="yes" active="yes"/>
<layer number="109" name="ref-old" color="11" fill="1" visible="yes" active="yes"/>
<layer number="110" name="fp0" color="7" fill="1" visible="no" active="yes"/>
<layer number="111" name="LPC17xx" color="7" fill="1" visible="yes" active="yes"/>
<layer number="112" name="tSilk" color="7" fill="1" visible="yes" active="yes"/>
<layer number="113" name="IDFDebug" color="4" fill="1" visible="yes" active="yes"/>
<layer number="116" name="Patch_BOT" color="9" fill="4" visible="yes" active="yes"/>
<layer number="121" name="_tsilk" color="7" fill="1" visible="yes" active="yes"/>
<layer number="122" name="_bsilk" color="7" fill="1" visible="yes" active="yes"/>
<layer number="123" name="tTestmark" color="7" fill="1" visible="no" active="yes"/>
<layer number="124" name="bTestmark" color="7" fill="1" visible="no" active="yes"/>
<layer number="125" name="_tNames" color="7" fill="1" visible="yes" active="yes"/>
<layer number="126" name="_bNames" color="7" fill="1" visible="yes" active="yes"/>
<layer number="127" name="_tValues" color="7" fill="1" visible="yes" active="yes"/>
<layer number="128" name="128bmp" color="1" fill="10" visible="yes" active="yes"/>
<layer number="129" name="129bmp" color="2" fill="4" visible="yes" active="yes"/>
<layer number="130" name="130bmp" color="2" fill="1" visible="yes" active="yes"/>
<layer number="131" name="tAdjust" color="7" fill="1" visible="no" active="yes"/>
<layer number="132" name="bAdjust" color="7" fill="1" visible="no" active="yes"/>
<layer number="144" name="Drill_legend" color="7" fill="1" visible="yes" active="yes"/>
<layer number="150" name="Notes" color="7" fill="1" visible="no" active="yes"/>
<layer number="151" name="HeatSink" color="7" fill="1" visible="yes" active="yes"/>
<layer number="152" name="_bDocu" color="7" fill="1" visible="yes" active="yes"/>
<layer number="153" name="FabDoc1" color="6" fill="1" visible="no" active="no"/>
<layer number="154" name="FabDoc2" color="2" fill="1" visible="no" active="no"/>
<layer number="155" name="FabDoc3" color="7" fill="15" visible="no" active="no"/>
<layer number="199" name="Contour" color="7" fill="1" visible="yes" active="yes"/>
<layer number="200" name="200bmp" color="1" fill="10" visible="yes" active="yes"/>
<layer number="201" name="201bmp" color="2" fill="1" visible="yes" active="yes"/>
<layer number="202" name="202bmp" color="3" fill="10" visible="yes" active="yes"/>
<layer number="203" name="203bmp" color="4" fill="10" visible="yes" active="yes"/>
<layer number="204" name="204bmp" color="5" fill="10" visible="yes" active="yes"/>
<layer number="205" name="205bmp" color="6" fill="10" visible="yes" active="yes"/>
<layer number="206" name="206bmp" color="7" fill="10" visible="yes" active="yes"/>
<layer number="207" name="207bmp" color="8" fill="10" visible="yes" active="yes"/>
<layer number="208" name="208bmp" color="9" fill="10" visible="yes" active="yes"/>
<layer number="209" name="209bmp" color="7" fill="1" visible="yes" active="yes"/>
<layer number="210" name="210bmp" color="7" fill="1" visible="yes" active="yes"/>
<layer number="211" name="211bmp" color="7" fill="1" visible="yes" active="yes"/>
<layer number="212" name="212bmp" color="7" fill="1" visible="yes" active="yes"/>
<layer number="213" name="213bmp" color="7" fill="1" visible="yes" active="yes"/>
<layer number="214" name="214bmp" color="7" fill="1" visible="yes" active="yes"/>
<layer number="215" name="215bmp" color="7" fill="1" visible="yes" active="yes"/>
<layer number="216" name="216bmp" color="7" fill="1" visible="yes" active="yes"/>
<layer number="217" name="217bmp" color="18" fill="1" visible="no" active="no"/>
<layer number="218" name="218bmp" color="19" fill="1" visible="no" active="no"/>
<layer number="219" name="219bmp" color="20" fill="1" visible="no" active="no"/>
<layer number="220" name="220bmp" color="21" fill="1" visible="no" active="no"/>
<layer number="221" name="221bmp" color="22" fill="1" visible="no" active="no"/>
<layer number="222" name="222bmp" color="23" fill="1" visible="no" active="no"/>
<layer number="223" name="223bmp" color="24" fill="1" visible="no" active="no"/>
<layer number="224" name="224bmp" color="25" fill="1" visible="no" active="no"/>
<layer number="248" name="Housing" color="7" fill="1" visible="yes" active="yes"/>
<layer number="249" name="Edge" color="7" fill="1" visible="yes" active="yes"/>
<layer number="250" name="Descript" color="3" fill="1" visible="no" active="no"/>
<layer number="251" name="SMDround" color="12" fill="11" visible="no" active="no"/>
<layer number="254" name="cooling" color="7" fill="1" visible="yes" active="yes"/>
</layers>
<board>
<plain>
<wire x1="18.288" y1="24.13" x2="67.29" y2="24.13" width="0" layer="20"/>
<wire x1="67.29" y1="24.13" x2="67.29" y2="70.028" width="0" layer="20"/>
<wire x1="67.29" y1="70.028" x2="18.288" y2="70.028" width="0" layer="20"/>
<wire x1="18.288" y1="70.028" x2="18.288" y2="24.13" width="0" layer="20"/>
<text x="29.972" y="61.087" size="1.27" layer="21">IN</text>
<text x="20.447" y="58.801" size="1.27" layer="21">1</text>
<text x="22.86" y="58.801" size="1.27" layer="21">2</text>
<text x="25.781" y="58.674" size="1.27" layer="21">3</text>
<text x="28.575" y="58.674" size="1.27" layer="21">4</text>
<text x="53.975" y="61.087" size="1.27" layer="21">OUT</text>
<text x="55.118" y="59.817" size="1.016" layer="21">1</text>
<text x="57.531" y="59.944" size="1.016" layer="21">2</text>
<text x="64.643" y="59.944" size="1.016" layer="21">4</text>
<text x="63.119" y="59.944" size="1.016" layer="21">3</text>
<text x="55.626" y="33.655" size="1.016" layer="21">5V</text>
<text x="19.685" y="34.798" size="1.016" layer="21">GND_A</text>
<text x="55.499" y="35.179" size="1.016" layer="21">GND_B</text>
<wire x1="46.355" y1="69.215" x2="46.355" y2="26.035" width="0.8128" layer="21" style="shortdash"/>
<text x="43.18" y="57.785" size="1.778" layer="21">A</text>
<text x="48.895" y="57.785" size="1.778" layer="21">B</text>
</plain>
<libraries>
<library name="trigger-simple">
<packages>
<package name="DIL06">
<wire x1="3.14" y1="5.08" x2="-5.08" y2="5.08" width="0.1524" layer="21"/>
<wire x1="-5.08" y1="-5.08" x2="3.14" y2="-5.08" width="0.1524" layer="21"/>
<wire x1="-5.08" y1="5.08" x2="-5.08" y2="2.54" width="0.1524" layer="21"/>
<wire x1="-5.08" y1="-5.08" x2="-5.08" y2="-2.54" width="0.1524" layer="21"/>
<wire x1="-5.08" y1="-1.016" x2="-5.08" y2="1.016" width="0.1524" layer="21" curve="180"/>
<wire x1="-5.08" y1="2.54" x2="3.14" y2="2.54" width="0.1524" layer="21"/>
<wire x1="-5.08" y1="2.54" x2="-5.08" y2="1.016" width="0.2032" layer="21"/>
<wire x1="-5.08" y1="-2.54" x2="3.04" y2="-2.54" width="0.1524" layer="21"/>
<wire x1="-5.08" y1="-2.54" x2="-5.08" y2="-1.016" width="0.1524" layer="21"/>
<wire x1="3.14" y1="5.08" x2="3.14" y2="-5.08" width="0.127" layer="21"/>
<pad name="1" x="-3.51" y="-3.81" drill="0.8128" diameter="1.6002" shape="octagon"/>
<pad name="2" x="-0.97" y="-3.81" drill="0.8128" diameter="1.6002" shape="octagon"/>
<pad name="3" x="1.57" y="-3.81" drill="0.8128" diameter="1.6002" shape="octagon"/>
<pad name="4" x="1.57" y="3.81" drill="0.8128" diameter="1.6002" shape="octagon"/>
<pad name="5" x="-0.97" y="3.81" drill="0.8128" diameter="1.6002" shape="octagon"/>
<pad name="6" x="-3.51" y="3.81" drill="0.8128" diameter="1.6002" shape="octagon"/>
<text x="-3.775" y="-0.635" size="1.27" layer="27" ratio="10">&gt;VALUE</text>
<text x="-5.715" y="-3.81" size="1.27" layer="25" ratio="10" rot="R90">&gt;NAME</text>
</package>
<package name="TO-92">
<wire x1="-2.54" y1="1.0795" x2="2.54" y2="1.0795" width="0.254" layer="21"/>
<wire x1="2.54" y1="-1.0795" x2="1.905" y2="-1.7145" width="0.254" layer="21"/>
<wire x1="1.905" y1="-1.7145" x2="-1.905" y2="-1.7145" width="0.254" layer="21"/>
<wire x1="-1.905" y1="-1.7145" x2="-2.54" y2="-1.0795" width="0.254" layer="21"/>
<pad name="3" x="-2.54" y="0" drill="0.889"/>
<pad name="2" x="0" y="0" drill="0.889"/>
<pad name="1" x="2.54" y="0" drill="0.889" shape="square"/>
<text x="-2.54" y="-4.1275" size="1.27" layer="25">&gt;NAME</text>
</package>
<package name="0805">
<wire x1="-0.3" y1="0.6" x2="0.3" y2="0.6" width="0.1524" layer="21"/>
<wire x1="-0.3" y1="-0.6" x2="0.3" y2="-0.6" width="0.1524" layer="21"/>
<smd name="1" x="-0.9" y="0" dx="0.8" dy="1.2" layer="1"/>
<smd name="2" x="0.9" y="0" dx="0.8" dy="1.2" layer="1"/>
<text x="-0.762" y="0.8255" size="0.4064" layer="25">&gt;NAME</text>
</package>
<package name="SOT23">
<description>&lt;b&gt;SOT-23&lt;/b&gt;</description>
<wire x1="1.4224" y1="0.6604" x2="1.4224" y2="-0.6604" width="0.1524" layer="21"/>
<wire x1="1.4224" y1="-0.6604" x2="-1.4224" y2="-0.6604" width="0.1524" layer="21"/>
<wire x1="-1.4224" y1="-0.6604" x2="-1.4224" y2="0.6604" width="0.1524" layer="21"/>
<wire x1="-1.4224" y1="0.6604" x2="1.4224" y2="0.6604" width="0.1524" layer="21"/>
<smd name="3" x="0" y="1.1" dx="1" dy="1.4" layer="1"/>
<smd name="2" x="0.95" y="-1.1" dx="1" dy="1.4" layer="1"/>
<smd name="1" x="-0.95" y="-1.1" dx="1" dy="1.4" layer="1"/>
<text x="-0.889" y="2.032" size="0.4064" layer="25">&gt;NAME</text>
<text x="-1.016" y="-0.1905" size="0.4064" layer="27">&gt;VALUE</text>
<rectangle x1="-0.2286" y1="0.7112" x2="0.2286" y2="1.2954" layer="51"/>
<rectangle x1="0.7112" y1="-1.2954" x2="1.1684" y2="-0.7112" layer="51"/>
<rectangle x1="-1.1684" y1="-1.2954" x2="-0.7112" y2="-0.7112" layer="51"/>
</package>
<package name="SCREWTERMINAL-2.5MM-4">
<pad name="4" x="0" y="0" drill="1" shape="square"/>
<pad name="2" x="5" y="0" drill="1" shape="square"/>
<pad name="3" x="2.5" y="-5" drill="1" shape="square"/>
<pad name="1" x="7.5" y="-5" drill="1" shape="square"/>
<wire x1="-3" y1="2.55" x2="9" y2="2.55" width="0.127" layer="21"/>
<wire x1="9" y1="2.55" x2="9" y2="-10" width="0.127" layer="21"/>
<wire x1="9" y1="-10" x2="-3" y2="-10" width="0.127" layer="21"/>
<wire x1="-3" y1="-10" x2="-3" y2="2.55" width="0.127" layer="21"/>
<wire x1="-2.75" y1="2.3" x2="8.75" y2="2.3" width="0.127" layer="51"/>
<wire x1="8.75" y1="2.3" x2="8.75" y2="-9.7" width="0.127" layer="51"/>
<wire x1="8.75" y1="-9.7" x2="-2.75" y2="-9.7" width="0.127" layer="51"/>
<wire x1="-2.75" y1="-9.7" x2="-2.75" y2="2.3" width="0.127" layer="51"/>
<text x="-3.8" y="-9.65" size="1.27" layer="25" rot="R90">&gt;Name</text>
<text x="7.4" y="-3.15" size="1.27" layer="21">1</text>
<text x="4.75" y="-3.15" size="1.27" layer="21">2</text>
<text x="2.25" y="-3.15" size="1.27" layer="21">3</text>
<text x="-0.4" y="-3.15" size="1.27" layer="21">4</text>
</package>
<package name="SCREWTERMINAL-2.5MM-2">
<pad name="2" x="0" y="0" drill="1" shape="square"/>
<pad name="1" x="2.5" y="-5" drill="1" shape="square"/>
<wire x1="-3" y1="2.55" x2="4.2" y2="2.55" width="0.127" layer="21"/>
<wire x1="4.2" y1="2.55" x2="4.2" y2="-10" width="0.127" layer="21"/>
<wire x1="4.2" y1="-10" x2="-3" y2="-10" width="0.127" layer="21"/>
<wire x1="-3" y1="-10" x2="-3" y2="2.55" width="0.127" layer="21"/>
<wire x1="-2.75" y1="2.3" x2="3.75" y2="2.3" width="0.127" layer="51"/>
<wire x1="3.75" y1="2.3" x2="3.75" y2="-9.7" width="0.127" layer="51"/>
<wire x1="3.75" y1="-9.7" x2="-2.75" y2="-9.7" width="0.127" layer="51"/>
<wire x1="-2.75" y1="-9.7" x2="-2.75" y2="2.3" width="0.127" layer="51"/>
<text x="2.2" y="-3.25" size="1.27" layer="21">1</text>
<text x="-0.45" y="-3.3" size="1.27" layer="21">2</text>
<text x="-3.95" y="-9.5" size="1.27" layer="25" rot="R90">&gt;Name</text>
</package>
</packages>
</library>
<library name="dan-rcl">
<packages>
<package name="0805">
<description>&lt;b&gt;0805&lt;/b&gt;
&lt;p&gt;From Panasonic ERJ-2RKF1000X Recommended Land Patterns: http://industrial.panasonic.com/www-data/pdf/AOA0000/AOA0000PE32.pdf&lt;/p&gt;
&lt;p&gt;Can fit three 6.25-mil (0.15875mm) traces between pads (on 0.00625 grid)&lt;/p&gt;</description>
<smd name="2" x="1.1" y="0" dx="0.9" dy="1.4" layer="1"/>
<smd name="1" x="-1.1" y="0" dx="0.9" dy="1.4" layer="1"/>
<text x="1.905" y="-0.635" size="1.016" layer="25" font="vector" ratio="20">&gt;NAME</text>
<rectangle x1="-0.65" y1="-0.625" x2="0.65" y2="-0.4218" layer="21"/>
<rectangle x1="-1.025" y1="-0.65" x2="-0.475" y2="0.65" layer="51"/>
<rectangle x1="0.475" y1="-0.65" x2="1.025" y2="0.65" layer="51" rot="R180"/>
<rectangle x1="-0.65" y1="0.4218" x2="0.65" y2="0.625" layer="21" rot="R180"/>
</package>
</packages>
</library>
<library name="holes">
<description>&lt;b&gt;Mounting Holes and Pads&lt;/b&gt;&lt;p&gt;
&lt;author&gt;Created by librarian@cadsoft.de&lt;/author&gt;</description>
<packages>
<package name="3,2-PAD">
<description>&lt;b&gt;MOUNTING PAD&lt;/b&gt; 3.2 mm, round</description>
<wire x1="-2.159" y1="0" x2="0" y2="-2.159" width="2.4892" layer="51" curve="90" cap="flat"/>
<wire x1="0" y1="2.159" x2="2.159" y2="0" width="2.4892" layer="51" curve="-90" cap="flat"/>
<circle x="0" y="0" radius="3.429" width="0.1524" layer="21"/>
<circle x="0" y="0" radius="0.762" width="0.4572" layer="51"/>
<circle x="0" y="0" radius="3.683" width="1.27" layer="39"/>
<circle x="0" y="0" radius="3.683" width="1.27" layer="40"/>
<circle x="0" y="0" radius="3.556" width="1.016" layer="43"/>
<circle x="0" y="0" radius="1.7" width="0.1524" layer="21"/>
<pad name="B3,2" x="0" y="0" drill="3.2" diameter="5.842"/>
<text x="-1.27" y="-3.81" size="1.27" layer="48">3,2</text>
</package>
</packages>
</library>
</libraries>
<attributes>
</attributes>
<variantdefs>
</variantdefs>
<classes>
<class number="0" name="default" width="0" drill="0">
</class>
</classes>
<designrules name="SeeedStudio_2layer_DRU_no_angle_20140221">
<description language="de">&lt;b&gt;EAGLE Design Rules&lt;/b&gt;
&lt;p&gt;
Die Standard-Design-Rules sind so gewählt, dass sie für 
die meisten Anwendungen passen. Sollte ihre Platine 
besondere Anforderungen haben, treffen Sie die erforderlichen
Einstellungen hier und speichern die Design Rules unter 
einem neuen Namen ab.</description>
<description language="en">&lt;b&gt;EAGLE Design Rules&lt;/b&gt;
&lt;p&gt;
The default Design Rules have been set to cover
a wide range of applications. Your particular design
may have different requirements, so please make the
necessary adjustments and save your customized
design rules under a new name.</description>
<description language="zh">&lt;b&gt;Seeed Studio EAGLE Design Rules&lt;/b&gt;
</description>
<param name="layerSetup" value="(1*16)"/>
<param name="mtCopper" value="0.035mm 0.0175mm 0.035mm 0.035mm 0.035mm 0.035mm 0.035mm 0.035mm 0.035mm 0.035mm 0.035mm 0.035mm 0.035mm 0.035mm 0.0175mm 0.035mm"/>
<param name="mtIsolate" value="1.5mm 1.1mm 0.2mm 0.15mm 0.2mm 0.15mm 0.2mm 0.15mm 0.2mm 0.15mm 0.2mm 0.15mm 0.2mm 0.15mm 0.2mm"/>
<param name="mdWireWire" value="6mil"/>
<param name="mdWirePad" value="6mil"/>
<param name="mdWireVia" value="6mil"/>
<param name="mdPadPad" value="6mil"/>
<param name="mdPadVia" value="6mil"/>
<param name="mdViaVia" value="6mil"/>
<param name="mdSmdPad" value="0mil"/>
<param name="mdSmdVia" value="0mil"/>
<param name="mdSmdSmd" value="0mil"/>
<param name="mdViaViaSameLayer" value="8mil"/>
<param name="mnLayersViaInSmd" value="2"/>
<param name="mdCopperDimension" value="10mil"/>
<param name="mdDrill" value="10mil"/>
<param name="mdSmdStop" value="0mil"/>
<param name="msWidth" value="6mil"/>
<param name="msDrill" value="12mil"/>
<param name="msMicroVia" value="12mil"/>
<param name="msBlindViaRatio" value="0.5"/>
<param name="rvPadTop" value="0.25"/>
<param name="rvPadInner" value="0.25"/>
<param name="rvPadBottom" value="0.25"/>
<param name="rvViaOuter" value="0.25"/>
<param name="rvViaInner" value="0.25"/>
<param name="rvMicroViaOuter" value="0.25"/>
<param name="rvMicroViaInner" value="0.25"/>
<param name="rlMinPadTop" value="10mil"/>
<param name="rlMaxPadTop" value="20mil"/>
<param name="rlMinPadInner" value="10mil"/>
<param name="rlMaxPadInner" value="20mil"/>
<param name="rlMinPadBottom" value="10mil"/>
<param name="rlMaxPadBottom" value="20mil"/>
<param name="rlMinViaOuter" value="6mil"/>
<param name="rlMaxViaOuter" value="20mil"/>
<param name="rlMinViaInner" value="6mil"/>
<param name="rlMaxViaInner" value="20mil"/>
<param name="rlMinMicroViaOuter" value="4mil"/>
<param name="rlMaxMicroViaOuter" value="20mil"/>
<param name="rlMinMicroViaInner" value="4mil"/>
<param name="rlMaxMicroViaInner" value="20mil"/>
<param name="psTop" value="-1"/>
<param name="psBottom" value="-1"/>
<param name="psFirst" value="0"/>
<param name="psElongationLong" value="100"/>
<param name="psElongationOffset" value="100"/>
<param name="mvStopFrame" value="1"/>
<param name="mvCreamFrame" value="0"/>
<param name="mlMinStopFrame" value="2mil"/>
<param name="mlMaxStopFrame" value="2mil"/>
<param name="mlMinCreamFrame" value="0mil"/>
<param name="mlMaxCreamFrame" value="0mil"/>
<param name="mlViaStopLimit" value="100mil"/>
<param name="srRoundness" value="0"/>
<param name="srMinRoundness" value="0mil"/>
<param name="srMaxRoundness" value="0mil"/>
<param name="slThermalIsolate" value="10mil"/>
<param name="slThermalsForVias" value="0"/>
<param name="dpMaxLengthDifference" value="10mm"/>
<param name="dpGapFactor" value="2.5"/>
<param name="checkGrid" value="0"/>
<param name="checkAngle" value="0"/>
<param name="checkFont" value="1"/>
<param name="checkRestrict" value="0"/>
<param name="useDiameter" value="13"/>
<param name="maxErrors" value="50"/>
</designrules>
<autorouter>
<pass name="Default">
<param name="RoutingGrid" value="50mil"/>
<param name="tpViaShape" value="round"/>
<param name="PrefDir.1" value="|"/>
<param name="PrefDir.2" value="0"/>
<param name="PrefDir.3" value="0"/>
<param name="PrefDir.4" value="0"/>
<param name="PrefDir.5" value="0"/>
<param name="PrefDir.6" value="0"/>
<param name="PrefDir.7" value="0"/>
<param name="PrefDir.8" value="0"/>
<param name="PrefDir.9" value="0"/>
<param name="PrefDir.10" value="0"/>
<param name="PrefDir.11" value="0"/>
<param name="PrefDir.12" value="0"/>
<param name="PrefDir.13" value="0"/>
<param name="PrefDir.14" value="0"/>
<param name="PrefDir.15" value="0"/>
<param name="PrefDir.16" value="-"/>
<param name="cfVia" value="8"/>
<param name="cfNonPref" value="5"/>
<param name="cfChangeDir" value="2"/>
<param name="cfOrthStep" value="2"/>
<param name="cfDiagStep" value="3"/>
<param name="cfExtdStep" value="0"/>
<param name="cfBonusStep" value="1"/>
<param name="cfMalusStep" value="1"/>
<param name="cfPadImpact" value="4"/>
<param name="cfSmdImpact" value="4"/>
<param name="cfBusImpact" value="0"/>
<param name="cfHugging" value="3"/>
<param name="cfAvoid" value="4"/>
<param name="cfPolygon" value="10"/>
<param name="cfBase.1" value="0"/>
<param name="cfBase.2" value="1"/>
<param name="cfBase.3" value="1"/>
<param name="cfBase.4" value="1"/>
<param name="cfBase.5" value="1"/>
<param name="cfBase.6" value="1"/>
<param name="cfBase.7" value="1"/>
<param name="cfBase.8" value="1"/>
<param name="cfBase.9" value="1"/>
<param name="cfBase.10" value="1"/>
<param name="cfBase.11" value="1"/>
<param name="cfBase.12" value="1"/>
<param name="cfBase.13" value="1"/>
<param name="cfBase.14" value="1"/>
<param name="cfBase.15" value="1"/>
<param name="cfBase.16" value="0"/>
<param name="mnVias" value="20"/>
<param name="mnSegments" value="9999"/>
<param name="mnExtdSteps" value="9999"/>
<param name="mnRipupLevel" value="10"/>
<param name="mnRipupSteps" value="100"/>
<param name="mnRipupTotal" value="100"/>
</pass>
<pass name="Follow-me" refer="Default" active="yes">
</pass>
<pass name="Busses" refer="Default" active="yes">
<param name="cfNonPref" value="4"/>
<param name="cfBusImpact" value="4"/>
<param name="cfHugging" value="0"/>
<param name="mnVias" value="0"/>
</pass>
<pass name="Route" refer="Default" active="yes">
</pass>
<pass name="Optimize1" refer="Default" active="yes">
<param name="cfVia" value="99"/>
<param name="cfExtdStep" value="10"/>
<param name="cfHugging" value="1"/>
<param name="mnExtdSteps" value="1"/>
<param name="mnRipupLevel" value="0"/>
</pass>
<pass name="Optimize2" refer="Optimize1" active="yes">
<param name="cfNonPref" value="0"/>
<param name="cfChangeDir" value="6"/>
<param name="cfExtdStep" value="0"/>
<param name="cfBonusStep" value="2"/>
<param name="cfMalusStep" value="2"/>
<param name="cfPadImpact" value="2"/>
<param name="cfSmdImpact" value="2"/>
<param name="cfHugging" value="0"/>
</pass>
<pass name="Optimize3" refer="Optimize2" active="yes">
<param name="cfChangeDir" value="8"/>
<param name="cfPadImpact" value="0"/>
<param name="cfSmdImpact" value="0"/>
</pass>
<pass name="Optimize4" refer="Optimize3" active="yes">
<param name="cfChangeDir" value="25"/>
</pass>
</autorouter>
<elements>
<element name="U1" library="trigger-simple" package="DIL06" value="" x="45.72" y="29.21" smashed="yes" rot="R270">
<attribute name="VALUE" x="45.085" y="32.985" size="1.27" layer="27" ratio="10" rot="R270"/>
<attribute name="NAME" x="41.91" y="34.925" size="1.27" layer="25" ratio="10"/>
</element>
<element name="FB1" library="dan-rcl" package="0805" value="" x="62.484" y="45.085" rot="R180"/>
<element name="Q1" library="trigger-simple" package="TO-92" value="2N3904" x="38.1" y="29.21" smashed="yes" rot="R270">
<attribute name="NAME" x="39.497" y="24.5745" size="1.27" layer="25"/>
</element>
<element name="R1" library="trigger-simple" package="0805" value="10K" x="35.433" y="33.401" smashed="yes">
<attribute name="NAME" x="34.671" y="34.2265" size="0.4064" layer="25"/>
</element>
<element name="R2" library="trigger-simple" package="0805" value="1.5K" x="34.671" y="25.527" smashed="yes">
<attribute name="NAME" x="33.909" y="26.3525" size="0.4064" layer="25"/>
</element>
<element name="R3" library="trigger-simple" package="0805" value="10K" x="52.578" y="26.797" smashed="yes" rot="R90">
<attribute name="NAME" x="51.7525" y="26.035" size="0.4064" layer="25" rot="R90"/>
</element>
<element name="U2" library="trigger-simple" package="SOT23" value="BZX84C6V2" x="34.29" y="29.21" smashed="yes">
<attribute name="NAME" x="33.401" y="31.242" size="0.4064" layer="25"/>
</element>
<element name="R4" library="trigger-simple" package="0805" value="100K" x="52.451" y="33.655" smashed="yes" rot="R90">
<attribute name="NAME" x="51.6255" y="32.893" size="0.4064" layer="25" rot="R90"/>
</element>
<element name="U3" library="trigger-simple" package="DIL06" value="" x="45.72" y="52.07" smashed="yes" rot="R270">
<attribute name="VALUE" x="45.085" y="55.845" size="1.27" layer="27" ratio="10" rot="R270"/>
<attribute name="NAME" x="40.005" y="57.785" size="1.27" layer="25" ratio="10"/>
</element>
<element name="Q2" library="trigger-simple" package="TO-92" value="2N3904" x="38.1" y="52.07" smashed="yes" rot="R270">
<attribute name="NAME" x="40.64" y="48.5775" size="1.27" layer="25" rot="R180"/>
</element>
<element name="R5" library="trigger-simple" package="0805" value="10K" x="35.433" y="56.134" smashed="yes">
<attribute name="NAME" x="34.671" y="56.9595" size="0.4064" layer="25"/>
</element>
<element name="R6" library="trigger-simple" package="0805" value="1.5K" x="35.56" y="48.26" smashed="yes">
<attribute name="NAME" x="34.798" y="49.0855" size="0.4064" layer="25"/>
</element>
<element name="R7" library="trigger-simple" package="0805" value="10K" x="52.324" y="49.784" smashed="yes" rot="R90">
<attribute name="NAME" x="51.4985" y="49.022" size="0.4064" layer="25" rot="R90"/>
</element>
<element name="U4" library="trigger-simple" package="SOT23" value="BZX84C6V2" x="34.29" y="52.07" smashed="yes">
<attribute name="NAME" x="33.401" y="54.102" size="0.4064" layer="25"/>
</element>
<element name="R8" library="trigger-simple" package="0805" value="100K" x="52.324" y="56.515" smashed="yes" rot="R90">
<attribute name="NAME" x="51.4985" y="55.753" size="0.4064" layer="25" rot="R90"/>
</element>
<element name="U5" library="trigger-simple" package="DIL06" value="" x="45.72" y="63.5" smashed="yes" rot="R270">
<attribute name="VALUE" x="45.085" y="67.275" size="1.27" layer="27" ratio="10" rot="R270"/>
<attribute name="NAME" x="51.562" y="64.135" size="1.27" layer="25" ratio="10"/>
</element>
<element name="Q3" library="trigger-simple" package="TO-92" value="2N3904" x="38.1" y="64.77" smashed="yes" rot="R270">
<attribute name="NAME" x="38.1" y="59.3725" size="1.27" layer="25"/>
</element>
<element name="R9" library="trigger-simple" package="0805" value="10K" x="35.56" y="68.58" smashed="yes">
<attribute name="NAME" x="35.179" y="67.2465" size="0.4064" layer="25"/>
</element>
<element name="R10" library="trigger-simple" package="0805" value="1.5K" x="35.56" y="60.96" smashed="yes">
<attribute name="NAME" x="34.798" y="61.7855" size="0.4064" layer="25"/>
</element>
<element name="R11" library="trigger-simple" package="0805" value="10K" x="52.324" y="61.087" smashed="yes" rot="R90">
<attribute name="NAME" x="51.4985" y="60.325" size="0.4064" layer="25" rot="R90"/>
</element>
<element name="U6" library="trigger-simple" package="SOT23" value="BZX84C6V2" x="34.29" y="64.77" smashed="yes">
<attribute name="NAME" x="32.639" y="66.167" size="0.4064" layer="25"/>
</element>
<element name="R12" library="trigger-simple" package="0805" value="100K" x="52.324" y="67.945" smashed="yes" rot="R90">
<attribute name="NAME" x="51.4985" y="67.183" size="0.4064" layer="25" rot="R90"/>
</element>
<element name="U7" library="trigger-simple" package="DIL06" value="" x="45.72" y="40.64" smashed="yes" rot="R270">
<attribute name="VALUE" x="45.085" y="44.415" size="1.27" layer="27" ratio="10" rot="R270"/>
<attribute name="NAME" x="40.64" y="46.355" size="1.27" layer="25" ratio="10"/>
</element>
<element name="Q4" library="trigger-simple" package="TO-92" value="2N3904" x="38.1" y="40.64" smashed="yes" rot="R270">
<attribute name="NAME" x="40.64" y="37.1475" size="1.27" layer="25" rot="R180"/>
</element>
<element name="R13" library="trigger-simple" package="0805" value="10K" x="35.56" y="44.45" smashed="yes">
<attribute name="NAME" x="34.798" y="45.2755" size="0.4064" layer="25"/>
</element>
<element name="R14" library="trigger-simple" package="0805" value="1.5K" x="35.052" y="36.83" smashed="yes">
<attribute name="NAME" x="34.29" y="37.6555" size="0.4064" layer="25"/>
</element>
<element name="R15" library="trigger-simple" package="0805" value="10K" x="52.324" y="38.227" smashed="yes" rot="R90">
<attribute name="NAME" x="51.4985" y="37.465" size="0.4064" layer="25" rot="R90"/>
</element>
<element name="U8" library="trigger-simple" package="SOT23" value="BZX84C6V2" x="34.29" y="40.64" smashed="yes">
<attribute name="NAME" x="33.401" y="42.672" size="0.4064" layer="25"/>
</element>
<element name="R16" library="trigger-simple" package="0805" value="100K" x="52.324" y="45.085" smashed="yes" rot="R90">
<attribute name="NAME" x="51.4985" y="44.323" size="0.4064" layer="25" rot="R90"/>
</element>
<element name="H1" library="holes" package="3,2-PAD" value="M3" x="60.96" y="30.48"/>
<element name="H2" library="holes" package="3,2-PAD" value="M3" x="25.4" y="30.48"/>
<element name="H3" library="holes" package="3,2-PAD" value="M3" x="25.4" y="64.77"/>
<element name="H4" library="holes" package="3,2-PAD" value="M3" x="60.96" y="64.77"/>
<element name="J1" library="trigger-simple" package="SCREWTERMINAL-2.5MM-4" value="" x="28.448" y="48.26" rot="R180"/>
<element name="J2" library="trigger-simple" package="SCREWTERMINAL-2.5MM-4" value="" x="62.992" y="49.403" smashed="yes" rot="R180">
<attribute name="NAME" x="66.673" y="62.494" size="1.27" layer="25" rot="R180"/>
</element>
<element name="J3" library="trigger-simple" package="SCREWTERMINAL-2.5MM-2" value="" x="63.881" y="40.64" rot="R270"/>
<element name="J5" library="trigger-simple" package="SCREWTERMINAL-2.5MM-2" value="" x="21.971" y="39.37" rot="R90"/>
</elements>
<signals>
<signal name="GND">
<contactref element="R3" pad="1"/>
<contactref element="R4" pad="2"/>
<contactref element="R7" pad="1"/>
<contactref element="R8" pad="2"/>
<contactref element="R11" pad="1"/>
<contactref element="R12" pad="2"/>
<contactref element="R15" pad="1"/>
<contactref element="R16" pad="2"/>
<contactref element="FB1" pad="2"/>
<contactref element="J3" pad="2"/>
<wire x1="63.881" y1="40.64" x2="62.738" y2="40.64" width="0.6096" layer="1"/>
<wire x1="62.738" y1="40.64" x2="61.384" y2="41.994" width="0.6096" layer="1"/>
<wire x1="61.384" y1="41.994" x2="61.384" y2="45.085" width="0.6096" layer="1"/>
<polygon width="0.4064" layer="16" isolate="0.254">
<vertex x="46.99" y="71.12"/>
<vertex x="67.31" y="71.12"/>
<vertex x="67.31" y="24.13"/>
<vertex x="46.99" y="24.13"/>
</polygon>
<polygon width="0.4064" layer="1" isolate="0.254">
<vertex x="46.99" y="71.12"/>
<vertex x="67.31" y="71.12"/>
<vertex x="67.31" y="24.13"/>
<vertex x="46.99" y="24.13"/>
</polygon>
</signal>
<signal name="N$1">
<contactref element="R2" pad="2"/>
<contactref element="Q1" pad="1"/>
<wire x1="35.571" y1="25.527" x2="36.957" y2="25.527" width="0.8128" layer="1"/>
<wire x1="36.957" y1="25.527" x2="38.1" y2="26.67" width="0.8128" layer="1"/>
</signal>
<signal name="N$2">
<contactref element="Q1" pad="2"/>
<contactref element="R1" pad="1"/>
<contactref element="U2" pad="3"/>
<wire x1="38.1" y1="29.21" x2="37.084" y2="29.21" width="0.8128" layer="1"/>
<wire x1="37.084" y1="29.21" x2="35.984" y2="30.31" width="0.8128" layer="1"/>
<wire x1="35.984" y1="30.31" x2="34.29" y2="30.31" width="0.8128" layer="1"/>
<wire x1="34.533" y1="33.401" x2="34.29" y2="33.158" width="0.8128" layer="1"/>
<wire x1="34.29" y1="33.158" x2="34.29" y2="30.31" width="0.8128" layer="1"/>
</signal>
<signal name="N$3">
<contactref element="U1" pad="2"/>
<contactref element="Q1" pad="3"/>
<wire x1="41.91" y1="30.18" x2="40.975" y2="31.115" width="0.8128" layer="1"/>
<wire x1="40.975" y1="31.115" x2="38.735" y2="31.115" width="0.8128" layer="1"/>
<wire x1="38.735" y1="31.115" x2="38.1" y2="31.75" width="0.8128" layer="1"/>
</signal>
<signal name="OUT2">
<contactref element="U1" pad="4"/>
<contactref element="R3" pad="2"/>
<contactref element="J2" pad="2"/>
<wire x1="49.53" y1="27.64" x2="52.521" y2="27.64" width="0.4064" layer="1"/>
<wire x1="52.521" y1="27.64" x2="52.578" y2="27.697" width="0.4064" layer="1"/>
<wire x1="57.992" y1="49.403" x2="57.992" y2="47.578" width="0.4064" layer="1"/>
<wire x1="57.992" y1="47.578" x2="56.896" y2="46.482" width="0.4064" layer="1"/>
<wire x1="56.896" y1="46.482" x2="56.896" y2="39.878" width="0.4064" layer="1"/>
<wire x1="56.896" y1="39.878" x2="54.864" y2="37.846" width="0.4064" layer="1"/>
<wire x1="54.864" y1="37.846" x2="54.864" y2="29.983" width="0.4064" layer="1"/>
<wire x1="54.864" y1="29.983" x2="52.578" y2="27.697" width="0.4064" layer="1"/>
</signal>
<signal name="5V">
<contactref element="U1" pad="5"/>
<contactref element="U3" pad="5"/>
<contactref element="U5" pad="5"/>
<contactref element="U7" pad="5"/>
<contactref element="J3" pad="1"/>
<wire x1="58.881" y1="38.14" x2="55.411" y2="41.61" width="0.6096" layer="16"/>
<wire x1="55.411" y1="41.61" x2="49.53" y2="41.61" width="0.6096" layer="16"/>
<wire x1="49.53" y1="30.18" x2="49.576" y2="30.226" width="0.6096" layer="16"/>
<wire x1="49.576" y1="30.226" x2="52.959" y2="30.226" width="0.6096" layer="16"/>
<wire x1="52.959" y1="30.226" x2="55.88" y2="33.147" width="0.6096" layer="16"/>
<wire x1="55.88" y1="33.147" x2="55.88" y2="35.306" width="0.6096" layer="16"/>
<wire x1="55.88" y1="35.306" x2="58.714" y2="38.14" width="0.6096" layer="16"/>
<wire x1="58.714" y1="38.14" x2="58.881" y2="38.14" width="0.6096" layer="16"/>
<wire x1="49.53" y1="53.04" x2="49.738" y2="52.832" width="0.6096" layer="16"/>
<wire x1="49.738" y1="52.832" x2="53.34" y2="52.832" width="0.6096" layer="16"/>
<wire x1="53.34" y1="52.832" x2="55.372" y2="50.8" width="0.6096" layer="16"/>
<wire x1="55.372" y1="50.8" x2="55.372" y2="47.498" width="0.6096" layer="16"/>
<wire x1="55.372" y1="47.498" x2="55.411" y2="47.459" width="0.6096" layer="16"/>
<wire x1="55.411" y1="47.459" x2="55.411" y2="41.61" width="0.6096" layer="16"/>
<wire x1="49.53" y1="64.47" x2="49.611" y2="64.389" width="0.6096" layer="16"/>
<wire x1="49.611" y1="64.389" x2="53.721" y2="64.389" width="0.6096" layer="16"/>
<wire x1="53.721" y1="64.389" x2="54.61" y2="63.5" width="0.6096" layer="16"/>
<wire x1="54.61" y1="63.5" x2="54.61" y2="57.912" width="0.6096" layer="16"/>
<wire x1="54.61" y1="57.912" x2="55.626" y2="56.896" width="0.6096" layer="16"/>
<wire x1="55.626" y1="56.896" x2="57.023" y2="56.896" width="0.6096" layer="16"/>
<wire x1="57.023" y1="56.896" x2="57.785" y2="56.134" width="0.6096" layer="16"/>
<wire x1="57.785" y1="56.134" x2="57.785" y2="52.705" width="0.6096" layer="16"/>
<wire x1="57.785" y1="52.705" x2="55.88" y2="50.8" width="0.6096" layer="16"/>
<wire x1="55.88" y1="50.8" x2="55.372" y2="50.8" width="0.6096" layer="16"/>
</signal>
<signal name="N$6">
<contactref element="U1" pad="6"/>
<contactref element="R4" pad="1"/>
<wire x1="49.53" y1="32.72" x2="52.416" y2="32.72" width="0.4064" layer="1"/>
<wire x1="52.416" y1="32.72" x2="52.451" y2="32.755" width="0.4064" layer="1"/>
</signal>
<signal name="N$5">
<contactref element="R6" pad="2"/>
<contactref element="Q2" pad="1"/>
<wire x1="38.1" y1="49.53" x2="38.1" y2="48.387" width="0.8128" layer="1"/>
<wire x1="38.1" y1="48.387" x2="37.973" y2="48.26" width="0.8128" layer="1"/>
<wire x1="37.973" y1="48.26" x2="36.46" y2="48.26" width="0.8128" layer="1"/>
</signal>
<signal name="N$7">
<contactref element="Q2" pad="2"/>
<contactref element="R5" pad="1"/>
<contactref element="U4" pad="3"/>
<wire x1="38.1" y1="52.07" x2="37" y2="53.17" width="0.8128" layer="1"/>
<wire x1="37" y1="53.17" x2="34.29" y2="53.17" width="0.8128" layer="1"/>
<wire x1="34.29" y1="53.17" x2="34.29" y2="56.134" width="0.8128" layer="1"/>
<wire x1="34.29" y1="56.134" x2="34.533" y2="56.134" width="0.8128" layer="1"/>
</signal>
<signal name="N$8">
<contactref element="U3" pad="2"/>
<contactref element="Q2" pad="3"/>
<wire x1="41.91" y1="53.04" x2="40.34" y2="54.61" width="0.8128" layer="1"/>
<wire x1="40.34" y1="54.61" x2="38.1" y2="54.61" width="0.8128" layer="1"/>
</signal>
<signal name="OUT1">
<contactref element="U3" pad="4"/>
<contactref element="R7" pad="2"/>
<contactref element="J2" pad="1"/>
<wire x1="52.324" y1="50.684" x2="49.714" y2="50.684" width="0.4064" layer="1"/>
<wire x1="49.714" y1="50.684" x2="49.53" y2="50.5" width="0.4064" layer="1"/>
<wire x1="55.492" y1="54.403" x2="55.492" y2="52.063" width="0.4064" layer="1"/>
<wire x1="55.492" y1="52.063" x2="54.229" y2="50.8" width="0.4064" layer="1"/>
<wire x1="54.229" y1="50.8" x2="52.44" y2="50.8" width="0.4064" layer="1"/>
<wire x1="52.44" y1="50.8" x2="52.324" y2="50.684" width="0.4064" layer="1"/>
</signal>
<signal name="N$10">
<contactref element="U3" pad="6"/>
<contactref element="R8" pad="1"/>
<wire x1="52.324" y1="55.615" x2="49.565" y2="55.615" width="0.4064" layer="1"/>
<wire x1="49.565" y1="55.615" x2="49.53" y2="55.58" width="0.4064" layer="1"/>
</signal>
<signal name="N$11">
<contactref element="R10" pad="2"/>
<contactref element="Q3" pad="1"/>
<wire x1="38.1" y1="62.23" x2="38.1" y2="61.214" width="0.8128" layer="1"/>
<wire x1="38.1" y1="61.214" x2="37.846" y2="60.96" width="0.8128" layer="1"/>
<wire x1="37.846" y1="60.96" x2="36.46" y2="60.96" width="0.8128" layer="1"/>
</signal>
<signal name="N$12">
<contactref element="Q3" pad="2"/>
<contactref element="R9" pad="1"/>
<contactref element="U6" pad="3"/>
<wire x1="34.66" y1="68.58" x2="34.29" y2="68.21" width="0.8128" layer="1"/>
<wire x1="34.29" y1="68.21" x2="34.29" y2="65.87" width="0.8128" layer="1"/>
<wire x1="34.29" y1="65.87" x2="37" y2="65.87" width="0.8128" layer="1"/>
<wire x1="37" y1="65.87" x2="38.1" y2="64.77" width="0.8128" layer="1"/>
</signal>
<signal name="N$13">
<contactref element="U5" pad="2"/>
<contactref element="Q3" pad="3"/>
<wire x1="41.91" y1="64.47" x2="41.829" y2="64.47" width="0.6096" layer="1"/>
<wire x1="41.829" y1="64.47" x2="38.989" y2="67.31" width="0.8128" layer="1"/>
<wire x1="38.989" y1="67.31" x2="38.1" y2="67.31" width="0.8128" layer="1"/>
</signal>
<signal name="OUT3">
<contactref element="U5" pad="4"/>
<contactref element="R11" pad="2"/>
<contactref element="J2" pad="3"/>
<wire x1="49.53" y1="61.93" x2="52.267" y2="61.93" width="0.4064" layer="1"/>
<wire x1="52.267" y1="61.93" x2="52.324" y2="61.987" width="0.4064" layer="1"/>
<wire x1="60.492" y1="54.403" x2="60.492" y2="56.348" width="0.4064" layer="1"/>
<wire x1="60.492" y1="56.348" x2="54.864" y2="61.976" width="0.4064" layer="1"/>
<wire x1="54.864" y1="61.976" x2="52.335" y2="61.976" width="0.4064" layer="1"/>
<wire x1="52.335" y1="61.976" x2="52.324" y2="61.987" width="0.4064" layer="1"/>
</signal>
<signal name="N$15">
<contactref element="U5" pad="6"/>
<contactref element="R12" pad="1"/>
<wire x1="49.53" y1="67.01" x2="52.289" y2="67.01" width="0.4064" layer="1"/>
<wire x1="52.289" y1="67.01" x2="52.324" y2="67.045" width="0.4064" layer="1"/>
</signal>
<signal name="N$16">
<contactref element="R14" pad="2"/>
<contactref element="Q4" pad="1"/>
<wire x1="35.952" y1="36.83" x2="36.83" y2="36.83" width="0.8128" layer="1"/>
<wire x1="36.83" y1="36.83" x2="38.1" y2="38.1" width="0.8128" layer="1"/>
</signal>
<signal name="N$17">
<contactref element="Q4" pad="2"/>
<contactref element="R13" pad="1"/>
<contactref element="U8" pad="3"/>
<wire x1="38.1" y1="40.64" x2="37" y2="41.74" width="0.8128" layer="1"/>
<wire x1="37" y1="41.74" x2="34.29" y2="41.74" width="0.8128" layer="1"/>
<wire x1="34.29" y1="41.74" x2="34.29" y2="44.45" width="0.8128" layer="1"/>
<wire x1="34.29" y1="44.45" x2="34.66" y2="44.45" width="0.8128" layer="1"/>
</signal>
<signal name="N$18">
<contactref element="U7" pad="2"/>
<contactref element="Q4" pad="3"/>
<wire x1="41.91" y1="41.61" x2="40.34" y2="43.18" width="0.8128" layer="1"/>
<wire x1="40.34" y1="43.18" x2="38.1" y2="43.18" width="0.8128" layer="1"/>
</signal>
<signal name="OUT4">
<contactref element="U7" pad="4"/>
<contactref element="R15" pad="2"/>
<contactref element="J2" pad="4"/>
<wire x1="52.324" y1="39.127" x2="49.587" y2="39.127" width="0.4064" layer="1"/>
<wire x1="49.587" y1="39.127" x2="49.53" y2="39.07" width="0.4064" layer="1"/>
<wire x1="62.992" y1="49.403" x2="60.96" y2="51.435" width="0.4064" layer="1"/>
<wire x1="60.96" y1="51.435" x2="57.785" y2="51.435" width="0.4064" layer="1"/>
<wire x1="57.785" y1="51.435" x2="55.118" y2="48.768" width="0.4064" layer="1"/>
<wire x1="55.118" y1="48.768" x2="55.118" y2="41.921" width="0.4064" layer="1"/>
<wire x1="55.118" y1="41.921" x2="52.324" y2="39.127" width="0.4064" layer="1"/>
</signal>
<signal name="N$20">
<contactref element="U7" pad="6"/>
<contactref element="R16" pad="1"/>
<wire x1="52.324" y1="44.185" x2="49.565" y2="44.185" width="0.4064" layer="1"/>
<wire x1="49.565" y1="44.185" x2="49.53" y2="44.15" width="0.4064" layer="1"/>
</signal>
<signal name="IN1">
<contactref element="R5" pad="2"/>
<contactref element="U3" pad="1"/>
<contactref element="J1" pad="1"/>
<wire x1="36.333" y1="56.134" x2="36.576" y2="56.134" width="0.8128" layer="1"/>
<wire x1="36.576" y1="56.134" x2="37.338" y2="56.896" width="0.8128" layer="1"/>
<wire x1="37.338" y1="56.896" x2="40.594" y2="56.896" width="0.8128" layer="1"/>
<wire x1="40.594" y1="56.896" x2="41.91" y2="55.58" width="0.8128" layer="1"/>
<wire x1="34.29" y1="57.15" x2="40.34" y2="57.15" width="0.8128" layer="16"/>
<wire x1="40.34" y1="57.15" x2="41.91" y2="55.58" width="0.8128" layer="16"/>
<wire x1="34.29" y1="57.15" x2="28.448" y2="51.308" width="0.8128" layer="16"/>
<wire x1="28.448" y1="51.308" x2="22.479" y2="51.308" width="0.8128" layer="16"/>
<wire x1="22.479" y1="51.308" x2="20.948" y2="52.839" width="0.8128" layer="16"/>
<wire x1="20.948" y1="52.839" x2="20.948" y2="53.26" width="0.8128" layer="16"/>
</signal>
<signal name="IN2">
<contactref element="R1" pad="2"/>
<contactref element="U1" pad="1"/>
<contactref element="J1" pad="2"/>
<wire x1="36.333" y1="33.401" x2="36.576" y2="33.401" width="0.8128" layer="1"/>
<wire x1="36.576" y1="33.401" x2="37.592" y2="34.417" width="0.8128" layer="1"/>
<wire x1="37.592" y1="34.417" x2="40.213" y2="34.417" width="0.8128" layer="1"/>
<wire x1="40.213" y1="34.417" x2="41.91" y2="32.72" width="0.8128" layer="1"/>
<wire x1="31.75" y1="45.212" x2="33.401" y2="43.561" width="0.8128" layer="16"/>
<wire x1="33.401" y1="43.561" x2="33.401" y2="37.592" width="0.8128" layer="16"/>
<wire x1="33.401" y1="37.592" x2="36.449" y2="34.544" width="0.8128" layer="16"/>
<wire x1="36.449" y1="34.544" x2="40.086" y2="34.544" width="0.8128" layer="16"/>
<wire x1="40.086" y1="34.544" x2="41.91" y2="32.72" width="0.8128" layer="16"/>
<wire x1="23.448" y1="48.26" x2="26.496" y2="45.212" width="0.8128" layer="16"/>
<wire x1="26.496" y1="45.212" x2="31.75" y2="45.212" width="0.8128" layer="16"/>
</signal>
<signal name="IN3">
<contactref element="R9" pad="2"/>
<contactref element="U5" pad="1"/>
<contactref element="J1" pad="3"/>
<wire x1="36.46" y1="68.58" x2="36.46" y2="68.591" width="0.6096" layer="1"/>
<wire x1="36.46" y1="68.591" x2="37.084" y2="69.215" width="0.8128" layer="1"/>
<wire x1="37.084" y1="69.215" x2="39.705" y2="69.215" width="0.8128" layer="1"/>
<wire x1="39.705" y1="69.215" x2="41.91" y2="67.01" width="0.8128" layer="1"/>
<wire x1="32.004" y1="59.817" x2="43.434" y2="59.817" width="0.8128" layer="16"/>
<wire x1="43.434" y1="59.817" x2="44.323" y2="60.706" width="0.8128" layer="16"/>
<wire x1="44.323" y1="60.706" x2="44.323" y2="65.405" width="0.8128" layer="16"/>
<wire x1="44.323" y1="65.405" x2="42.799" y2="66.929" width="0.8128" layer="16"/>
<wire x1="42.799" y1="66.929" x2="41.991" y2="66.929" width="0.8128" layer="16"/>
<wire x1="41.991" y1="66.929" x2="41.91" y2="67.01" width="0.8128" layer="16"/>
<wire x1="32.004" y1="59.817" x2="25.948" y2="53.761" width="0.8128" layer="16"/>
<wire x1="25.948" y1="53.761" x2="25.948" y2="53.26" width="0.8128" layer="16"/>
</signal>
<signal name="IN4">
<contactref element="R13" pad="2"/>
<contactref element="U7" pad="1"/>
<contactref element="J1" pad="4"/>
<wire x1="36.46" y1="44.45" x2="37.338" y2="45.328" width="0.8128" layer="1"/>
<wire x1="37.338" y1="45.328" x2="37.338" y2="45.339" width="0.8128" layer="1"/>
<wire x1="37.338" y1="45.339" x2="40.721" y2="45.339" width="0.8128" layer="1"/>
<wire x1="40.721" y1="45.339" x2="41.91" y2="44.15" width="0.8128" layer="1"/>
<wire x1="32.385" y1="48.26" x2="34.671" y2="45.974" width="0.8128" layer="16"/>
<wire x1="34.671" y1="45.974" x2="40.086" y2="45.974" width="0.8128" layer="16"/>
<wire x1="40.086" y1="45.974" x2="41.91" y2="44.15" width="0.8128" layer="16"/>
<wire x1="32.385" y1="48.26" x2="28.448" y2="48.26" width="0.8128" layer="16"/>
</signal>
<signal name="AGND">
<contactref element="U4" pad="1"/>
<contactref element="R6" pad="1"/>
<contactref element="U2" pad="1"/>
<contactref element="R2" pad="1"/>
<contactref element="U8" pad="1"/>
<contactref element="R14" pad="1"/>
<contactref element="U6" pad="1"/>
<contactref element="R10" pad="1"/>
<contactref element="J5" pad="2"/>
<contactref element="J5" pad="1"/>
<polygon width="0.4064" layer="16" isolate="0.254">
<vertex x="19.05" y="71.12"/>
<vertex x="45.72" y="71.12"/>
<vertex x="45.72" y="24.13"/>
<vertex x="17.78" y="24.13"/>
<vertex x="17.78" y="71.12"/>
</polygon>
<polygon width="0.4064" layer="1" isolate="0.254">
<vertex x="19.05" y="71.12"/>
<vertex x="45.72" y="71.12"/>
<vertex x="45.72" y="24.13"/>
<vertex x="19.05" y="24.13"/>
</polygon>
</signal>
<signal name="E_GND">
<contactref element="H1" pad="B3,2"/>
<contactref element="H2" pad="B3,2"/>
<contactref element="H3" pad="B3,2"/>
<contactref element="H4" pad="B3,2"/>
<contactref element="FB1" pad="1"/>
<wire x1="25.4" y1="30.48" x2="25.908" y2="30.48" width="0.6096" layer="16"/>
<wire x1="25.908" y1="30.48" x2="31.369" y2="25.019" width="0.6096" layer="16"/>
<wire x1="31.369" y1="25.019" x2="56.769" y2="25.019" width="0.6096" layer="16"/>
<wire x1="65.913" y1="34.163" x2="65.913" y2="45.085" width="0.6096" layer="16"/>
<wire x1="65.913" y1="45.085" x2="65.913" y2="61.087" width="0.6096" layer="16"/>
<wire x1="25.4" y1="64.77" x2="27.305" y2="64.77" width="0.6096" layer="16"/>
<wire x1="27.305" y1="64.77" x2="31.369" y2="68.834" width="0.6096" layer="16"/>
<wire x1="31.369" y1="68.834" x2="58.166" y2="68.834" width="0.6096" layer="16"/>
<wire x1="63.584" y1="45.085" x2="65.151" y2="45.085" width="0.6096" layer="1"/>
<via x="65.151" y="45.085" extent="1-16" drill="0.6" shape="square"/>
<wire x1="65.151" y1="45.085" x2="65.913" y2="45.085" width="0.6096" layer="16"/>
<wire x1="65.913" y1="61.087" x2="62.23" y2="64.77" width="0.6096" layer="16"/>
<wire x1="62.23" y1="64.77" x2="60.96" y2="64.77" width="0.6096" layer="16"/>
<wire x1="58.166" y1="68.834" x2="60.96" y2="66.04" width="0.6096" layer="16"/>
<wire x1="60.96" y1="66.04" x2="60.96" y2="64.77" width="0.6096" layer="16"/>
<wire x1="56.769" y1="25.019" x2="60.96" y2="29.21" width="0.6096" layer="16"/>
<wire x1="60.96" y1="29.21" x2="60.96" y2="30.48" width="0.6096" layer="16"/>
<wire x1="60.96" y1="30.48" x2="64.643" y2="34.163" width="0.6096" layer="16"/>
<wire x1="64.643" y1="34.163" x2="65.913" y2="34.163" width="0.6096" layer="16"/>
</signal>
</signals>
</board>
</drawing>
</eagle>
