<?xml version="1.0" encoding="utf-8"?>
<!DOCTYPE eagle SYSTEM "eagle.dtd">
<eagle version="6.4">
<drawing>
<settings>
<setting alwaysvectorfont="yes"/>
<setting verticaltext="up"/>
</settings>
<grid distance="25" unitdist="mil" unit="mil" style="lines" multiple="1" display="yes" altdistance="0.025" altunitdist="inch" altunit="inch"/>
<layers>
<layer number="1" name="Top" color="4" fill="1" visible="yes" active="yes"/>
<layer number="2" name="Route2" color="1" fill="3" visible="no" active="no"/>
<layer number="3" name="Route3" color="4" fill="3" visible="no" active="no"/>
<layer number="14" name="Route14" color="1" fill="6" visible="no" active="no"/>
<layer number="15" name="Route15" color="4" fill="6" visible="no" active="no"/>
<layer number="16" name="Bottom" color="1" fill="1" visible="yes" active="yes"/>
<layer number="17" name="Pads" color="2" fill="1" visible="yes" active="yes"/>
<layer number="18" name="Vias" color="2" fill="1" visible="yes" active="yes"/>
<layer number="19" name="Unrouted" color="6" fill="1" visible="yes" active="yes"/>
<layer number="20" name="Dimension" color="15" fill="1" visible="yes" active="yes"/>
<layer number="21" name="tPlace" color="7" fill="1" visible="yes" active="yes"/>
<layer number="22" name="bPlace" color="7" fill="1" visible="yes" active="yes"/>
<layer number="23" name="tOrigins" color="15" fill="1" visible="yes" active="yes"/>
<layer number="24" name="bOrigins" color="15" fill="1" visible="yes" active="yes"/>
<layer number="25" name="tNames" color="7" fill="1" visible="yes" active="yes"/>
<layer number="26" name="bNames" color="7" fill="1" visible="yes" active="yes"/>
<layer number="27" name="tValues" color="7" fill="1" visible="yes" active="yes"/>
<layer number="28" name="bValues" color="7" fill="1" visible="yes" active="yes"/>
<layer number="29" name="tStop" color="7" fill="3" visible="no" active="yes"/>
<layer number="30" name="bStop" color="7" fill="6" visible="no" active="yes"/>
<layer number="31" name="tCream" color="7" fill="4" visible="no" active="yes"/>
<layer number="32" name="bCream" color="7" fill="5" visible="no" active="yes"/>
<layer number="33" name="tFinish" color="6" fill="3" visible="no" active="yes"/>
<layer number="34" name="bFinish" color="6" fill="6" visible="no" active="yes"/>
<layer number="35" name="tGlue" color="7" fill="4" visible="no" active="yes"/>
<layer number="36" name="bGlue" color="7" fill="5" visible="no" active="yes"/>
<layer number="37" name="tTest" color="7" fill="1" visible="no" active="yes"/>
<layer number="38" name="bTest" color="7" fill="1" visible="no" active="yes"/>
<layer number="39" name="tKeepout" color="4" fill="11" visible="yes" active="yes"/>
<layer number="40" name="bKeepout" color="1" fill="11" visible="yes" active="yes"/>
<layer number="41" name="tRestrict" color="4" fill="10" visible="yes" active="yes"/>
<layer number="42" name="bRestrict" color="1" fill="10" visible="yes" active="yes"/>
<layer number="43" name="vRestrict" color="2" fill="10" visible="yes" active="yes"/>
<layer number="44" name="Drills" color="7" fill="1" visible="no" active="yes"/>
<layer number="45" name="Holes" color="7" fill="1" visible="no" active="yes"/>
<layer number="46" name="Milling" color="3" fill="1" visible="no" active="yes"/>
<layer number="47" name="Measures" color="7" fill="1" visible="no" active="yes"/>
<layer number="48" name="Document" color="7" fill="1" visible="yes" active="yes"/>
<layer number="49" name="Reference" color="7" fill="1" visible="yes" active="yes"/>
<layer number="50" name="dxf" color="7" fill="1" visible="no" active="no"/>
<layer number="51" name="tDocu" color="7" fill="1" visible="yes" active="yes"/>
<layer number="52" name="bDocu" color="7" fill="1" visible="yes" active="yes"/>
<layer number="53" name="tGND_GNDA" color="7" fill="9" visible="no" active="no"/>
<layer number="54" name="bGND_GNDA" color="1" fill="9" visible="no" active="no"/>
<layer number="56" name="wert" color="7" fill="1" visible="no" active="no"/>
<layer number="57" name="tCAD" color="7" fill="1" visible="no" active="no"/>
<layer number="91" name="Nets" color="2" fill="1" visible="no" active="no"/>
<layer number="92" name="Busses" color="1" fill="1" visible="no" active="no"/>
<layer number="93" name="Pins" color="2" fill="1" visible="no" active="no"/>
<layer number="94" name="Symbols" color="4" fill="1" visible="no" active="no"/>
<layer number="95" name="Names" color="7" fill="1" visible="no" active="no"/>
<layer number="96" name="Values" color="7" fill="1" visible="no" active="no"/>
<layer number="97" name="Info" color="7" fill="1" visible="no" active="no"/>
<layer number="98" name="Guide" color="6" fill="1" visible="no" active="no"/>
<layer number="99" name="SpiceOrder" color="7" fill="1" visible="no" active="no"/>
<layer number="100" name="Image" color="15" fill="10" visible="yes" active="yes"/>
<layer number="101" name="Patch_Top" color="12" fill="4" visible="yes" active="yes"/>
<layer number="102" name="Vscore" color="7" fill="1" visible="yes" active="yes"/>
<layer number="103" name="tMap" color="7" fill="1" visible="yes" active="yes"/>
<layer number="104" name="Name" color="16" fill="1" visible="yes" active="yes"/>
<layer number="105" name="tPlate" color="7" fill="1" visible="yes" active="yes"/>
<layer number="106" name="bPlate" color="7" fill="1" visible="yes" active="yes"/>
<layer number="107" name="Crop" color="7" fill="1" visible="yes" active="yes"/>
<layer number="108" name="tplace-old" color="10" fill="1" visible="yes" active="yes"/>
<layer number="109" name="ref-old" color="11" fill="1" visible="yes" active="yes"/>
<layer number="110" name="fp0" color="7" fill="1" visible="no" active="yes"/>
<layer number="111" name="LPC17xx" color="7" fill="1" visible="yes" active="yes"/>
<layer number="112" name="tSilk" color="7" fill="1" visible="yes" active="yes"/>
<layer number="113" name="IDFDebug" color="4" fill="1" visible="yes" active="yes"/>
<layer number="116" name="Patch_BOT" color="9" fill="4" visible="yes" active="yes"/>
<layer number="121" name="_tsilk" color="7" fill="1" visible="yes" active="yes"/>
<layer number="122" name="_bsilk" color="7" fill="1" visible="yes" active="yes"/>
<layer number="123" name="tTestmark" color="7" fill="1" visible="no" active="yes"/>
<layer number="124" name="bTestmark" color="7" fill="1" visible="no" active="yes"/>
<layer number="125" name="_tNames" color="7" fill="1" visible="yes" active="yes"/>
<layer number="126" name="_bNames" color="7" fill="1" visible="yes" active="yes"/>
<layer number="127" name="_tValues" color="7" fill="1" visible="yes" active="yes"/>
<layer number="128" name="128bmp" color="1" fill="10" visible="yes" active="yes"/>
<layer number="129" name="129bmp" color="2" fill="4" visible="yes" active="yes"/>
<layer number="130" name="130bmp" color="2" fill="1" visible="yes" active="yes"/>
<layer number="131" name="tAdjust" color="7" fill="1" visible="no" active="yes"/>
<layer number="132" name="bAdjust" color="7" fill="1" visible="no" active="yes"/>
<layer number="144" name="Drill_legend" color="7" fill="1" visible="yes" active="yes"/>
<layer number="150" name="Notes" color="7" fill="1" visible="no" active="yes"/>
<layer number="151" name="HeatSink" color="7" fill="1" visible="yes" active="yes"/>
<layer number="152" name="_bDocu" color="7" fill="1" visible="yes" active="yes"/>
<layer number="153" name="FabDoc1" color="6" fill="1" visible="no" active="no"/>
<layer number="154" name="FabDoc2" color="2" fill="1" visible="no" active="no"/>
<layer number="155" name="FabDoc3" color="7" fill="15" visible="no" active="no"/>
<layer number="199" name="Contour" color="7" fill="1" visible="yes" active="yes"/>
<layer number="200" name="200bmp" color="1" fill="10" visible="yes" active="yes"/>
<layer number="201" name="201bmp" color="2" fill="1" visible="yes" active="yes"/>
<layer number="202" name="202bmp" color="3" fill="10" visible="yes" active="yes"/>
<layer number="203" name="203bmp" color="4" fill="10" visible="yes" active="yes"/>
<layer number="204" name="204bmp" color="5" fill="10" visible="yes" active="yes"/>
<layer number="205" name="205bmp" color="6" fill="10" visible="yes" active="yes"/>
<layer number="206" name="206bmp" color="7" fill="10" visible="yes" active="yes"/>
<layer number="207" name="207bmp" color="8" fill="10" visible="yes" active="yes"/>
<layer number="208" name="208bmp" color="9" fill="10" visible="yes" active="yes"/>
<layer number="209" name="209bmp" color="7" fill="1" visible="yes" active="yes"/>
<layer number="210" name="210bmp" color="7" fill="1" visible="yes" active="yes"/>
<layer number="211" name="211bmp" color="7" fill="1" visible="yes" active="yes"/>
<layer number="212" name="212bmp" color="7" fill="1" visible="yes" active="yes"/>
<layer number="213" name="213bmp" color="7" fill="1" visible="yes" active="yes"/>
<layer number="214" name="214bmp" color="7" fill="1" visible="yes" active="yes"/>
<layer number="215" name="215bmp" color="7" fill="1" visible="yes" active="yes"/>
<layer number="216" name="216bmp" color="7" fill="1" visible="yes" active="yes"/>
<layer number="217" name="217bmp" color="18" fill="1" visible="no" active="no"/>
<layer number="218" name="218bmp" color="19" fill="1" visible="no" active="no"/>
<layer number="219" name="219bmp" color="20" fill="1" visible="no" active="no"/>
<layer number="220" name="220bmp" color="21" fill="1" visible="no" active="no"/>
<layer number="221" name="221bmp" color="22" fill="1" visible="no" active="no"/>
<layer number="222" name="222bmp" color="23" fill="1" visible="no" active="no"/>
<layer number="223" name="223bmp" color="24" fill="1" visible="no" active="no"/>
<layer number="224" name="224bmp" color="25" fill="1" visible="no" active="no"/>
<layer number="248" name="Housing" color="7" fill="1" visible="yes" active="yes"/>
<layer number="249" name="Edge" color="7" fill="1" visible="yes" active="yes"/>
<layer number="250" name="Descript" color="3" fill="1" visible="no" active="no"/>
<layer number="251" name="SMDround" color="12" fill="11" visible="no" active="no"/>
<layer number="254" name="cooling" color="7" fill="1" visible="yes" active="yes"/>
</layers>
<board>
<plain>
<wire x1="69.85" y1="14.605" x2="139.045" y2="14.605" width="0" layer="20"/>
<wire x1="139.045" y1="14.605" x2="139.045" y2="66.98" width="0" layer="20"/>
<wire x1="139.045" y1="66.98" x2="69.85" y2="66.98" width="0" layer="20"/>
<wire x1="69.85" y1="66.98" x2="69.85" y2="14.605" width="0" layer="20"/>
<text x="71.755" y="59.055" size="1.778" layer="21">5V</text>
<wire x1="73.025" y1="57.785" x2="73.025" y2="50.8" width="0.8128" layer="21"/>
<text x="74.295" y="48.895" size="2.54" layer="21" ratio="12" rot="R90">&lt;</text>
<text x="71.755" y="32.385" size="1.778" layer="21" ratio="9">3.3V</text>
<text x="133.985" y="60.96" size="1.778" layer="21">5V</text>
<text x="131.445" y="32.385" size="1.778" layer="21" ratio="9">3.3V</text>
<wire x1="135.255" y1="48.895" x2="135.255" y2="55.88" width="0.8128" layer="21"/>
<text x="136.525" y="55.88" size="2.54" layer="21" ratio="12" rot="R90">&gt;</text>
<wire x1="104.14" y1="50.165" x2="104.14" y2="48.26" width="0.8128" layer="21"/>
<wire x1="104.14" y1="33.655" x2="104.14" y2="32.385" width="0.8128" layer="21"/>
<wire x1="104.14" y1="31.115" x2="104.14" y2="29.21" width="0.8128" layer="21"/>
<wire x1="104.14" y1="53.975" x2="104.14" y2="52.07" width="0.8128" layer="21"/>
<wire x1="104.14" y1="57.15" x2="104.14" y2="55.245" width="0.8128" layer="21"/>
<wire x1="104.14" y1="62.23" x2="104.14" y2="62.865" width="0.8128" layer="21"/>
<wire x1="104.14" y1="27.94" x2="104.14" y2="26.67" width="0.8128" layer="21"/>
<wire x1="104.14" y1="25.4" x2="104.14" y2="24.13" width="0.8128" layer="21"/>
<wire x1="104.14" y1="37.465" x2="104.14" y2="35.56" width="0.8128" layer="21"/>
<wire x1="104.14" y1="40.64" x2="104.14" y2="39.37" width="0.8128" layer="21"/>
<text x="109.22" y="44.45" size="1.016" layer="21" ratio="9" rot="R90">GND</text>
<text x="109.22" y="58.42" size="1.016" layer="21" ratio="9" rot="R90">5.5V</text>
<text x="109.22" y="20.955" size="1.016" layer="21" ratio="9" rot="R90">3.3V</text>
</plain>
<libraries>
<library name="trigger-simple">
<packages>
<package name="SOIC24">
<smd name="18" x="0.635" y="4.7" dx="0.6" dy="2" layer="1"/>
<smd name="17" x="1.905" y="4.7" dx="0.6" dy="2" layer="1"/>
<smd name="16" x="3.175" y="4.7" dx="0.6" dy="2" layer="1"/>
<smd name="15" x="4.445" y="4.7" dx="0.6" dy="2" layer="1"/>
<smd name="14" x="5.715" y="4.7" dx="0.6" dy="2" layer="1"/>
<smd name="13" x="6.985" y="4.7" dx="0.6" dy="2" layer="1"/>
<smd name="19" x="-0.635" y="4.7" dx="0.6" dy="2" layer="1"/>
<smd name="20" x="-1.905" y="4.7" dx="0.6" dy="2" layer="1"/>
<smd name="21" x="-3.175" y="4.7" dx="0.6" dy="2" layer="1"/>
<smd name="22" x="-4.445" y="4.7" dx="0.6" dy="2" layer="1"/>
<smd name="23" x="-5.715" y="4.7" dx="0.6" dy="2" layer="1"/>
<smd name="24" x="-6.985" y="4.7" dx="0.6" dy="2" layer="1"/>
<smd name="7" x="0.635" y="-4.7" dx="0.6" dy="2" layer="1"/>
<smd name="8" x="1.905" y="-4.7" dx="0.6" dy="2" layer="1"/>
<smd name="9" x="3.175" y="-4.7" dx="0.6" dy="2" layer="1"/>
<smd name="10" x="4.445" y="-4.7" dx="0.6" dy="2" layer="1"/>
<smd name="11" x="5.715" y="-4.7" dx="0.6" dy="2" layer="1"/>
<smd name="12" x="6.985" y="-4.7" dx="0.6" dy="2" layer="1"/>
<smd name="6" x="-0.635" y="-4.7" dx="0.6" dy="2" layer="1"/>
<smd name="5" x="-1.905" y="-4.7" dx="0.6" dy="2" layer="1"/>
<smd name="4" x="-3.175" y="-4.7" dx="0.6" dy="2" layer="1"/>
<smd name="3" x="-4.445" y="-4.7" dx="0.6" dy="2" layer="1"/>
<smd name="2" x="-5.715" y="-4.7" dx="0.6" dy="2" layer="1"/>
<smd name="1" x="-6.985" y="-4.7" dx="0.6" dy="2" layer="1"/>
<wire x1="-7.8" y1="3.8" x2="7.8" y2="3.8" width="0.127" layer="51"/>
<wire x1="7.8" y1="3.8" x2="7.8" y2="-3.8" width="0.127" layer="51"/>
<wire x1="7.8" y1="-3.8" x2="-7.8" y2="-3.8" width="0.127" layer="51"/>
<wire x1="-7.8" y1="-3.8" x2="-7.8" y2="3.8" width="0.127" layer="51"/>
<wire x1="-7.8" y1="3.5" x2="7.8" y2="3.5" width="0.127" layer="21"/>
<wire x1="7.8" y1="3.5" x2="7.8" y2="-3.5" width="0.127" layer="21"/>
<wire x1="7.8" y1="-3.5" x2="-7.8" y2="-3.5" width="0.127" layer="21"/>
<wire x1="-7.8" y1="-3.5" x2="-7.8" y2="3.5" width="0.127" layer="21"/>
<circle x="-6.95" y="-2.5" radius="0.180275" width="0.127" layer="21"/>
<text x="-8.6" y="-3" size="1.27" layer="25" ratio="10" rot="R90">&gt;Name</text>
<text x="0.85" y="-2.6" size="1.27" layer="27" ratio="10">&gt;Value</text>
</package>
<package name="0805">
<wire x1="-0.3" y1="0.6" x2="0.3" y2="0.6" width="0.1524" layer="21"/>
<wire x1="-0.3" y1="-0.6" x2="0.3" y2="-0.6" width="0.1524" layer="21"/>
<smd name="1" x="-0.9" y="0" dx="0.8" dy="1.2" layer="1"/>
<smd name="2" x="0.9" y="0" dx="0.8" dy="1.2" layer="1"/>
<text x="-0.762" y="0.8255" size="0.4064" layer="25">&gt;NAME</text>
<text x="-1.016" y="-1.397" size="0.4064" layer="27">&gt;VALUE</text>
</package>
<package name="SCREWTERMINAL-2.5MM-8">
<pad name="8" x="0" y="0" drill="1" shape="square"/>
<pad name="6" x="5" y="0" drill="1" shape="square"/>
<pad name="4" x="10" y="0" drill="1" shape="square"/>
<pad name="2" x="15" y="0" drill="1" shape="square"/>
<pad name="7" x="2.5" y="-5" drill="1" shape="square"/>
<pad name="5" x="7.5" y="-5" drill="1" shape="square"/>
<pad name="3" x="12.5" y="-5" drill="1" shape="square"/>
<pad name="1" x="17.5" y="-5" drill="1" shape="square"/>
<wire x1="-2.75" y1="2.3" x2="18.75" y2="2.3" width="0.127" layer="51"/>
<wire x1="18.75" y1="2.3" x2="18.75" y2="-9.7" width="0.127" layer="51"/>
<wire x1="18.75" y1="-9.7" x2="-2.75" y2="-9.7" width="0.127" layer="51"/>
<wire x1="-2.75" y1="-9.7" x2="-2.75" y2="2.3" width="0.127" layer="51"/>
<wire x1="-3" y1="2.55" x2="19" y2="2.55" width="0.127" layer="21"/>
<wire x1="19" y1="2.55" x2="19" y2="-10" width="0.127" layer="21"/>
<wire x1="19" y1="-10" x2="-3" y2="-10" width="0.127" layer="21"/>
<wire x1="-3" y1="-10" x2="-3" y2="2.55" width="0.127" layer="21"/>
<text x="17.3" y="-3.15" size="1.27" layer="21">1</text>
<text x="14.65" y="-3.15" size="1.27" layer="21">2</text>
<text x="12.2" y="-3.15" size="1.27" layer="21">3</text>
<text x="9.65" y="-3.15" size="1.27" layer="21">4</text>
<text x="7.15" y="-3.15" size="1.27" layer="21">5</text>
<text x="4.6" y="-3.15" size="1.27" layer="21">6</text>
<text x="2.3" y="-3.15" size="1.27" layer="21">7</text>
<text x="-0.5" y="-3.15" size="1.27" layer="21">8</text>
<text x="-3.7" y="-9.4" size="1.27" layer="25" rot="R90">&gt;Name</text>
</package>
<package name="SCREWTERMINAL-2.5MM-2">
<pad name="2" x="0" y="0" drill="1" shape="square"/>
<pad name="1" x="2.5" y="-5" drill="1" shape="square"/>
<wire x1="-3" y1="2.55" x2="4.2" y2="2.55" width="0.127" layer="21"/>
<wire x1="4.2" y1="2.55" x2="4.2" y2="-10" width="0.127" layer="21"/>
<wire x1="4.2" y1="-10" x2="-3" y2="-10" width="0.127" layer="21"/>
<wire x1="-3" y1="-10" x2="-3" y2="2.55" width="0.127" layer="21"/>
<wire x1="-2.75" y1="2.3" x2="3.75" y2="2.3" width="0.127" layer="51"/>
<wire x1="3.75" y1="2.3" x2="3.75" y2="-9.7" width="0.127" layer="51"/>
<wire x1="3.75" y1="-9.7" x2="-2.75" y2="-9.7" width="0.127" layer="51"/>
<wire x1="-2.75" y1="-9.7" x2="-2.75" y2="2.3" width="0.127" layer="51"/>
<text x="2.2" y="-3.25" size="1.27" layer="21">1</text>
<text x="-0.45" y="-3.3" size="1.27" layer="21">2</text>
<text x="-3.95" y="-9.5" size="1.27" layer="25" rot="R90">&gt;Name</text>
</package>
</packages>
</library>
<library name="SparkFun-Passives">
<description>&lt;h3&gt;SparkFun Electronics' preferred foot prints&lt;/h3&gt;
In this library you'll find resistors, capacitors, inductors, test points, jumper pads, etc.&lt;br&gt;&lt;br&gt;
We've spent an enormous amount of time creating and checking these footprints and parts, but it is the end user's responsibility to ensure correctness and suitablity for a given componet or application. If you enjoy using this library, please buy one of our products at www.sparkfun.com.
&lt;br&gt;&lt;br&gt;
&lt;b&gt;Licensing:&lt;/b&gt; Creative Commons ShareAlike 4.0 International - https://creativecommons.org/licenses/by-sa/4.0/ 
&lt;br&gt;&lt;br&gt;
You are welcome to use this library for commercial purposes. For attribution, we ask that when you begin to sell your device using our footprint, you email us with a link to the product being sold. We want bragging rights that we helped (in a very small part) to create your 8th world wonder. We would like the opportunity to feature your device on our homepage.</description>
<packages>
<package name="0805">
<wire x1="-0.3" y1="0.6" x2="0.3" y2="0.6" width="0.1524" layer="21"/>
<wire x1="-0.3" y1="-0.6" x2="0.3" y2="-0.6" width="0.1524" layer="21"/>
<smd name="1" x="-0.9" y="0" dx="0.8" dy="1.2" layer="1"/>
<smd name="2" x="0.9" y="0" dx="0.8" dy="1.2" layer="1"/>
<text x="-0.762" y="0.8255" size="0.4064" layer="25">&gt;NAME</text>
</package>
</packages>
</library>
<library name="holes">
<description>&lt;b&gt;Mounting Holes and Pads&lt;/b&gt;&lt;p&gt;
&lt;author&gt;Created by librarian@cadsoft.de&lt;/author&gt;</description>
<packages>
<package name="3,2-PAD">
<description>&lt;b&gt;MOUNTING PAD&lt;/b&gt; 3.2 mm, round</description>
<wire x1="-2.159" y1="0" x2="0" y2="-2.159" width="2.4892" layer="51" curve="90" cap="flat"/>
<wire x1="0" y1="2.159" x2="2.159" y2="0" width="2.4892" layer="51" curve="-90" cap="flat"/>
<circle x="0" y="0" radius="3.429" width="0.1524" layer="21"/>
<circle x="0" y="0" radius="0.762" width="0.4572" layer="51"/>
<circle x="0" y="0" radius="3.683" width="1.27" layer="39"/>
<circle x="0" y="0" radius="3.683" width="1.27" layer="40"/>
<circle x="0" y="0" radius="3.556" width="1.016" layer="43"/>
<circle x="0" y="0" radius="1.7" width="0.1524" layer="21"/>
<pad name="B3,2" x="0" y="0" drill="3.2" diameter="5.842"/>
<text x="-1.27" y="-3.81" size="1.27" layer="48">3,2</text>
</package>
</packages>
</library>
<library name="dan-rcl">
<packages>
<package name="0805">
<description>&lt;b&gt;0805&lt;/b&gt;
&lt;p&gt;From Panasonic ERJ-2RKF1000X Recommended Land Patterns: http://industrial.panasonic.com/www-data/pdf/AOA0000/AOA0000PE32.pdf&lt;/p&gt;
&lt;p&gt;Can fit three 6.25-mil (0.15875mm) traces between pads (on 0.00625 grid)&lt;/p&gt;</description>
<smd name="2" x="1.1" y="0" dx="0.9" dy="1.4" layer="1"/>
<smd name="1" x="-1.1" y="0" dx="0.9" dy="1.4" layer="1"/>
<text x="1.905" y="-0.635" size="1.016" layer="25" font="vector" ratio="20">&gt;NAME</text>
<rectangle x1="-0.65" y1="-0.625" x2="0.65" y2="-0.4218" layer="21"/>
<rectangle x1="-1.025" y1="-0.65" x2="-0.475" y2="0.65" layer="51"/>
<rectangle x1="0.475" y1="-0.65" x2="1.025" y2="0.65" layer="51" rot="R180"/>
<rectangle x1="-0.65" y1="0.4218" x2="0.65" y2="0.625" layer="21" rot="R180"/>
</package>
</packages>
</library>
</libraries>
<attributes>
</attributes>
<variantdefs>
</variantdefs>
<classes>
<class number="0" name="default" width="0" drill="0">
</class>
</classes>
<designrules name="SeeedStudio_2layer_DRU_no_angle_20140221">
<description language="de">&lt;b&gt;EAGLE Design Rules&lt;/b&gt;
&lt;p&gt;
Die Standard-Design-Rules sind so gewählt, dass sie für 
die meisten Anwendungen passen. Sollte ihre Platine 
besondere Anforderungen haben, treffen Sie die erforderlichen
Einstellungen hier und speichern die Design Rules unter 
einem neuen Namen ab.</description>
<description language="en">&lt;b&gt;EAGLE Design Rules&lt;/b&gt;
&lt;p&gt;
The default Design Rules have been set to cover
a wide range of applications. Your particular design
may have different requirements, so please make the
necessary adjustments and save your customized
design rules under a new name.</description>
<description language="zh">&lt;b&gt;Seeed Studio EAGLE Design Rules&lt;/b&gt;
</description>
<param name="layerSetup" value="(1*16)"/>
<param name="mtCopper" value="0.035mm 0.0175mm 0.035mm 0.035mm 0.035mm 0.035mm 0.035mm 0.035mm 0.035mm 0.035mm 0.035mm 0.035mm 0.035mm 0.035mm 0.0175mm 0.035mm"/>
<param name="mtIsolate" value="1.5mm 1.1mm 0.2mm 0.15mm 0.2mm 0.15mm 0.2mm 0.15mm 0.2mm 0.15mm 0.2mm 0.15mm 0.2mm 0.15mm 0.2mm"/>
<param name="mdWireWire" value="6mil"/>
<param name="mdWirePad" value="6mil"/>
<param name="mdWireVia" value="6mil"/>
<param name="mdPadPad" value="6mil"/>
<param name="mdPadVia" value="6mil"/>
<param name="mdViaVia" value="6mil"/>
<param name="mdSmdPad" value="0mil"/>
<param name="mdSmdVia" value="0mil"/>
<param name="mdSmdSmd" value="0mil"/>
<param name="mdViaViaSameLayer" value="8mil"/>
<param name="mnLayersViaInSmd" value="2"/>
<param name="mdCopperDimension" value="10mil"/>
<param name="mdDrill" value="10mil"/>
<param name="mdSmdStop" value="0mil"/>
<param name="msWidth" value="6mil"/>
<param name="msDrill" value="12mil"/>
<param name="msMicroVia" value="12mil"/>
<param name="msBlindViaRatio" value="0.5"/>
<param name="rvPadTop" value="0.25"/>
<param name="rvPadInner" value="0.25"/>
<param name="rvPadBottom" value="0.25"/>
<param name="rvViaOuter" value="0.25"/>
<param name="rvViaInner" value="0.25"/>
<param name="rvMicroViaOuter" value="0.25"/>
<param name="rvMicroViaInner" value="0.25"/>
<param name="rlMinPadTop" value="10mil"/>
<param name="rlMaxPadTop" value="20mil"/>
<param name="rlMinPadInner" value="10mil"/>
<param name="rlMaxPadInner" value="20mil"/>
<param name="rlMinPadBottom" value="10mil"/>
<param name="rlMaxPadBottom" value="20mil"/>
<param name="rlMinViaOuter" value="6mil"/>
<param name="rlMaxViaOuter" value="20mil"/>
<param name="rlMinViaInner" value="6mil"/>
<param name="rlMaxViaInner" value="20mil"/>
<param name="rlMinMicroViaOuter" value="4mil"/>
<param name="rlMaxMicroViaOuter" value="20mil"/>
<param name="rlMinMicroViaInner" value="4mil"/>
<param name="rlMaxMicroViaInner" value="20mil"/>
<param name="psTop" value="-1"/>
<param name="psBottom" value="-1"/>
<param name="psFirst" value="0"/>
<param name="psElongationLong" value="100"/>
<param name="psElongationOffset" value="100"/>
<param name="mvStopFrame" value="1"/>
<param name="mvCreamFrame" value="0"/>
<param name="mlMinStopFrame" value="2mil"/>
<param name="mlMaxStopFrame" value="2mil"/>
<param name="mlMinCreamFrame" value="0mil"/>
<param name="mlMaxCreamFrame" value="0mil"/>
<param name="mlViaStopLimit" value="100mil"/>
<param name="srRoundness" value="0"/>
<param name="srMinRoundness" value="0mil"/>
<param name="srMaxRoundness" value="0mil"/>
<param name="slThermalIsolate" value="10mil"/>
<param name="slThermalsForVias" value="0"/>
<param name="dpMaxLengthDifference" value="10mm"/>
<param name="dpGapFactor" value="2.5"/>
<param name="checkGrid" value="0"/>
<param name="checkAngle" value="0"/>
<param name="checkFont" value="1"/>
<param name="checkRestrict" value="0"/>
<param name="useDiameter" value="13"/>
<param name="maxErrors" value="50"/>
</designrules>
<autorouter>
<pass name="Default">
<param name="RoutingGrid" value="50mil"/>
<param name="tpViaShape" value="round"/>
<param name="PrefDir.1" value="|"/>
<param name="PrefDir.2" value="0"/>
<param name="PrefDir.3" value="0"/>
<param name="PrefDir.4" value="0"/>
<param name="PrefDir.5" value="0"/>
<param name="PrefDir.6" value="0"/>
<param name="PrefDir.7" value="0"/>
<param name="PrefDir.8" value="0"/>
<param name="PrefDir.9" value="0"/>
<param name="PrefDir.10" value="0"/>
<param name="PrefDir.11" value="0"/>
<param name="PrefDir.12" value="0"/>
<param name="PrefDir.13" value="0"/>
<param name="PrefDir.14" value="0"/>
<param name="PrefDir.15" value="0"/>
<param name="PrefDir.16" value="-"/>
<param name="cfVia" value="8"/>
<param name="cfNonPref" value="5"/>
<param name="cfChangeDir" value="2"/>
<param name="cfOrthStep" value="2"/>
<param name="cfDiagStep" value="3"/>
<param name="cfExtdStep" value="0"/>
<param name="cfBonusStep" value="1"/>
<param name="cfMalusStep" value="1"/>
<param name="cfPadImpact" value="4"/>
<param name="cfSmdImpact" value="4"/>
<param name="cfBusImpact" value="0"/>
<param name="cfHugging" value="3"/>
<param name="cfAvoid" value="4"/>
<param name="cfPolygon" value="10"/>
<param name="cfBase.1" value="0"/>
<param name="cfBase.2" value="1"/>
<param name="cfBase.3" value="1"/>
<param name="cfBase.4" value="1"/>
<param name="cfBase.5" value="1"/>
<param name="cfBase.6" value="1"/>
<param name="cfBase.7" value="1"/>
<param name="cfBase.8" value="1"/>
<param name="cfBase.9" value="1"/>
<param name="cfBase.10" value="1"/>
<param name="cfBase.11" value="1"/>
<param name="cfBase.12" value="1"/>
<param name="cfBase.13" value="1"/>
<param name="cfBase.14" value="1"/>
<param name="cfBase.15" value="1"/>
<param name="cfBase.16" value="0"/>
<param name="mnVias" value="20"/>
<param name="mnSegments" value="9999"/>
<param name="mnExtdSteps" value="9999"/>
<param name="mnRipupLevel" value="10"/>
<param name="mnRipupSteps" value="100"/>
<param name="mnRipupTotal" value="100"/>
</pass>
<pass name="Follow-me" refer="Default" active="yes">
</pass>
<pass name="Busses" refer="Default" active="yes">
<param name="cfNonPref" value="4"/>
<param name="cfBusImpact" value="4"/>
<param name="cfHugging" value="0"/>
<param name="mnVias" value="0"/>
</pass>
<pass name="Route" refer="Default" active="yes">
</pass>
<pass name="Optimize1" refer="Default" active="yes">
<param name="cfVia" value="99"/>
<param name="cfExtdStep" value="10"/>
<param name="cfHugging" value="1"/>
<param name="mnExtdSteps" value="1"/>
<param name="mnRipupLevel" value="0"/>
</pass>
<pass name="Optimize2" refer="Optimize1" active="yes">
<param name="cfNonPref" value="0"/>
<param name="cfChangeDir" value="6"/>
<param name="cfExtdStep" value="0"/>
<param name="cfBonusStep" value="2"/>
<param name="cfMalusStep" value="2"/>
<param name="cfPadImpact" value="2"/>
<param name="cfSmdImpact" value="2"/>
<param name="cfHugging" value="0"/>
</pass>
<pass name="Optimize3" refer="Optimize2" active="yes">
<param name="cfChangeDir" value="8"/>
<param name="cfPadImpact" value="0"/>
<param name="cfSmdImpact" value="0"/>
</pass>
<pass name="Optimize4" refer="Optimize3" active="yes">
<param name="cfChangeDir" value="25"/>
</pass>
</autorouter>
<elements>
<element name="U1" library="trigger-simple" package="SOIC24" value="" x="87.63" y="39.37" rot="R180"/>
<element name="J4" library="trigger-simple" package="SCREWTERMINAL-2.5MM-8" value="" x="78.105" y="59.69" smashed="yes">
<attribute name="NAME" x="78.615" y="48.37" size="1.27" layer="25" rot="R180"/>
</element>
<element name="J5" library="trigger-simple" package="SCREWTERMINAL-2.5MM-8" value="" x="94.615" y="19.05" rot="R180"/>
<element name="R9" library="SparkFun-Passives" package="0805" value="10K" x="78.105" y="64.77" rot="R270"/>
<element name="R10" library="SparkFun-Passives" package="0805" value="10K" x="80.645" y="64.77" rot="R270"/>
<element name="R11" library="SparkFun-Passives" package="0805" value="10K" x="85.725" y="64.77" rot="R270"/>
<element name="R12" library="SparkFun-Passives" package="0805" value="10K" x="88.265" y="64.77" rot="R270"/>
<element name="R13" library="SparkFun-Passives" package="0805" value="10K" x="90.805" y="64.77" rot="R270"/>
<element name="R14" library="SparkFun-Passives" package="0805" value="10K" x="95.885" y="64.77" rot="R270"/>
<element name="R15" library="SparkFun-Passives" package="0805" value="10K" x="93.345" y="64.77" rot="R270"/>
<element name="R16" library="SparkFun-Passives" package="0805" value="10K" x="83.185" y="64.77" rot="R270"/>
<element name="C3" library="trigger-simple" package="0805" value="0.1uF" x="97.79" y="44.45"/>
<element name="C4" library="trigger-simple" package="0805" value="0.1uF" x="97.79" y="34.29"/>
<element name="C7" library="trigger-simple" package="0805" value="1uF" x="104.521" y="65.024" smashed="yes">
<attribute name="NAME" x="103.759" y="65.8495" size="0.4064" layer="25"/>
</element>
<element name="C8" library="trigger-simple" package="0805" value="1uF" x="104.013" y="16.129" smashed="yes" rot="R180">
<attribute name="NAME" x="104.775" y="15.3035" size="0.4064" layer="25" rot="R180"/>
</element>
<element name="U4" library="trigger-simple" package="SOIC24" value="" x="120.904" y="42.164" smashed="yes" rot="R180">
<attribute name="NAME" x="111.724" y="40.719" size="1.27" layer="25" ratio="10" rot="R270"/>
<attribute name="VALUE" x="120.054" y="44.764" size="1.27" layer="27" ratio="10" rot="R180"/>
</element>
<element name="J8" library="trigger-simple" package="SCREWTERMINAL-2.5MM-8" value="" x="113.284" y="62.484"/>
<element name="J9" library="trigger-simple" package="SCREWTERMINAL-2.5MM-8" value="" x="129.794" y="21.844" rot="R180"/>
<element name="R25" library="SparkFun-Passives" package="0805" value="10K" x="129.794" y="16.764" rot="R90"/>
<element name="R26" library="SparkFun-Passives" package="0805" value="10K" x="127.254" y="16.764" rot="R90"/>
<element name="R27" library="SparkFun-Passives" package="0805" value="10K" x="122.174" y="16.764" rot="R90"/>
<element name="R28" library="SparkFun-Passives" package="0805" value="10K" x="119.634" y="16.764" rot="R90"/>
<element name="R29" library="SparkFun-Passives" package="0805" value="10K" x="117.094" y="16.764" rot="R90"/>
<element name="R30" library="SparkFun-Passives" package="0805" value="10K" x="112.014" y="16.764" rot="R90"/>
<element name="R31" library="SparkFun-Passives" package="0805" value="10K" x="114.554" y="16.764" rot="R90"/>
<element name="R32" library="SparkFun-Passives" package="0805" value="10K" x="124.714" y="16.764" rot="R90"/>
<element name="C9" library="trigger-simple" package="0805" value="0.1uF" x="130.556" y="49.784" rot="R90"/>
<element name="C10" library="trigger-simple" package="0805" value="0.1uF" x="131.064" y="35.814"/>
<element name="H3" library="holes" package="3,2-PAD" value="M3" x="133.985" y="42.545" rot="R270"/>
<element name="H4" library="holes" package="3,2-PAD" value="M3" x="74.93" y="42.545" rot="R270"/>
<element name="FB1" library="dan-rcl" package="0805" value="" x="109.22" y="40.386" rot="R270"/>
<element name="R34" library="SparkFun-Passives" package="0805" value="10K" x="95.758" y="46.99"/>
<element name="J10" library="trigger-simple" package="SCREWTERMINAL-2.5MM-2" value="" x="103.505" y="60.96"/>
<element name="J11" library="trigger-simple" package="SCREWTERMINAL-2.5MM-2" value="" x="104.775" y="20.32" rot="R180"/>
<element name="J12" library="trigger-simple" package="SCREWTERMINAL-2.5MM-2" value="" x="103.505" y="44.45"/>
</elements>
<signals>
<signal name="GND">
<contactref element="U1" pad="11"/>
<contactref element="U1" pad="12"/>
<contactref element="U1" pad="13"/>
<contactref element="U1" pad="22"/>
<contactref element="C4" pad="2"/>
<contactref element="C3" pad="2"/>
<contactref element="C8" pad="2"/>
<contactref element="C7" pad="2"/>
<contactref element="U4" pad="11"/>
<contactref element="U4" pad="12"/>
<contactref element="U4" pad="13"/>
<contactref element="U4" pad="22"/>
<contactref element="U4" pad="2"/>
<contactref element="C10" pad="2"/>
<contactref element="C9" pad="2"/>
<contactref element="FB1" pad="2"/>
<contactref element="J12" pad="2"/>
<contactref element="J12" pad="1"/>
<polygon width="0.4064" layer="16" isolate="0.254">
<vertex x="43.18" y="68.58"/>
<vertex x="163.83" y="68.58"/>
<vertex x="163.83" y="11.43"/>
<vertex x="43.18" y="11.43"/>
</polygon>
<polygon width="0.4064" layer="1" isolate="0.254">
<vertex x="43.053" y="69.342"/>
<vertex x="163.322" y="69.342"/>
<vertex x="163.322" y="11.43"/>
<vertex x="43.053" y="11.43"/>
</polygon>
</signal>
<signal name="3.3V">
<contactref element="U1" pad="23"/>
<contactref element="U1" pad="24"/>
<contactref element="C4" pad="1"/>
<contactref element="C8" pad="1"/>
<contactref element="U4" pad="23"/>
<contactref element="U4" pad="24"/>
<contactref element="C10" pad="1"/>
<contactref element="R25" pad="1"/>
<contactref element="R30" pad="1"/>
<contactref element="R31" pad="1"/>
<contactref element="R29" pad="1"/>
<contactref element="R28" pad="1"/>
<contactref element="R27" pad="1"/>
<contactref element="R32" pad="1"/>
<contactref element="R26" pad="1"/>
<contactref element="J11" pad="2"/>
<contactref element="J11" pad="1"/>
<via x="127.889" y="34.671" extent="1-16" drill="0.508" shape="square"/>
<via x="95.885" y="32.639" extent="1-16" drill="0.508" shape="square"/>
<wire x1="95.885" y1="32.639" x2="96.89" y2="33.644" width="0.8128" layer="1"/>
<wire x1="96.89" y1="33.644" x2="96.89" y2="34.29" width="0.8128" layer="1"/>
<wire x1="127.889" y1="34.671" x2="129.021" y2="34.671" width="0.8128" layer="1"/>
<wire x1="129.021" y1="34.671" x2="130.164" y2="35.814" width="0.8128" layer="1"/>
<wire x1="127.889" y1="34.671" x2="127.889" y2="37.464" width="0.8128" layer="1"/>
<wire x1="127.889" y1="37.464" x2="126.619" y2="37.464" width="0.8128" layer="1"/>
<wire x1="104.775" y1="20.32" x2="102.275" y2="22.82" width="1.016" layer="16"/>
<wire x1="102.275" y1="22.82" x2="102.275" y2="25.32" width="1.016" layer="16"/>
<wire x1="102.275" y1="25.32" x2="102.235" y2="25.36" width="1.016" layer="16"/>
<wire x1="102.235" y1="25.36" x2="102.235" y2="30.226" width="1.016" layer="16"/>
<wire x1="102.235" y1="30.226" x2="99.822" y2="32.639" width="1.016" layer="16"/>
<wire x1="99.822" y1="32.639" x2="95.885" y2="32.639" width="1.016" layer="16"/>
<wire x1="102.235" y1="30.226" x2="102.235" y2="31.623" width="1.016" layer="16"/>
<wire x1="102.235" y1="31.623" x2="103.378" y2="32.766" width="1.016" layer="16"/>
<wire x1="103.378" y1="32.766" x2="117.729" y2="32.766" width="1.016" layer="16"/>
<wire x1="117.729" y1="32.766" x2="119.634" y2="34.671" width="1.016" layer="16"/>
<wire x1="119.634" y1="34.671" x2="127.889" y2="34.671" width="1.016" layer="16"/>
<wire x1="104.913" y1="16.129" x2="104.775" y2="16.267" width="1.016" layer="1"/>
<wire x1="104.775" y1="16.267" x2="104.775" y2="20.32" width="1.016" layer="1"/>
<wire x1="112.014" y1="15.864" x2="111.749" y2="16.129" width="0.8128" layer="1"/>
<wire x1="111.749" y1="16.129" x2="104.913" y2="16.129" width="0.8128" layer="1"/>
<wire x1="112.014" y1="15.864" x2="114.554" y2="15.864" width="0.8128" layer="1"/>
<wire x1="114.554" y1="15.864" x2="117.094" y2="15.864" width="0.8128" layer="1"/>
<wire x1="117.094" y1="15.864" x2="119.634" y2="15.864" width="0.8128" layer="1"/>
<wire x1="119.634" y1="15.864" x2="122.174" y2="15.864" width="0.8128" layer="1"/>
<wire x1="122.174" y1="15.864" x2="124.714" y2="15.864" width="0.8128" layer="1"/>
<wire x1="124.714" y1="15.864" x2="127.254" y2="15.864" width="0.8128" layer="1"/>
<wire x1="127.254" y1="15.864" x2="129.794" y2="15.864" width="0.8128" layer="1"/>
<wire x1="129.794" y1="15.864" x2="130.048" y2="15.61" width="0.8128" layer="1"/>
<wire x1="96.89" y1="34.29" x2="94.995" y2="34.29" width="0.8128" layer="1"/>
<wire x1="94.995" y1="34.29" x2="94.615" y2="34.67" width="0.8128" layer="1"/>
<wire x1="93.345" y1="34.67" x2="94.615" y2="34.67" width="0.8128" layer="1"/>
</signal>
<signal name="5V">
<contactref element="U1" pad="1"/>
<contactref element="C3" pad="1"/>
<contactref element="C7" pad="1"/>
<contactref element="U4" pad="1"/>
<contactref element="C9" pad="1"/>
<contactref element="R34" pad="2"/>
<contactref element="R9" pad="1"/>
<contactref element="R14" pad="1"/>
<contactref element="R15" pad="1"/>
<contactref element="R13" pad="1"/>
<contactref element="R12" pad="1"/>
<contactref element="R11" pad="1"/>
<contactref element="R16" pad="1"/>
<contactref element="R10" pad="1"/>
<contactref element="J10" pad="1"/>
<contactref element="J10" pad="2"/>
<wire x1="94.615" y1="44.07" x2="94.995" y2="44.45" width="0.8128" layer="1"/>
<wire x1="94.995" y1="44.45" x2="96.89" y2="44.45" width="0.8128" layer="1"/>
<wire x1="96.658" y1="46.99" x2="96.89" y2="46.758" width="0.4064" layer="1"/>
<wire x1="96.89" y1="46.758" x2="96.89" y2="46.482" width="0.8128" layer="1"/>
<wire x1="96.89" y1="46.482" x2="96.89" y2="44.45" width="0.8128" layer="1"/>
<wire x1="103.505" y1="60.96" x2="103.505" y2="58.039" width="1.016" layer="16"/>
<wire x1="103.505" y1="58.039" x2="105.584" y2="55.96" width="1.016" layer="16"/>
<wire x1="105.584" y1="55.96" x2="106.005" y2="55.96" width="1.016" layer="16"/>
<wire x1="106.005" y1="55.96" x2="106.045" y2="55.92" width="1.016" layer="16"/>
<wire x1="106.045" y1="55.92" x2="106.045" y2="52.832" width="1.016" layer="16"/>
<wire x1="106.045" y1="52.832" x2="108.585" y2="50.292" width="1.016" layer="16"/>
<wire x1="108.585" y1="50.292" x2="126.492" y2="50.292" width="1.016" layer="16"/>
<wire x1="106.045" y1="52.832" x2="106.045" y2="51.435" width="1.016" layer="16"/>
<wire x1="106.045" y1="51.435" x2="103.251" y2="48.641" width="1.016" layer="16"/>
<via x="127.889" y="48.895" extent="1-16" drill="0.508" shape="square"/>
<via x="98.298" y="46.99" extent="1-16" drill="0.508" shape="square"/>
<wire x1="127.889" y1="48.895" x2="126.492" y2="50.292" width="1.016" layer="16"/>
<wire x1="127.889" y1="48.895" x2="127.889" y2="46.864" width="1.016" layer="1"/>
<wire x1="98.298" y1="46.99" x2="97.79" y2="46.482" width="1.016" layer="1"/>
<wire x1="97.79" y1="46.482" x2="96.89" y2="46.482" width="1.016" layer="1"/>
<wire x1="103.505" y1="60.96" x2="103.621" y2="61.076" width="1.016" layer="1"/>
<wire x1="103.621" y1="61.076" x2="103.621" y2="65.024" width="1.016" layer="1"/>
<wire x1="103.621" y1="65.024" x2="102.975" y2="65.67" width="0.8128" layer="1"/>
<wire x1="90.805" y1="65.67" x2="88.265" y2="65.67" width="0.8128" layer="1"/>
<wire x1="88.265" y1="65.67" x2="85.725" y2="65.67" width="0.8128" layer="1"/>
<wire x1="85.725" y1="65.67" x2="83.185" y2="65.67" width="0.8128" layer="1"/>
<wire x1="90.805" y1="65.67" x2="93.345" y2="65.67" width="0.8128" layer="1"/>
<wire x1="93.345" y1="65.67" x2="95.885" y2="65.67" width="0.8128" layer="1"/>
<wire x1="80.645" y1="65.67" x2="78.105" y2="65.67" width="0.8128" layer="1"/>
<wire x1="80.645" y1="65.67" x2="83.185" y2="65.67" width="0.8128" layer="1"/>
<wire x1="95.885" y1="65.67" x2="102.975" y2="65.67" width="0.8128" layer="1"/>
<wire x1="130.556" y1="48.884" x2="127.9" y2="48.884" width="0.8128" layer="1"/>
<wire x1="127.9" y1="48.884" x2="127.889" y2="48.895" width="0.8128" layer="1"/>
<wire x1="103.251" y1="48.641" x2="99.949" y2="48.641" width="0.8128" layer="16"/>
<wire x1="99.949" y1="48.641" x2="98.298" y2="46.99" width="0.8128" layer="16"/>
</signal>
<signal name="N$10">
<contactref element="U1" pad="3"/>
<contactref element="J4" pad="1"/>
<contactref element="R14" pad="2"/>
<wire x1="95.885" y1="63.87" x2="95.605" y2="63.59" width="0.4064" layer="1"/>
<wire x1="95.605" y1="63.59" x2="95.605" y2="54.69" width="0.4064" layer="1"/>
<wire x1="95.605" y1="54.69" x2="95.605" y2="51.79" width="0.4064" layer="1"/>
<wire x1="95.605" y1="51.79" x2="92.075" y2="48.26" width="0.4064" layer="1"/>
<wire x1="92.075" y1="48.26" x2="92.075" y2="44.07" width="0.4064" layer="1"/>
</signal>
<signal name="N$19">
<contactref element="U1" pad="4"/>
<contactref element="J4" pad="2"/>
<contactref element="R15" pad="2"/>
<wire x1="93.105" y1="59.69" x2="92.71" y2="59.295" width="0.3048" layer="1"/>
<wire x1="92.71" y1="59.295" x2="92.71" y2="53.467" width="0.4064" layer="1"/>
<wire x1="93.345" y1="63.87" x2="93.105" y2="63.63" width="0.4064" layer="1"/>
<wire x1="93.105" y1="63.63" x2="93.105" y2="59.69" width="0.4064" layer="1"/>
<wire x1="92.71" y1="53.467" x2="92.71" y2="52.705" width="0.4064" layer="1"/>
<wire x1="92.71" y1="52.705" x2="90.805" y2="50.8" width="0.4064" layer="1"/>
<wire x1="90.805" y1="50.8" x2="90.805" y2="44.07" width="0.4064" layer="1"/>
</signal>
<signal name="N$20">
<contactref element="U1" pad="5"/>
<contactref element="J4" pad="3"/>
<contactref element="R13" pad="2"/>
<wire x1="90.805" y1="63.87" x2="90.605" y2="63.67" width="0.4064" layer="1"/>
<wire x1="90.605" y1="63.67" x2="90.605" y2="54.69" width="0.4064" layer="1"/>
<wire x1="90.605" y1="54.69" x2="89.535" y2="53.62" width="0.4064" layer="1"/>
<wire x1="89.535" y1="53.62" x2="89.535" y2="44.07" width="0.4064" layer="1"/>
</signal>
<signal name="N$21">
<contactref element="U1" pad="6"/>
<contactref element="J4" pad="4"/>
<contactref element="R12" pad="2"/>
<wire x1="88.105" y1="59.69" x2="87.63" y2="59.215" width="0.3048" layer="1"/>
<wire x1="87.63" y1="59.215" x2="87.63" y2="53.467" width="0.4064" layer="1"/>
<wire x1="88.265" y1="63.87" x2="88.105" y2="63.71" width="0.4064" layer="1"/>
<wire x1="88.105" y1="63.71" x2="88.105" y2="59.69" width="0.4064" layer="1"/>
<wire x1="87.63" y1="53.467" x2="88.265" y2="52.832" width="0.4064" layer="1"/>
<wire x1="88.265" y1="52.832" x2="88.265" y2="44.07" width="0.4064" layer="1"/>
</signal>
<signal name="N$22">
<contactref element="U1" pad="7"/>
<contactref element="J4" pad="5"/>
<contactref element="R11" pad="2"/>
<wire x1="85.725" y1="63.87" x2="85.605" y2="63.75" width="0.4064" layer="1"/>
<wire x1="85.605" y1="63.75" x2="85.605" y2="54.69" width="0.4064" layer="1"/>
<wire x1="85.605" y1="54.69" x2="85.725" y2="54.57" width="0.4064" layer="1"/>
<wire x1="85.725" y1="54.57" x2="85.725" y2="52.705" width="0.4064" layer="1"/>
<wire x1="85.725" y1="52.705" x2="86.995" y2="51.435" width="0.4064" layer="1"/>
<wire x1="86.995" y1="51.435" x2="86.995" y2="44.07" width="0.4064" layer="1"/>
</signal>
<signal name="N$23">
<contactref element="U1" pad="8"/>
<contactref element="J4" pad="6"/>
<contactref element="R16" pad="2"/>
<wire x1="83.185" y1="63.87" x2="83.105" y2="63.79" width="0.4064" layer="1"/>
<wire x1="83.105" y1="63.79" x2="83.105" y2="59.69" width="0.4064" layer="1"/>
<wire x1="83.105" y1="59.69" x2="83.185" y2="59.61" width="0.4064" layer="1"/>
<wire x1="83.185" y1="59.61" x2="83.185" y2="53.34" width="0.4064" layer="1"/>
<wire x1="83.185" y1="53.34" x2="85.725" y2="50.8" width="0.4064" layer="1"/>
<wire x1="85.725" y1="50.8" x2="85.725" y2="44.07" width="0.4064" layer="1"/>
</signal>
<signal name="N$24">
<contactref element="U1" pad="9"/>
<contactref element="J4" pad="7"/>
<contactref element="R10" pad="2"/>
<wire x1="80.645" y1="63.87" x2="80.605" y2="63.83" width="0.4064" layer="1"/>
<wire x1="80.605" y1="63.83" x2="80.605" y2="54.69" width="0.4064" layer="1"/>
<wire x1="84.455" y1="44.07" x2="84.455" y2="49.53" width="0.4064" layer="1"/>
<wire x1="84.455" y1="49.53" x2="80.605" y2="53.38" width="0.4064" layer="1"/>
<wire x1="80.605" y1="53.38" x2="80.605" y2="54.69" width="0.4064" layer="1"/>
</signal>
<signal name="N$25">
<contactref element="U1" pad="10"/>
<contactref element="J4" pad="8"/>
<contactref element="R9" pad="2"/>
<wire x1="78.105" y1="63.87" x2="78.105" y2="59.69" width="0.4064" layer="1"/>
<wire x1="83.185" y1="44.07" x2="83.185" y2="47.625" width="0.4064" layer="1"/>
<wire x1="83.185" y1="47.625" x2="78.105" y2="52.705" width="0.4064" layer="1"/>
<wire x1="78.105" y1="52.705" x2="78.105" y2="59.69" width="0.4064" layer="1"/>
</signal>
<signal name="N$26">
<contactref element="U1" pad="21"/>
<contactref element="J5" pad="8"/>
<wire x1="94.615" y1="19.05" x2="94.615" y2="27.94" width="0.4064" layer="1"/>
<wire x1="94.615" y1="27.94" x2="90.805" y2="31.75" width="0.4064" layer="1"/>
<wire x1="90.805" y1="31.75" x2="90.805" y2="34.67" width="0.4064" layer="1"/>
</signal>
<signal name="N$27">
<contactref element="U1" pad="20"/>
<contactref element="J5" pad="7"/>
<wire x1="92.115" y1="24.05" x2="92.075" y2="24.09" width="0.4064" layer="1"/>
<wire x1="92.075" y1="24.09" x2="92.075" y2="27.94" width="0.4064" layer="1"/>
<wire x1="92.075" y1="27.94" x2="89.535" y2="30.48" width="0.4064" layer="1"/>
<wire x1="89.535" y1="30.48" x2="89.535" y2="34.67" width="0.4064" layer="1"/>
</signal>
<signal name="N$28">
<contactref element="U1" pad="19"/>
<contactref element="J5" pad="6"/>
<wire x1="89.615" y1="19.05" x2="89.535" y2="19.13" width="0.4064" layer="1"/>
<wire x1="89.535" y1="19.13" x2="89.535" y2="28.575" width="0.4064" layer="1"/>
<wire x1="89.535" y1="28.575" x2="88.265" y2="29.845" width="0.4064" layer="1"/>
<wire x1="88.265" y1="29.845" x2="88.265" y2="34.67" width="0.4064" layer="1"/>
</signal>
<signal name="N$29">
<contactref element="U1" pad="18"/>
<contactref element="J5" pad="5"/>
<wire x1="87.115" y1="24.05" x2="86.995" y2="24.17" width="0.4064" layer="1"/>
<wire x1="86.995" y1="24.17" x2="86.995" y2="34.67" width="0.4064" layer="1"/>
</signal>
<signal name="N$30">
<contactref element="U1" pad="17"/>
<contactref element="J5" pad="4"/>
<wire x1="84.615" y1="19.05" x2="84.455" y2="19.21" width="0.4064" layer="1"/>
<wire x1="84.455" y1="19.21" x2="84.455" y2="25.4" width="0.4064" layer="1"/>
<wire x1="84.455" y1="25.4" x2="85.725" y2="26.67" width="0.4064" layer="1"/>
<wire x1="85.725" y1="26.67" x2="85.725" y2="34.67" width="0.4064" layer="1"/>
</signal>
<signal name="N$31">
<contactref element="U1" pad="16"/>
<contactref element="J5" pad="3"/>
<wire x1="82.115" y1="24.05" x2="82.55" y2="24.485" width="0.4064" layer="1"/>
<wire x1="82.55" y1="24.485" x2="82.55" y2="26.035" width="0.4064" layer="1"/>
<wire x1="82.55" y1="26.035" x2="84.455" y2="27.94" width="0.4064" layer="1"/>
<wire x1="84.455" y1="27.94" x2="84.455" y2="34.67" width="0.4064" layer="1"/>
</signal>
<signal name="N$32">
<contactref element="U1" pad="15"/>
<contactref element="J5" pad="2"/>
<wire x1="79.615" y1="19.05" x2="80.01" y2="19.445" width="0.4064" layer="1"/>
<wire x1="80.01" y1="19.445" x2="80.01" y2="26.035" width="0.4064" layer="1"/>
<wire x1="80.01" y1="26.035" x2="83.185" y2="29.21" width="0.4064" layer="1"/>
<wire x1="83.185" y1="29.21" x2="83.185" y2="34.67" width="0.4064" layer="1"/>
</signal>
<signal name="N$33">
<contactref element="U1" pad="14"/>
<contactref element="J5" pad="1"/>
<wire x1="77.115" y1="24.05" x2="77.47" y2="24.405" width="0.4064" layer="1"/>
<wire x1="77.47" y1="24.405" x2="77.47" y2="27.305" width="0.4064" layer="1"/>
<wire x1="77.47" y1="27.305" x2="81.915" y2="31.75" width="0.4064" layer="1"/>
<wire x1="81.915" y1="31.75" x2="81.915" y2="34.67" width="0.4064" layer="1"/>
</signal>
<signal name="N$6">
<contactref element="U4" pad="3"/>
<contactref element="J8" pad="1"/>
<wire x1="130.784" y1="57.484" x2="125.349" y2="52.049" width="0.3048" layer="1"/>
<wire x1="125.349" y1="52.049" x2="125.349" y2="46.864" width="0.3048" layer="1"/>
</signal>
<signal name="N$50">
<contactref element="U4" pad="4"/>
<contactref element="J8" pad="2"/>
<wire x1="128.284" y1="62.484" x2="127.635" y2="61.835" width="0.3048" layer="1"/>
<wire x1="127.635" y1="61.835" x2="127.635" y2="55.88" width="0.3048" layer="1"/>
<wire x1="127.635" y1="55.88" x2="124.079" y2="52.324" width="0.3048" layer="1"/>
<wire x1="124.079" y1="52.324" x2="124.079" y2="46.864" width="0.3048" layer="1"/>
</signal>
<signal name="N$51">
<contactref element="U4" pad="5"/>
<contactref element="J8" pad="3"/>
<wire x1="125.784" y1="57.484" x2="122.809" y2="54.509" width="0.3048" layer="1"/>
<wire x1="122.809" y1="54.509" x2="122.809" y2="46.864" width="0.3048" layer="1"/>
</signal>
<signal name="N$52">
<contactref element="U4" pad="6"/>
<contactref element="J8" pad="4"/>
<wire x1="123.284" y1="62.484" x2="123.19" y2="62.39" width="0.3048" layer="1"/>
<wire x1="123.19" y1="62.39" x2="123.19" y2="57.15" width="0.3048" layer="1"/>
<wire x1="123.19" y1="57.15" x2="121.539" y2="55.499" width="0.3048" layer="1"/>
<wire x1="121.539" y1="55.499" x2="121.539" y2="46.864" width="0.3048" layer="1"/>
</signal>
<signal name="N$53">
<contactref element="U4" pad="7"/>
<contactref element="J8" pad="5"/>
<wire x1="120.784" y1="57.484" x2="120.269" y2="56.969" width="0.3048" layer="1"/>
<wire x1="120.269" y1="56.969" x2="120.269" y2="46.864" width="0.3048" layer="1"/>
</signal>
<signal name="N$54">
<contactref element="U4" pad="8"/>
<contactref element="J8" pad="6"/>
<wire x1="118.284" y1="62.484" x2="118.999" y2="61.769" width="0.3048" layer="1"/>
<wire x1="118.999" y1="61.769" x2="118.999" y2="46.864" width="0.3048" layer="1"/>
</signal>
<signal name="N$55">
<contactref element="U4" pad="9"/>
<contactref element="J8" pad="7"/>
<wire x1="115.784" y1="57.484" x2="117.729" y2="55.539" width="0.3048" layer="1"/>
<wire x1="117.729" y1="55.539" x2="117.729" y2="46.864" width="0.3048" layer="1"/>
</signal>
<signal name="N$56">
<contactref element="U4" pad="10"/>
<contactref element="J8" pad="8"/>
<wire x1="113.284" y1="62.484" x2="113.792" y2="61.976" width="0.3048" layer="1"/>
<wire x1="113.792" y1="61.976" x2="113.792" y2="56.261" width="0.3048" layer="1"/>
<wire x1="113.792" y1="56.261" x2="116.459" y2="53.594" width="0.3048" layer="1"/>
<wire x1="116.459" y1="53.594" x2="116.459" y2="46.864" width="0.3048" layer="1"/>
</signal>
<signal name="N$57">
<contactref element="U4" pad="21"/>
<contactref element="J9" pad="8"/>
<contactref element="R25" pad="2"/>
<wire x1="129.794" y1="21.844" x2="129.794" y2="27.813" width="0.3048" layer="1"/>
<wire x1="129.794" y1="27.813" x2="124.079" y2="33.528" width="0.3048" layer="1"/>
<wire x1="124.079" y1="33.528" x2="124.079" y2="37.464" width="0.3048" layer="1"/>
<wire x1="129.794" y1="17.664" x2="129.794" y2="21.844" width="0.3048" layer="1"/>
</signal>
<signal name="N$58">
<contactref element="U4" pad="20"/>
<contactref element="J9" pad="7"/>
<contactref element="R26" pad="2"/>
<wire x1="127.294" y1="26.844" x2="122.809" y2="31.329" width="0.3048" layer="1"/>
<wire x1="122.809" y1="31.329" x2="122.809" y2="37.464" width="0.3048" layer="1"/>
<wire x1="127.254" y1="17.664" x2="127.294" y2="17.704" width="0.3048" layer="1"/>
<wire x1="127.294" y1="17.704" x2="127.294" y2="26.844" width="0.3048" layer="1"/>
</signal>
<signal name="N$59">
<contactref element="U4" pad="19"/>
<contactref element="J9" pad="6"/>
<contactref element="R32" pad="2"/>
<wire x1="124.794" y1="21.844" x2="124.079" y2="22.559" width="0.3048" layer="1"/>
<wire x1="124.079" y1="22.559" x2="124.079" y2="28.829" width="0.3048" layer="1"/>
<wire x1="124.079" y1="28.829" x2="121.539" y2="31.369" width="0.3048" layer="1"/>
<wire x1="121.539" y1="31.369" x2="121.539" y2="37.464" width="0.3048" layer="1"/>
<wire x1="124.714" y1="17.664" x2="124.794" y2="17.744" width="0.3048" layer="1"/>
<wire x1="124.794" y1="17.744" x2="124.794" y2="21.844" width="0.3048" layer="1"/>
</signal>
<signal name="N$60">
<contactref element="U4" pad="18"/>
<contactref element="J9" pad="5"/>
<contactref element="R27" pad="2"/>
<wire x1="122.294" y1="26.844" x2="120.269" y2="28.869" width="0.3048" layer="1"/>
<wire x1="120.269" y1="28.869" x2="120.269" y2="37.464" width="0.3048" layer="1"/>
<wire x1="122.174" y1="17.664" x2="122.294" y2="17.784" width="0.3048" layer="1"/>
<wire x1="122.294" y1="17.784" x2="122.294" y2="26.844" width="0.3048" layer="1"/>
</signal>
<signal name="N$61">
<contactref element="U4" pad="17"/>
<contactref element="J9" pad="4"/>
<contactref element="R28" pad="2"/>
<wire x1="119.794" y1="21.844" x2="118.999" y2="22.639" width="0.3048" layer="1"/>
<wire x1="118.999" y1="22.639" x2="118.999" y2="37.464" width="0.3048" layer="1"/>
<wire x1="119.634" y1="17.664" x2="119.794" y2="17.824" width="0.3048" layer="1"/>
<wire x1="119.794" y1="17.824" x2="119.794" y2="21.844" width="0.3048" layer="1"/>
</signal>
<signal name="N$62">
<contactref element="U4" pad="16"/>
<contactref element="J9" pad="3"/>
<contactref element="R29" pad="2"/>
<wire x1="117.294" y1="26.844" x2="117.729" y2="27.279" width="0.3048" layer="1"/>
<wire x1="117.729" y1="27.279" x2="117.729" y2="37.464" width="0.3048" layer="1"/>
<wire x1="117.094" y1="17.664" x2="117.294" y2="17.864" width="0.3048" layer="1"/>
<wire x1="117.294" y1="17.864" x2="117.294" y2="26.844" width="0.3048" layer="1"/>
</signal>
<signal name="N$63">
<contactref element="U4" pad="15"/>
<contactref element="J9" pad="2"/>
<contactref element="R31" pad="2"/>
<wire x1="114.794" y1="21.844" x2="114.808" y2="21.858" width="0.3048" layer="1"/>
<wire x1="114.808" y1="21.858" x2="114.808" y2="32.766" width="0.3048" layer="1"/>
<wire x1="114.808" y1="32.766" x2="116.459" y2="34.417" width="0.3048" layer="1"/>
<wire x1="116.459" y1="34.417" x2="116.459" y2="37.464" width="0.3048" layer="1"/>
<wire x1="114.554" y1="17.664" x2="114.794" y2="17.904" width="0.3048" layer="1"/>
<wire x1="114.794" y1="17.904" x2="114.794" y2="21.844" width="0.3048" layer="1"/>
</signal>
<signal name="N$64">
<contactref element="U4" pad="14"/>
<contactref element="J9" pad="1"/>
<contactref element="R30" pad="2"/>
<wire x1="112.294" y1="26.844" x2="113.411" y2="27.961" width="0.3048" layer="1"/>
<wire x1="113.411" y1="27.961" x2="113.411" y2="33.528" width="0.3048" layer="1"/>
<wire x1="113.411" y1="33.528" x2="115.189" y2="35.306" width="0.3048" layer="1"/>
<wire x1="115.189" y1="35.306" x2="115.189" y2="37.464" width="0.3048" layer="1"/>
<wire x1="112.014" y1="17.664" x2="112.294" y2="17.944" width="0.3048" layer="1"/>
<wire x1="112.294" y1="17.944" x2="112.294" y2="26.844" width="0.3048" layer="1"/>
</signal>
<signal name="E_GND">
<contactref element="H4" pad="B3,2"/>
<contactref element="H3" pad="B3,2"/>
<contactref element="FB1" pad="1"/>
<wire x1="76.835" y1="40.64" x2="100.33" y2="40.64" width="0.8128" layer="16"/>
<wire x1="100.33" y1="40.64" x2="101.6" y2="41.91" width="0.8128" layer="16"/>
<wire x1="101.6" y1="41.91" x2="105.41" y2="41.91" width="0.8128" layer="16"/>
<wire x1="105.41" y1="41.91" x2="106.68" y2="43.18" width="0.8128" layer="16"/>
<wire x1="106.68" y1="43.18" x2="111.76" y2="43.18" width="0.8128" layer="16"/>
<via x="111.76" y="43.18" extent="1-16" drill="0.508" shape="square"/>
<wire x1="109.22" y1="41.486" x2="110.914" y2="43.18" width="0.8128" layer="1"/>
<wire x1="110.914" y1="43.18" x2="111.76" y2="43.18" width="0.8128" layer="1"/>
<wire x1="76.835" y1="40.64" x2="74.93" y2="42.545" width="0.8128" layer="16"/>
<wire x1="133.985" y1="42.545" x2="128.905" y2="42.545" width="0.8128" layer="16"/>
<wire x1="128.905" y1="42.545" x2="128.27" y2="43.18" width="0.8128" layer="16"/>
<wire x1="128.27" y1="43.18" x2="111.76" y2="43.18" width="0.8128" layer="16"/>
</signal>
<signal name="N$66">
<contactref element="U1" pad="2"/>
<contactref element="R34" pad="1"/>
<wire x1="94.858" y1="46.99" x2="94.731" y2="46.863" width="0.4064" layer="1"/>
<wire x1="94.731" y1="46.863" x2="93.853" y2="46.863" width="0.4064" layer="1"/>
<wire x1="93.853" y1="46.863" x2="93.345" y2="46.355" width="0.4064" layer="1"/>
<wire x1="93.345" y1="46.355" x2="93.345" y2="44.07" width="0.4064" layer="1"/>
</signal>
</signals>
</board>
</drawing>
</eagle>
