%
M48
M72
T01C0.0200
T02C0.0394
T03C0.1260
%
T01
X4230Y8880
X4730Y11780
X9730Y8730
X9880Y7930
X12734Y7430
X12680Y6830
X13430Y7430
X13530Y9080
X12680Y10380
X13380Y11130
X10680Y11830
T02
X2461Y12296
X4430Y13280
X4430Y10180
X2461Y9196
X4430Y7180
X2461Y6196
X11880Y3380
X13849Y4364
X14180Y6680
X16149Y7664
X14180Y9930
X16149Y10914
T03
X8680Y13280
X8730Y3530
M30
