G75*
G70*
%OFA0B0*%
%FSLAX24Y24*%
%IPPOS*%
%LPD*%
%AMOC8*
5,1,8,0,0,1.08239X$1,22.5*
%
%ADD10C,0.0000*%
%ADD11C,0.2300*%
%ADD12R,0.0354X0.0551*%
%ADD13OC8,0.0680*%
%ADD14R,0.0800X0.0260*%
%ADD15R,0.0472X0.0315*%
%ADD16R,0.0594X0.0594*%
%ADD17R,0.0327X0.0248*%
%ADD18R,0.0315X0.0472*%
%ADD19C,0.0240*%
%ADD20C,0.0120*%
%ADD21C,0.0160*%
%ADD22C,0.0317*%
%ADD23C,0.0320*%
%ADD24C,0.0200*%
D10*
X002360Y001160D02*
X002360Y022280D01*
X017402Y022280D01*
X017402Y001160D01*
X002360Y001160D01*
D11*
X009460Y003060D03*
X009460Y020260D03*
D12*
X007293Y021260D03*
X006427Y021260D03*
D13*
X007910Y017760D03*
X007910Y016760D03*
X007910Y015760D03*
X007910Y014760D03*
X007910Y013160D03*
X007910Y012160D03*
X007910Y011160D03*
X007910Y010160D03*
X007910Y008610D03*
X007910Y007610D03*
X007910Y006610D03*
X007910Y005610D03*
X010910Y005610D03*
X010910Y006610D03*
X010910Y007610D03*
X010910Y008610D03*
X010910Y010160D03*
X010910Y011160D03*
X010910Y012160D03*
X010910Y013160D03*
X010910Y014760D03*
X010910Y015760D03*
X010910Y016760D03*
X010910Y017760D03*
D14*
X013055Y015660D03*
X013055Y015160D03*
X013055Y014660D03*
X013055Y014160D03*
X013055Y013660D03*
X013055Y013160D03*
X013055Y012660D03*
X015665Y012660D03*
X015665Y013160D03*
X015665Y013660D03*
X015665Y014160D03*
X015665Y014660D03*
X015665Y015160D03*
X015665Y015660D03*
D15*
X006160Y015614D03*
X006160Y014906D03*
X006110Y013014D03*
X006110Y012306D03*
X006160Y010664D03*
X006160Y009956D03*
X006160Y007864D03*
X006160Y007156D03*
X006110Y005764D03*
X006110Y005056D03*
X006060Y016906D03*
X006060Y017614D03*
D16*
X004794Y019091D03*
X003810Y021060D03*
X003860Y015710D03*
X004844Y013741D03*
X003376Y009629D03*
X004360Y007660D03*
X003376Y004429D03*
X004360Y002460D03*
X013941Y002470D03*
X013941Y004439D03*
X013941Y006407D03*
X013941Y008376D03*
X015910Y009360D03*
X015910Y007391D03*
X015910Y005423D03*
X015910Y003454D03*
X013891Y019426D03*
X015860Y020410D03*
D17*
X006910Y017713D03*
X006910Y016807D03*
X006910Y015713D03*
X006910Y014807D03*
X006910Y013113D03*
X006910Y012207D03*
X006910Y010763D03*
X006910Y009857D03*
X006910Y007913D03*
X006910Y007007D03*
X006910Y005813D03*
X006910Y004907D03*
D18*
X006814Y003760D03*
X006106Y003760D03*
X006106Y002810D03*
X006814Y002810D03*
X006914Y008760D03*
X006206Y008760D03*
X006106Y011610D03*
X006814Y011610D03*
X006614Y013860D03*
X005906Y013860D03*
X006006Y018410D03*
X006714Y018410D03*
D19*
X006910Y017713D02*
X006158Y017713D01*
X006060Y017614D01*
X006056Y016910D02*
X006060Y016906D01*
X006056Y016910D02*
X004960Y016910D01*
X003860Y016960D02*
X003860Y015710D01*
X003956Y015614D01*
X006160Y015614D01*
X006160Y014906D02*
X006161Y014889D01*
X006166Y014872D01*
X006173Y014857D01*
X006183Y014843D01*
X006195Y014831D01*
X006209Y014821D01*
X006224Y014814D01*
X006241Y014809D01*
X006258Y014808D01*
X006258Y014807D02*
X006910Y014807D01*
X007863Y014807D01*
X007875Y014805D01*
X007887Y014801D01*
X007896Y014793D01*
X007904Y014784D01*
X007908Y014772D01*
X007910Y014760D01*
X007910Y013160D02*
X007908Y013147D01*
X007903Y013135D01*
X007895Y013125D01*
X007885Y013117D01*
X007873Y013112D01*
X007860Y013110D01*
X006913Y013110D01*
X006910Y013113D01*
X006208Y013113D01*
X006110Y013014D01*
X005906Y013860D02*
X004963Y013860D01*
X004844Y013741D01*
X006106Y012301D02*
X006106Y011610D01*
X004360Y011610D01*
X003510Y010760D01*
X003510Y009763D01*
X003376Y009629D01*
X004360Y010260D02*
X004760Y010660D01*
X006156Y010660D01*
X006160Y010664D01*
X006160Y009956D02*
X006258Y009857D01*
X006910Y009857D01*
X007607Y009857D01*
X007910Y010160D01*
X007910Y008610D02*
X007860Y008560D01*
X007660Y008560D01*
X007013Y007913D01*
X006910Y007913D01*
X006862Y007864D01*
X006160Y007864D01*
X006160Y007156D02*
X005306Y007156D01*
X004910Y006760D01*
X003910Y006760D01*
X003360Y006210D01*
X003360Y004444D01*
X003376Y004429D01*
X004044Y003760D01*
X006106Y003760D01*
X006106Y002810D02*
X005756Y002460D01*
X004360Y002460D01*
X006258Y004907D02*
X006110Y005056D01*
X006258Y004907D02*
X006910Y004907D01*
X007657Y004907D01*
X007910Y005160D01*
X007910Y005610D01*
X006110Y005764D02*
X005164Y005764D01*
X005160Y005760D01*
X004360Y007660D02*
X004760Y008060D01*
X004760Y008460D01*
X005060Y008760D01*
X006206Y008760D01*
X004360Y007660D02*
X004360Y010260D01*
X006106Y012301D02*
X006107Y012303D01*
X006108Y012304D01*
X006110Y012305D01*
X003860Y016960D02*
X005310Y018410D01*
X006006Y018410D01*
X006910Y017713D02*
X007863Y017713D01*
X007910Y017760D01*
X009460Y020260D02*
X008460Y021260D01*
X007293Y021260D01*
X010910Y016760D02*
X011760Y016760D01*
X012110Y016410D01*
X012110Y015310D01*
X012260Y015160D01*
X013055Y015160D01*
X013055Y014660D02*
X013710Y014660D01*
X013860Y014510D01*
X013860Y012060D01*
X013310Y011510D01*
X012960Y011510D01*
X012655Y012260D02*
X012310Y012260D01*
X011210Y011160D01*
X010910Y011160D01*
X010910Y013160D02*
X010960Y013210D01*
X012110Y013660D02*
X013055Y013660D01*
X013055Y012660D02*
X012655Y012260D01*
X014160Y011610D02*
X015310Y011610D01*
X015660Y011960D01*
X015660Y012655D01*
X015665Y012660D01*
X015665Y013160D02*
X014760Y013160D01*
X015665Y013660D02*
X016510Y013660D01*
X016810Y013360D01*
X016810Y010910D01*
X014360Y010910D01*
X011060Y007610D01*
X010910Y007610D01*
X010910Y008610D02*
X011160Y008610D01*
X014160Y011610D01*
X014760Y010110D02*
X016610Y010110D01*
X016710Y010010D01*
X016710Y008860D01*
X016110Y008260D01*
X015160Y008260D01*
X014760Y007860D01*
X014760Y007160D01*
X014007Y006407D01*
X013941Y006407D01*
X015665Y014160D02*
X016760Y014160D01*
X016660Y015160D02*
X015665Y015160D01*
X015665Y014660D02*
X014710Y014660D01*
X013360Y015965D02*
X013055Y015660D01*
X013360Y015965D02*
X013360Y016260D01*
D20*
X013125Y016476D02*
X012386Y016476D01*
X012390Y016466D02*
X012347Y016569D01*
X012269Y016647D01*
X011919Y016997D01*
X011816Y017040D01*
X011337Y017040D01*
X011117Y017260D01*
X010703Y017260D01*
X010410Y016967D01*
X010410Y016553D01*
X010703Y016260D01*
X011117Y016260D01*
X011337Y016480D01*
X011644Y016480D01*
X011830Y016294D01*
X011830Y015254D01*
X011873Y015151D01*
X012023Y015001D01*
X012101Y014923D01*
X012204Y014880D01*
X012519Y014880D01*
X012495Y014856D01*
X012495Y014464D01*
X012539Y014420D01*
X011308Y014420D01*
X011255Y014398D01*
X011410Y014553D01*
X011410Y014740D01*
X010930Y014740D01*
X010930Y014780D01*
X010890Y014780D01*
X010890Y015260D01*
X010703Y015260D01*
X010410Y014967D01*
X010410Y014780D01*
X010890Y014780D01*
X010890Y014740D01*
X010930Y014740D01*
X010930Y014260D01*
X011092Y014260D01*
X010813Y013980D01*
X010740Y013907D01*
X010700Y013812D01*
X010700Y013657D01*
X010410Y013367D01*
X010410Y012953D01*
X010703Y012660D01*
X010410Y012367D01*
X010410Y011953D01*
X010703Y011660D01*
X010523Y011480D01*
X010246Y011480D01*
X010129Y011431D01*
X009829Y011131D01*
X009739Y011041D01*
X009690Y010924D01*
X009690Y006846D01*
X009739Y006729D01*
X010039Y006429D01*
X010129Y006339D01*
X010246Y006290D01*
X010523Y006290D01*
X010703Y006110D01*
X010410Y005817D01*
X010410Y005630D01*
X010890Y005630D01*
X010890Y006110D01*
X010703Y006110D01*
X011117Y006110D01*
X010930Y006110D01*
X010930Y005630D01*
X010890Y005630D01*
X010890Y005590D01*
X010410Y005590D01*
X010410Y005403D01*
X010703Y005110D01*
X010890Y005110D01*
X010890Y005590D01*
X010930Y005590D01*
X010930Y005630D01*
X011410Y005630D01*
X011410Y005817D01*
X011117Y006110D01*
X011314Y006307D01*
X011391Y006339D01*
X013093Y008040D01*
X013485Y008040D01*
X013485Y008013D01*
X013578Y007919D01*
X014305Y007919D01*
X014398Y008013D01*
X014398Y008246D01*
X015193Y009040D01*
X015453Y009040D01*
X015453Y008997D01*
X015547Y008903D01*
X016273Y008903D01*
X016367Y008997D01*
X016367Y009723D01*
X016273Y009817D01*
X015547Y009817D01*
X015453Y009723D01*
X015453Y009680D01*
X014996Y009680D01*
X014879Y009631D01*
X014789Y009541D01*
X014080Y008833D01*
X013578Y008833D01*
X013485Y008739D01*
X013485Y008680D01*
X012896Y008680D01*
X012779Y008631D01*
X012689Y008541D01*
X011187Y007040D01*
X011117Y007110D01*
X011410Y007403D01*
X011410Y007564D01*
X014476Y010630D01*
X016866Y010630D01*
X016969Y010673D01*
X017047Y010751D01*
X017090Y010854D01*
X017090Y013416D01*
X017047Y013519D01*
X016747Y013819D01*
X016724Y013842D01*
X016823Y013842D01*
X016940Y013890D01*
X017030Y013980D01*
X017078Y014097D01*
X017078Y014223D01*
X017030Y014340D01*
X016940Y014430D01*
X016823Y014478D01*
X016697Y014478D01*
X016604Y014440D01*
X016201Y014440D01*
X016225Y014464D01*
X016225Y014856D01*
X016201Y014880D01*
X016504Y014880D01*
X016597Y014842D01*
X016723Y014842D01*
X016840Y014890D01*
X016930Y014980D01*
X016978Y015097D01*
X016978Y015223D01*
X016930Y015340D01*
X016840Y015430D01*
X016723Y015478D01*
X016597Y015478D01*
X016504Y015440D01*
X016198Y015440D01*
X016214Y015468D01*
X016225Y015509D01*
X016225Y015655D01*
X015670Y015655D01*
X015670Y015665D01*
X015660Y015665D01*
X015660Y015950D01*
X015244Y015950D01*
X015203Y015939D01*
X015167Y015918D01*
X015137Y015888D01*
X015116Y015852D01*
X015105Y015811D01*
X015105Y015665D01*
X015660Y015665D01*
X015660Y015655D01*
X015105Y015655D01*
X015105Y015509D01*
X015116Y015468D01*
X015137Y015432D01*
X015159Y015410D01*
X015105Y015356D01*
X015105Y014964D01*
X015129Y014940D01*
X014866Y014940D01*
X014773Y014978D01*
X014647Y014978D01*
X014530Y014930D01*
X014440Y014840D01*
X014392Y014723D01*
X014392Y014597D01*
X014440Y014480D01*
X014530Y014390D01*
X014647Y014342D01*
X014773Y014342D01*
X014866Y014380D01*
X015129Y014380D01*
X015105Y014356D01*
X015105Y013964D01*
X015159Y013910D01*
X015105Y013856D01*
X015105Y013464D01*
X015129Y013440D01*
X014916Y013440D01*
X014823Y013478D01*
X014697Y013478D01*
X014580Y013430D01*
X014490Y013340D01*
X014442Y013223D01*
X014442Y013097D01*
X014490Y012980D01*
X014580Y012890D01*
X014697Y012842D01*
X014823Y012842D01*
X014916Y012880D01*
X015129Y012880D01*
X015105Y012856D01*
X015105Y012464D01*
X015199Y012370D01*
X015380Y012370D01*
X015380Y012076D01*
X015194Y011890D01*
X014104Y011890D01*
X014073Y011877D01*
X014097Y011901D01*
X014140Y012004D01*
X014140Y014566D01*
X014097Y014669D01*
X014019Y014747D01*
X013869Y014897D01*
X013766Y014940D01*
X013591Y014940D01*
X013615Y014964D01*
X013615Y015356D01*
X013561Y015410D01*
X013615Y015464D01*
X013615Y015849D01*
X013640Y015909D01*
X013640Y016104D01*
X013678Y016197D01*
X013678Y016323D01*
X013630Y016440D01*
X013540Y016530D01*
X013423Y016578D01*
X013297Y016578D01*
X013180Y016530D01*
X013090Y016440D01*
X013042Y016323D01*
X013042Y016197D01*
X013080Y016104D01*
X013080Y016081D01*
X012949Y015950D01*
X012589Y015950D01*
X012495Y015856D01*
X012495Y015464D01*
X012519Y015440D01*
X012390Y015440D01*
X012390Y016466D01*
X012390Y016357D02*
X013056Y016357D01*
X013042Y016239D02*
X012390Y016239D01*
X012390Y016120D02*
X013073Y016120D01*
X013001Y016002D02*
X012390Y016002D01*
X012390Y015883D02*
X012522Y015883D01*
X012495Y015765D02*
X012390Y015765D01*
X012390Y015646D02*
X012495Y015646D01*
X012495Y015528D02*
X012390Y015528D01*
X011830Y015528D02*
X011385Y015528D01*
X011410Y015553D02*
X011410Y015967D01*
X011117Y016260D01*
X010703Y016260D01*
X010523Y016080D01*
X010443Y016080D01*
X010280Y016243D01*
X010280Y017827D01*
X010410Y017957D01*
X010410Y017553D01*
X010703Y017260D01*
X011117Y017260D01*
X011410Y017553D01*
X011410Y017967D01*
X011117Y018260D01*
X010713Y018260D01*
X011558Y019106D01*
X013435Y019106D01*
X013435Y019063D01*
X013528Y018969D01*
X014255Y018969D01*
X014348Y019063D01*
X014348Y019789D01*
X014255Y019883D01*
X013528Y019883D01*
X013435Y019789D01*
X013435Y019746D01*
X011362Y019746D01*
X011244Y019697D01*
X009779Y018231D01*
X009689Y018141D01*
X009660Y018072D01*
X009660Y018957D01*
X009966Y019039D01*
X010264Y019212D01*
X010508Y019456D01*
X010681Y019754D01*
X010770Y020088D01*
X010770Y020432D01*
X010681Y020766D01*
X010508Y021064D01*
X010264Y021308D01*
X009966Y021481D01*
X009660Y021563D01*
X009660Y022120D01*
X017242Y022120D01*
X017242Y001320D01*
X009660Y001320D01*
X009660Y001757D01*
X009966Y001839D01*
X010264Y002012D01*
X010508Y002256D01*
X010681Y002554D01*
X010770Y002888D01*
X010770Y003232D01*
X010681Y003566D01*
X010508Y003864D01*
X010264Y004108D01*
X009966Y004281D01*
X009660Y004363D01*
X009660Y015998D01*
X009689Y015929D01*
X010039Y015579D01*
X010129Y015489D01*
X010246Y015440D01*
X010523Y015440D01*
X010703Y015260D01*
X011117Y015260D01*
X010930Y015260D01*
X010930Y014780D01*
X011410Y014780D01*
X011410Y014967D01*
X011117Y015260D01*
X011410Y015553D01*
X011410Y015646D02*
X011830Y015646D01*
X011830Y015765D02*
X011410Y015765D01*
X011410Y015883D02*
X011830Y015883D01*
X011830Y016002D02*
X011376Y016002D01*
X011257Y016120D02*
X011830Y016120D01*
X011830Y016239D02*
X011139Y016239D01*
X011214Y016357D02*
X011767Y016357D01*
X011648Y016476D02*
X011333Y016476D01*
X011309Y017068D02*
X017242Y017068D01*
X017242Y016950D02*
X011966Y016950D01*
X012085Y016831D02*
X017242Y016831D01*
X017242Y016713D02*
X012203Y016713D01*
X012322Y016594D02*
X017242Y016594D01*
X017242Y016476D02*
X013595Y016476D01*
X013664Y016357D02*
X017242Y016357D01*
X017242Y016239D02*
X013678Y016239D01*
X013647Y016120D02*
X017242Y016120D01*
X017242Y016002D02*
X013640Y016002D01*
X013629Y015883D02*
X015134Y015883D01*
X015105Y015765D02*
X013615Y015765D01*
X013615Y015646D02*
X015105Y015646D01*
X015105Y015528D02*
X013615Y015528D01*
X013562Y015409D02*
X015158Y015409D01*
X015105Y015291D02*
X013615Y015291D01*
X013615Y015172D02*
X015105Y015172D01*
X015105Y015054D02*
X013615Y015054D01*
X013778Y014935D02*
X014542Y014935D01*
X014430Y014817D02*
X013949Y014817D01*
X014068Y014698D02*
X014392Y014698D01*
X014399Y014580D02*
X014134Y014580D01*
X014140Y014461D02*
X014459Y014461D01*
X014644Y014343D02*
X014140Y014343D01*
X014140Y014224D02*
X015105Y014224D01*
X015105Y014106D02*
X014140Y014106D01*
X014140Y013987D02*
X015105Y013987D01*
X015117Y013869D02*
X014140Y013869D01*
X014140Y013750D02*
X015105Y013750D01*
X015105Y013632D02*
X014140Y013632D01*
X014140Y013513D02*
X015105Y013513D01*
X014544Y013395D02*
X014140Y013395D01*
X014140Y013276D02*
X014463Y013276D01*
X014442Y013158D02*
X014140Y013158D01*
X014140Y013039D02*
X014465Y013039D01*
X014549Y012921D02*
X014140Y012921D01*
X014140Y012802D02*
X015105Y012802D01*
X015105Y012684D02*
X014140Y012684D01*
X014140Y012565D02*
X015105Y012565D01*
X015122Y012447D02*
X014140Y012447D01*
X014140Y012328D02*
X015380Y012328D01*
X015380Y012210D02*
X014140Y012210D01*
X014140Y012091D02*
X015380Y012091D01*
X015277Y011973D02*
X014127Y011973D01*
X013580Y012176D02*
X013194Y011790D01*
X013116Y011790D01*
X013023Y011828D01*
X012897Y011828D01*
X012780Y011780D01*
X012690Y011690D01*
X012642Y011573D01*
X012642Y011447D01*
X012690Y011330D01*
X012780Y011240D01*
X012897Y011192D01*
X013023Y011192D01*
X013116Y011230D01*
X013366Y011230D01*
X013397Y011243D01*
X011191Y009037D01*
X011117Y009110D01*
X010703Y009110D01*
X010410Y008817D01*
X010410Y008403D01*
X010703Y008110D01*
X010410Y007817D01*
X010410Y007403D01*
X010703Y007110D01*
X011117Y007110D01*
X010703Y007110D01*
X010523Y006930D01*
X010443Y006930D01*
X010330Y007043D01*
X010330Y010727D01*
X010443Y010840D01*
X010523Y010840D01*
X010703Y010660D01*
X011117Y010660D01*
X011314Y010857D01*
X011391Y010889D01*
X011481Y010979D01*
X011521Y011075D01*
X012426Y011980D01*
X012711Y011980D01*
X012814Y012023D01*
X013161Y012370D01*
X013521Y012370D01*
X013580Y012429D01*
X013580Y012176D01*
X013580Y012210D02*
X013001Y012210D01*
X013119Y012328D02*
X013580Y012328D01*
X013495Y012091D02*
X012882Y012091D01*
X012735Y011736D02*
X012182Y011736D01*
X012300Y011854D02*
X013258Y011854D01*
X013377Y011973D02*
X012419Y011973D01*
X012660Y011617D02*
X012063Y011617D01*
X011945Y011499D02*
X012642Y011499D01*
X012669Y011380D02*
X011826Y011380D01*
X011708Y011262D02*
X012758Y011262D01*
X013060Y010906D02*
X011409Y010906D01*
X011500Y011025D02*
X013179Y011025D01*
X013297Y011143D02*
X011589Y011143D01*
X011245Y010788D02*
X012942Y010788D01*
X012823Y010669D02*
X011126Y010669D01*
X011117Y010660D02*
X010930Y010660D01*
X010930Y010180D01*
X010890Y010180D01*
X010890Y010660D01*
X010703Y010660D01*
X010410Y010367D01*
X010410Y010180D01*
X010890Y010180D01*
X010890Y010140D01*
X010410Y010140D01*
X010410Y009953D01*
X010703Y009660D01*
X010890Y009660D01*
X010890Y010140D01*
X010930Y010140D01*
X010930Y010180D01*
X011410Y010180D01*
X011410Y010367D01*
X011117Y010660D01*
X011227Y010551D02*
X012705Y010551D01*
X012586Y010432D02*
X011345Y010432D01*
X011410Y010314D02*
X012468Y010314D01*
X012349Y010195D02*
X011410Y010195D01*
X011410Y010140D02*
X010930Y010140D01*
X010930Y009660D01*
X011117Y009660D01*
X011410Y009953D01*
X011410Y010140D01*
X011410Y010077D02*
X012231Y010077D01*
X012112Y009958D02*
X011410Y009958D01*
X011297Y009840D02*
X011994Y009840D01*
X011875Y009721D02*
X011178Y009721D01*
X010930Y009721D02*
X010890Y009721D01*
X010890Y009840D02*
X010930Y009840D01*
X010930Y009958D02*
X010890Y009958D01*
X010890Y010077D02*
X010930Y010077D01*
X010930Y010195D02*
X010890Y010195D01*
X010890Y010314D02*
X010930Y010314D01*
X010930Y010432D02*
X010890Y010432D01*
X010890Y010551D02*
X010930Y010551D01*
X010694Y010669D02*
X010330Y010669D01*
X010330Y010551D02*
X010593Y010551D01*
X010475Y010432D02*
X010330Y010432D01*
X010330Y010314D02*
X010410Y010314D01*
X010410Y010195D02*
X010330Y010195D01*
X010330Y010077D02*
X010410Y010077D01*
X010410Y009958D02*
X010330Y009958D01*
X010330Y009840D02*
X010523Y009840D01*
X010642Y009721D02*
X010330Y009721D01*
X010330Y009603D02*
X011757Y009603D01*
X011638Y009484D02*
X010330Y009484D01*
X010330Y009366D02*
X011520Y009366D01*
X011401Y009247D02*
X010330Y009247D01*
X010330Y009129D02*
X011283Y009129D01*
X011719Y008773D02*
X011827Y008773D01*
X011838Y008892D02*
X011946Y008892D01*
X011956Y009010D02*
X012064Y009010D01*
X012075Y009129D02*
X012183Y009129D01*
X012193Y009247D02*
X012301Y009247D01*
X012312Y009366D02*
X012420Y009366D01*
X012430Y009484D02*
X012538Y009484D01*
X012549Y009603D02*
X012657Y009603D01*
X012667Y009721D02*
X012775Y009721D01*
X012786Y009840D02*
X012894Y009840D01*
X012904Y009958D02*
X013012Y009958D01*
X013023Y010077D02*
X013131Y010077D01*
X013141Y010195D02*
X013249Y010195D01*
X013260Y010314D02*
X013368Y010314D01*
X013378Y010432D02*
X013486Y010432D01*
X013497Y010551D02*
X013605Y010551D01*
X013615Y010669D02*
X013723Y010669D01*
X013734Y010788D02*
X013842Y010788D01*
X013852Y010906D02*
X013960Y010906D01*
X013971Y011025D02*
X014079Y011025D01*
X014123Y011069D02*
X011141Y008087D01*
X011117Y008110D01*
X010703Y008110D01*
X011117Y008110D01*
X011410Y008403D01*
X011410Y008464D01*
X014276Y011330D01*
X015366Y011330D01*
X015469Y011373D01*
X015819Y011723D01*
X015897Y011801D01*
X015940Y011904D01*
X015940Y012370D01*
X016131Y012370D01*
X016225Y012464D01*
X016225Y012856D01*
X016171Y012910D01*
X016225Y012964D01*
X016225Y013356D01*
X016201Y013380D01*
X016394Y013380D01*
X016530Y013244D01*
X016530Y011190D01*
X014304Y011190D01*
X014201Y011147D01*
X014123Y011069D01*
X014123Y011069D01*
X014089Y011143D02*
X014197Y011143D01*
X014208Y011262D02*
X016530Y011262D01*
X016530Y011380D02*
X015476Y011380D01*
X015595Y011499D02*
X016530Y011499D01*
X016530Y011617D02*
X015713Y011617D01*
X015832Y011736D02*
X016530Y011736D01*
X016530Y011854D02*
X015919Y011854D01*
X015940Y011973D02*
X016530Y011973D01*
X016530Y012091D02*
X015940Y012091D01*
X015940Y012210D02*
X016530Y012210D01*
X016530Y012328D02*
X015940Y012328D01*
X016208Y012447D02*
X016530Y012447D01*
X016530Y012565D02*
X016225Y012565D01*
X016225Y012684D02*
X016530Y012684D01*
X016530Y012802D02*
X016225Y012802D01*
X016182Y012921D02*
X016530Y012921D01*
X016530Y013039D02*
X016225Y013039D01*
X016225Y013158D02*
X016530Y013158D01*
X016498Y013276D02*
X016225Y013276D01*
X016816Y013750D02*
X017242Y013750D01*
X017242Y013632D02*
X016934Y013632D01*
X017050Y013513D02*
X017242Y013513D01*
X017242Y013395D02*
X017090Y013395D01*
X017090Y013276D02*
X017242Y013276D01*
X017242Y013158D02*
X017090Y013158D01*
X017090Y013039D02*
X017242Y013039D01*
X017242Y012921D02*
X017090Y012921D01*
X017090Y012802D02*
X017242Y012802D01*
X017242Y012684D02*
X017090Y012684D01*
X017090Y012565D02*
X017242Y012565D01*
X017242Y012447D02*
X017090Y012447D01*
X017090Y012328D02*
X017242Y012328D01*
X017242Y012210D02*
X017090Y012210D01*
X017090Y012091D02*
X017242Y012091D01*
X017242Y011973D02*
X017090Y011973D01*
X017090Y011854D02*
X017242Y011854D01*
X017242Y011736D02*
X017090Y011736D01*
X017090Y011617D02*
X017242Y011617D01*
X017242Y011499D02*
X017090Y011499D01*
X017090Y011380D02*
X017242Y011380D01*
X017242Y011262D02*
X017090Y011262D01*
X017090Y011143D02*
X017242Y011143D01*
X017242Y011025D02*
X017090Y011025D01*
X017090Y010906D02*
X017242Y010906D01*
X017242Y010788D02*
X017062Y010788D01*
X016960Y010669D02*
X017242Y010669D01*
X017242Y010551D02*
X014397Y010551D01*
X014278Y010432D02*
X017242Y010432D01*
X017242Y010314D02*
X016802Y010314D01*
X016769Y010347D02*
X016666Y010390D01*
X014916Y010390D01*
X014823Y010428D01*
X014697Y010428D01*
X014580Y010380D01*
X014490Y010290D01*
X014442Y010173D01*
X014442Y010047D01*
X014490Y009930D01*
X014580Y009840D01*
X014697Y009792D01*
X014823Y009792D01*
X014916Y009830D01*
X016430Y009830D01*
X016430Y008976D01*
X015994Y008540D01*
X015104Y008540D01*
X015001Y008497D01*
X014923Y008419D01*
X014523Y008019D01*
X014480Y007916D01*
X014480Y007276D01*
X014068Y006864D01*
X013578Y006864D01*
X013485Y006770D01*
X013485Y006044D01*
X013578Y005950D01*
X014305Y005950D01*
X014398Y006044D01*
X014398Y006402D01*
X014919Y006923D01*
X014997Y007001D01*
X015040Y007104D01*
X015040Y007744D01*
X015276Y007980D01*
X016166Y007980D01*
X016269Y008023D01*
X016947Y008701D01*
X016990Y008804D01*
X016990Y010066D01*
X016947Y010169D01*
X016847Y010269D01*
X016769Y010347D01*
X016847Y010269D02*
X016847Y010269D01*
X016921Y010195D02*
X017242Y010195D01*
X017242Y010077D02*
X016986Y010077D01*
X016990Y009958D02*
X017242Y009958D01*
X017242Y009840D02*
X016990Y009840D01*
X016990Y009721D02*
X017242Y009721D01*
X017242Y009603D02*
X016990Y009603D01*
X016990Y009484D02*
X017242Y009484D01*
X017242Y009366D02*
X016990Y009366D01*
X016990Y009247D02*
X017242Y009247D01*
X017242Y009129D02*
X016990Y009129D01*
X016990Y009010D02*
X017242Y009010D01*
X017242Y008892D02*
X016990Y008892D01*
X016977Y008773D02*
X017242Y008773D01*
X017242Y008655D02*
X016901Y008655D01*
X016782Y008536D02*
X017242Y008536D01*
X017242Y008418D02*
X016664Y008418D01*
X016545Y008299D02*
X017242Y008299D01*
X017242Y008181D02*
X016427Y008181D01*
X016308Y008062D02*
X017242Y008062D01*
X017242Y007944D02*
X015240Y007944D01*
X015121Y007825D02*
X015524Y007825D01*
X015547Y007848D02*
X015453Y007755D01*
X015453Y007028D01*
X015547Y006935D01*
X016273Y006935D01*
X016367Y007028D01*
X016367Y007755D01*
X016273Y007848D01*
X015547Y007848D01*
X015453Y007707D02*
X015040Y007707D01*
X015040Y007588D02*
X015453Y007588D01*
X015453Y007470D02*
X015040Y007470D01*
X015040Y007351D02*
X015453Y007351D01*
X015453Y007233D02*
X015040Y007233D01*
X015040Y007114D02*
X015453Y007114D01*
X015486Y006996D02*
X014991Y006996D01*
X014873Y006877D02*
X017242Y006877D01*
X017242Y006759D02*
X014754Y006759D01*
X014636Y006640D02*
X017242Y006640D01*
X017242Y006522D02*
X014517Y006522D01*
X014399Y006403D02*
X017242Y006403D01*
X017242Y006285D02*
X014398Y006285D01*
X014398Y006166D02*
X017242Y006166D01*
X017242Y006048D02*
X014398Y006048D01*
X014081Y006877D02*
X011930Y006877D01*
X012048Y006996D02*
X014200Y006996D01*
X014318Y007114D02*
X012167Y007114D01*
X012285Y007233D02*
X014437Y007233D01*
X014480Y007351D02*
X012404Y007351D01*
X012522Y007470D02*
X014480Y007470D01*
X014480Y007588D02*
X012641Y007588D01*
X012759Y007707D02*
X014480Y007707D01*
X014480Y007825D02*
X012878Y007825D01*
X012996Y007944D02*
X013554Y007944D01*
X014329Y007944D02*
X014492Y007944D01*
X014566Y008062D02*
X014398Y008062D01*
X014398Y008181D02*
X014685Y008181D01*
X014803Y008299D02*
X014452Y008299D01*
X014570Y008418D02*
X014922Y008418D01*
X015095Y008536D02*
X014689Y008536D01*
X014807Y008655D02*
X016109Y008655D01*
X016227Y008773D02*
X014926Y008773D01*
X015044Y008892D02*
X016346Y008892D01*
X016367Y009010D02*
X016430Y009010D01*
X016430Y009129D02*
X016367Y009129D01*
X016367Y009247D02*
X016430Y009247D01*
X016430Y009366D02*
X016367Y009366D01*
X016367Y009484D02*
X016430Y009484D01*
X016430Y009603D02*
X016367Y009603D01*
X016367Y009721D02*
X016430Y009721D01*
X015453Y009721D02*
X013567Y009721D01*
X013449Y009603D02*
X014850Y009603D01*
X014731Y009484D02*
X013330Y009484D01*
X013212Y009366D02*
X014613Y009366D01*
X014494Y009247D02*
X013093Y009247D01*
X012975Y009129D02*
X014376Y009129D01*
X014257Y009010D02*
X012856Y009010D01*
X012738Y008892D02*
X014139Y008892D01*
X013519Y008773D02*
X012619Y008773D01*
X012501Y008655D02*
X012835Y008655D01*
X012683Y008536D02*
X012382Y008536D01*
X012264Y008418D02*
X012565Y008418D01*
X012446Y008299D02*
X012145Y008299D01*
X012027Y008181D02*
X012328Y008181D01*
X012209Y008062D02*
X011908Y008062D01*
X011790Y007944D02*
X012091Y007944D01*
X011972Y007825D02*
X011671Y007825D01*
X011553Y007707D02*
X011854Y007707D01*
X011735Y007588D02*
X011434Y007588D01*
X011410Y007470D02*
X011617Y007470D01*
X011498Y007351D02*
X011358Y007351D01*
X011380Y007233D02*
X011240Y007233D01*
X011261Y007114D02*
X011121Y007114D01*
X010699Y007114D02*
X010330Y007114D01*
X010330Y007233D02*
X010580Y007233D01*
X010462Y007351D02*
X010330Y007351D01*
X010330Y007470D02*
X010410Y007470D01*
X010410Y007588D02*
X010330Y007588D01*
X010330Y007707D02*
X010410Y007707D01*
X010418Y007825D02*
X010330Y007825D01*
X010330Y007944D02*
X010536Y007944D01*
X010655Y008062D02*
X010330Y008062D01*
X010330Y008181D02*
X010632Y008181D01*
X010514Y008299D02*
X010330Y008299D01*
X010330Y008418D02*
X010410Y008418D01*
X010410Y008536D02*
X010330Y008536D01*
X010330Y008655D02*
X010410Y008655D01*
X010410Y008773D02*
X010330Y008773D01*
X010330Y008892D02*
X010484Y008892D01*
X010603Y009010D02*
X010330Y009010D01*
X009690Y009010D02*
X009660Y009010D01*
X009660Y008892D02*
X009690Y008892D01*
X009690Y008773D02*
X009660Y008773D01*
X009660Y008655D02*
X009690Y008655D01*
X009690Y008536D02*
X009660Y008536D01*
X009660Y008418D02*
X009690Y008418D01*
X009690Y008299D02*
X009660Y008299D01*
X009660Y008181D02*
X009690Y008181D01*
X009690Y008062D02*
X009660Y008062D01*
X009660Y007944D02*
X009690Y007944D01*
X009690Y007825D02*
X009660Y007825D01*
X009660Y007707D02*
X009690Y007707D01*
X009690Y007588D02*
X009660Y007588D01*
X009660Y007470D02*
X009690Y007470D01*
X009690Y007351D02*
X009660Y007351D01*
X009660Y007233D02*
X009690Y007233D01*
X009690Y007114D02*
X009660Y007114D01*
X009660Y006996D02*
X009690Y006996D01*
X009690Y006877D02*
X009660Y006877D01*
X009660Y006759D02*
X009726Y006759D01*
X009660Y006640D02*
X009827Y006640D01*
X009946Y006522D02*
X009660Y006522D01*
X009660Y006403D02*
X010064Y006403D01*
X009660Y006285D02*
X010528Y006285D01*
X010647Y006166D02*
X009660Y006166D01*
X009660Y006048D02*
X010640Y006048D01*
X010522Y005929D02*
X009660Y005929D01*
X009660Y005811D02*
X010410Y005811D01*
X010410Y005692D02*
X009660Y005692D01*
X009660Y005574D02*
X010410Y005574D01*
X010410Y005455D02*
X009660Y005455D01*
X009660Y005337D02*
X010476Y005337D01*
X010595Y005218D02*
X009660Y005218D01*
X009660Y005100D02*
X015453Y005100D01*
X015453Y005060D02*
X015547Y004966D01*
X016273Y004966D01*
X016367Y005060D01*
X016367Y005786D01*
X016273Y005880D01*
X015547Y005880D01*
X015453Y005786D01*
X015453Y005060D01*
X015532Y004981D02*
X009660Y004981D01*
X009660Y004863D02*
X013545Y004863D01*
X013578Y004896D02*
X013485Y004802D01*
X013485Y004076D01*
X013578Y003982D01*
X014305Y003982D01*
X014398Y004076D01*
X014398Y004802D01*
X014305Y004896D01*
X013578Y004896D01*
X013485Y004744D02*
X009660Y004744D01*
X009660Y004626D02*
X013485Y004626D01*
X013485Y004507D02*
X009660Y004507D01*
X009660Y004389D02*
X013485Y004389D01*
X013485Y004270D02*
X009984Y004270D01*
X010189Y004152D02*
X013485Y004152D01*
X013527Y004033D02*
X010340Y004033D01*
X010458Y003915D02*
X017242Y003915D01*
X017242Y004033D02*
X014356Y004033D01*
X014398Y004152D02*
X017242Y004152D01*
X017242Y004270D02*
X014398Y004270D01*
X014398Y004389D02*
X017242Y004389D01*
X017242Y004507D02*
X014398Y004507D01*
X014398Y004626D02*
X017242Y004626D01*
X017242Y004744D02*
X014398Y004744D01*
X014338Y004863D02*
X017242Y004863D01*
X017242Y004981D02*
X016288Y004981D01*
X016367Y005100D02*
X017242Y005100D01*
X017242Y005218D02*
X016367Y005218D01*
X016367Y005337D02*
X017242Y005337D01*
X017242Y005455D02*
X016367Y005455D01*
X016367Y005574D02*
X017242Y005574D01*
X017242Y005692D02*
X016367Y005692D01*
X016342Y005811D02*
X017242Y005811D01*
X017242Y005929D02*
X011298Y005929D01*
X011410Y005811D02*
X015478Y005811D01*
X015453Y005692D02*
X011410Y005692D01*
X011410Y005590D02*
X010930Y005590D01*
X010930Y005110D01*
X011117Y005110D01*
X011410Y005403D01*
X011410Y005590D01*
X011410Y005574D02*
X015453Y005574D01*
X015453Y005455D02*
X011410Y005455D01*
X011344Y005337D02*
X015453Y005337D01*
X015453Y005218D02*
X011225Y005218D01*
X010930Y005218D02*
X010890Y005218D01*
X010890Y005337D02*
X010930Y005337D01*
X010930Y005455D02*
X010890Y005455D01*
X010890Y005574D02*
X010930Y005574D01*
X010930Y005692D02*
X010890Y005692D01*
X010890Y005811D02*
X010930Y005811D01*
X010930Y005929D02*
X010890Y005929D01*
X010890Y006048D02*
X010930Y006048D01*
X011180Y006048D02*
X013485Y006048D01*
X013485Y006166D02*
X011173Y006166D01*
X011292Y006285D02*
X013485Y006285D01*
X013485Y006403D02*
X011456Y006403D01*
X011574Y006522D02*
X013485Y006522D01*
X013485Y006640D02*
X011693Y006640D01*
X011811Y006759D02*
X013485Y006759D01*
X011590Y008536D02*
X011482Y008536D01*
X011472Y008418D02*
X011410Y008418D01*
X011353Y008299D02*
X011306Y008299D01*
X011235Y008181D02*
X011188Y008181D01*
X011601Y008655D02*
X011709Y008655D01*
X010588Y006996D02*
X010377Y006996D01*
X009410Y006996D02*
X008232Y006996D01*
X008117Y007110D02*
X007930Y007110D01*
X008117Y007110D01*
X008410Y006817D01*
X008410Y006630D01*
X007930Y006630D01*
X007890Y006630D01*
X007890Y007110D01*
X007703Y007110D01*
X007410Y006817D01*
X007410Y006630D01*
X007890Y006630D01*
X007890Y006590D01*
X007410Y006590D01*
X007410Y006403D01*
X003949Y006403D01*
X004026Y006480D02*
X004966Y006480D01*
X005069Y006523D01*
X005147Y006601D01*
X005422Y006876D01*
X005820Y006876D01*
X005858Y006838D01*
X006462Y006838D01*
X006556Y006932D01*
X006556Y007379D01*
X006462Y007473D01*
X005858Y007473D01*
X005820Y007436D01*
X005250Y007436D01*
X005147Y007393D01*
X004794Y007040D01*
X003854Y007040D01*
X003751Y006997D01*
X003201Y006447D01*
X003123Y006369D01*
X003080Y006266D01*
X003080Y004885D01*
X003013Y004885D01*
X002919Y004792D01*
X002919Y004065D01*
X003013Y003972D01*
X003437Y003972D01*
X003886Y003523D01*
X003989Y003480D01*
X005788Y003480D01*
X005788Y003458D01*
X005882Y003364D01*
X006329Y003364D01*
X006423Y003458D01*
X006423Y004062D01*
X006329Y004156D01*
X005882Y004156D01*
X005788Y004062D01*
X005788Y004040D01*
X004160Y004040D01*
X003833Y004368D01*
X003833Y004792D01*
X003739Y004885D01*
X003640Y004885D01*
X003640Y006094D01*
X004026Y006480D01*
X003830Y006285D02*
X007528Y006285D01*
X007410Y006403D02*
X007703Y006110D01*
X007890Y006110D01*
X007890Y006590D01*
X007930Y006590D01*
X007930Y006630D01*
X007930Y007110D01*
X007930Y007590D01*
X007930Y007630D01*
X007890Y007630D01*
X007890Y008110D01*
X007703Y008110D01*
X007410Y007817D01*
X007410Y007630D01*
X007890Y007630D01*
X007890Y007590D01*
X007410Y007590D01*
X007410Y007403D01*
X007703Y007110D01*
X007890Y007110D01*
X007890Y007590D01*
X007930Y007590D01*
X008410Y007590D01*
X008410Y007403D01*
X008117Y007110D01*
X008121Y007114D02*
X009410Y007114D01*
X009410Y007233D02*
X008240Y007233D01*
X008358Y007351D02*
X009410Y007351D01*
X009410Y007470D02*
X008410Y007470D01*
X008410Y007588D02*
X009410Y007588D01*
X009410Y007707D02*
X008410Y007707D01*
X008410Y007630D02*
X008410Y007817D01*
X008117Y008110D01*
X007930Y008110D01*
X007930Y007630D01*
X008410Y007630D01*
X008402Y007825D02*
X009410Y007825D01*
X009410Y007944D02*
X008284Y007944D01*
X008165Y008062D02*
X009410Y008062D01*
X009410Y008181D02*
X008188Y008181D01*
X008117Y008110D02*
X008410Y008403D01*
X008410Y008817D01*
X008117Y009110D01*
X007703Y009110D01*
X007410Y008817D01*
X007410Y008706D01*
X007232Y008528D01*
X007232Y008741D01*
X006933Y008741D01*
X006933Y008364D01*
X007068Y008364D01*
X006901Y008197D01*
X006680Y008197D01*
X006628Y008144D01*
X006500Y008144D01*
X006462Y008182D01*
X005858Y008182D01*
X005764Y008088D01*
X005764Y007641D01*
X005858Y007547D01*
X006462Y007547D01*
X006500Y007584D01*
X006917Y007584D01*
X007020Y007627D01*
X007022Y007629D01*
X007140Y007629D01*
X007233Y007722D01*
X007233Y007737D01*
X007654Y008158D01*
X007703Y008110D01*
X008117Y008110D01*
X007930Y008062D02*
X007890Y008062D01*
X007890Y007944D02*
X007930Y007944D01*
X007930Y007825D02*
X007890Y007825D01*
X007890Y007707D02*
X007930Y007707D01*
X007930Y007588D02*
X007890Y007588D01*
X007890Y007470D02*
X007930Y007470D01*
X007930Y007351D02*
X007890Y007351D01*
X007890Y007233D02*
X007930Y007233D01*
X007930Y007114D02*
X007890Y007114D01*
X007890Y006996D02*
X007930Y006996D01*
X007930Y006877D02*
X007890Y006877D01*
X007890Y006759D02*
X007930Y006759D01*
X007930Y006640D02*
X007890Y006640D01*
X007930Y006590D02*
X008410Y006590D01*
X008410Y006403D01*
X009410Y006403D01*
X009410Y006285D02*
X008292Y006285D01*
X008410Y006403D02*
X008117Y006110D01*
X007930Y006110D01*
X007930Y006590D01*
X007930Y006522D02*
X007890Y006522D01*
X007890Y006403D02*
X007930Y006403D01*
X007930Y006285D02*
X007890Y006285D01*
X007890Y006166D02*
X007930Y006166D01*
X008117Y006110D02*
X007703Y006110D01*
X007410Y005817D01*
X007410Y005403D01*
X007583Y005229D01*
X007541Y005187D01*
X007144Y005187D01*
X007140Y005191D01*
X006680Y005191D01*
X006676Y005187D01*
X006506Y005187D01*
X006506Y005279D01*
X006412Y005373D01*
X005808Y005373D01*
X005714Y005279D01*
X005714Y004832D01*
X005808Y004738D01*
X006031Y004738D01*
X006100Y004670D01*
X006203Y004627D01*
X006676Y004627D01*
X006680Y004623D01*
X007140Y004623D01*
X007144Y004627D01*
X007713Y004627D01*
X007816Y004670D01*
X008069Y004923D01*
X008147Y005001D01*
X008190Y005104D01*
X008190Y005183D01*
X008410Y005403D01*
X008410Y005817D01*
X008117Y006110D01*
X008173Y006166D02*
X009410Y006166D01*
X009410Y006048D02*
X008180Y006048D01*
X008298Y005929D02*
X009410Y005929D01*
X009410Y005811D02*
X008410Y005811D01*
X008410Y005692D02*
X009410Y005692D01*
X009410Y005574D02*
X008410Y005574D01*
X008410Y005455D02*
X009410Y005455D01*
X009410Y005337D02*
X008344Y005337D01*
X008225Y005218D02*
X009410Y005218D01*
X009410Y005100D02*
X008188Y005100D01*
X008127Y004981D02*
X009410Y004981D01*
X009410Y004863D02*
X008008Y004863D01*
X007890Y004744D02*
X009410Y004744D01*
X009410Y004626D02*
X007142Y004626D01*
X007010Y004152D02*
X008731Y004152D01*
X008656Y004108D02*
X008412Y003864D01*
X008239Y003566D01*
X008150Y003232D01*
X008150Y002888D01*
X008239Y002554D01*
X008412Y002256D01*
X008656Y002012D01*
X008954Y001839D01*
X009288Y001750D01*
X009410Y001750D01*
X009410Y001320D01*
X002520Y001320D01*
X002520Y022120D01*
X009410Y022120D01*
X009410Y021570D01*
X009288Y021570D01*
X008954Y021481D01*
X008752Y021364D01*
X008619Y021497D01*
X008516Y021540D01*
X007630Y021540D01*
X007630Y021602D01*
X007537Y021696D01*
X007050Y021696D01*
X006956Y021602D01*
X006956Y020918D01*
X007050Y020824D01*
X007537Y020824D01*
X007630Y020918D01*
X007630Y020980D01*
X008344Y020980D01*
X008356Y020968D01*
X008239Y020766D01*
X008150Y020432D01*
X008150Y020088D01*
X008239Y019754D01*
X008412Y019456D01*
X008656Y019212D01*
X008954Y019039D01*
X009288Y018950D01*
X009410Y018950D01*
X009410Y004370D01*
X009288Y004370D01*
X008954Y004281D01*
X008656Y004108D01*
X008580Y004033D02*
X007128Y004033D01*
X007132Y004017D02*
X007121Y004058D01*
X007100Y004094D01*
X007070Y004124D01*
X007034Y004145D01*
X006993Y004156D01*
X006833Y004156D01*
X006833Y003779D01*
X006796Y003779D01*
X006796Y004156D01*
X006636Y004156D01*
X006595Y004145D01*
X006559Y004124D01*
X006529Y004094D01*
X006508Y004058D01*
X006497Y004017D01*
X006497Y003779D01*
X006796Y003779D01*
X006796Y003741D01*
X006833Y003741D01*
X006833Y003364D01*
X006993Y003364D01*
X007034Y003375D01*
X007070Y003396D01*
X007100Y003426D01*
X007121Y003462D01*
X007132Y003503D01*
X007132Y003741D01*
X006833Y003741D01*
X006833Y003779D01*
X007132Y003779D01*
X007132Y004017D01*
X007132Y003915D02*
X008462Y003915D01*
X008372Y003796D02*
X007132Y003796D01*
X007132Y003678D02*
X008304Y003678D01*
X008237Y003559D02*
X007132Y003559D01*
X007108Y003441D02*
X008206Y003441D01*
X008174Y003322D02*
X002520Y003322D01*
X002520Y003204D02*
X005879Y003204D01*
X005882Y003206D02*
X005788Y003112D01*
X005788Y002888D01*
X005640Y002740D01*
X004817Y002740D01*
X004817Y002823D01*
X004723Y002917D01*
X003997Y002917D01*
X003903Y002823D01*
X003903Y002097D01*
X003997Y002003D01*
X004723Y002003D01*
X004817Y002097D01*
X004817Y002180D01*
X005811Y002180D01*
X005914Y002223D01*
X005993Y002301D01*
X006105Y002414D01*
X006329Y002414D01*
X006423Y002508D01*
X006423Y003112D01*
X006329Y003206D01*
X005882Y003206D01*
X005788Y003085D02*
X002520Y003085D01*
X002520Y002967D02*
X005788Y002967D01*
X005748Y002848D02*
X004792Y002848D01*
X004817Y002137D02*
X008530Y002137D01*
X008412Y002256D02*
X005947Y002256D01*
X006066Y002374D02*
X008343Y002374D01*
X008275Y002493D02*
X007110Y002493D01*
X007100Y002476D02*
X007121Y002512D01*
X007132Y002553D01*
X007132Y002791D01*
X006833Y002791D01*
X006833Y002414D01*
X006993Y002414D01*
X007034Y002425D01*
X007070Y002446D01*
X007100Y002476D01*
X007132Y002611D02*
X008224Y002611D01*
X008192Y002730D02*
X007132Y002730D01*
X007132Y002829D02*
X007132Y003067D01*
X007121Y003108D01*
X007100Y003144D01*
X007070Y003174D01*
X007034Y003195D01*
X006993Y003206D01*
X006833Y003206D01*
X006833Y002829D01*
X006796Y002829D01*
X006796Y003206D01*
X006636Y003206D01*
X006595Y003195D01*
X006559Y003174D01*
X006529Y003144D01*
X006508Y003108D01*
X006497Y003067D01*
X006497Y002829D01*
X006796Y002829D01*
X006796Y002791D01*
X006833Y002791D01*
X006833Y002829D01*
X007132Y002829D01*
X007132Y002848D02*
X008161Y002848D01*
X008150Y002967D02*
X007132Y002967D01*
X007127Y003085D02*
X008150Y003085D01*
X008150Y003204D02*
X007003Y003204D01*
X006833Y003204D02*
X006796Y003204D01*
X006796Y003085D02*
X006833Y003085D01*
X006833Y002967D02*
X006796Y002967D01*
X006796Y002848D02*
X006833Y002848D01*
X006796Y002791D02*
X006497Y002791D01*
X006497Y002553D01*
X006508Y002512D01*
X006529Y002476D01*
X006559Y002446D01*
X006595Y002425D01*
X006636Y002414D01*
X006796Y002414D01*
X006796Y002791D01*
X006796Y002730D02*
X006833Y002730D01*
X006833Y002611D02*
X006796Y002611D01*
X006796Y002493D02*
X006833Y002493D01*
X006519Y002493D02*
X006408Y002493D01*
X006423Y002611D02*
X006497Y002611D01*
X006497Y002730D02*
X006423Y002730D01*
X006423Y002848D02*
X006497Y002848D01*
X006497Y002967D02*
X006423Y002967D01*
X006423Y003085D02*
X006502Y003085D01*
X006626Y003204D02*
X006332Y003204D01*
X006406Y003441D02*
X006520Y003441D01*
X006529Y003426D02*
X006559Y003396D01*
X006595Y003375D01*
X006636Y003364D01*
X006796Y003364D01*
X006796Y003741D01*
X006497Y003741D01*
X006497Y003503D01*
X006508Y003462D01*
X006529Y003426D01*
X006497Y003559D02*
X006423Y003559D01*
X006423Y003678D02*
X006497Y003678D01*
X006497Y003796D02*
X006423Y003796D01*
X006423Y003915D02*
X006497Y003915D01*
X006501Y004033D02*
X006423Y004033D01*
X006334Y004152D02*
X006618Y004152D01*
X006796Y004152D02*
X006833Y004152D01*
X006833Y004033D02*
X006796Y004033D01*
X006796Y003915D02*
X006833Y003915D01*
X006833Y003796D02*
X006796Y003796D01*
X006796Y003678D02*
X006833Y003678D01*
X006833Y003559D02*
X006796Y003559D01*
X006796Y003441D02*
X006833Y003441D01*
X005805Y003441D02*
X002520Y003441D01*
X002520Y003559D02*
X003849Y003559D01*
X003731Y003678D02*
X002520Y003678D01*
X002520Y003796D02*
X003612Y003796D01*
X003494Y003915D02*
X002520Y003915D01*
X002520Y004033D02*
X002951Y004033D01*
X002919Y004152D02*
X002520Y004152D01*
X002520Y004270D02*
X002919Y004270D01*
X002919Y004389D02*
X002520Y004389D01*
X002520Y004507D02*
X002919Y004507D01*
X002919Y004626D02*
X002520Y004626D01*
X002520Y004744D02*
X002919Y004744D01*
X002990Y004863D02*
X002520Y004863D01*
X002520Y004981D02*
X003080Y004981D01*
X003080Y005100D02*
X002520Y005100D01*
X002520Y005218D02*
X003080Y005218D01*
X003080Y005337D02*
X002520Y005337D01*
X002520Y005455D02*
X003080Y005455D01*
X003080Y005574D02*
X002520Y005574D01*
X002520Y005692D02*
X003080Y005692D01*
X003080Y005811D02*
X002520Y005811D01*
X002520Y005929D02*
X003080Y005929D01*
X003080Y006048D02*
X002520Y006048D01*
X002520Y006166D02*
X003080Y006166D01*
X003088Y006285D02*
X002520Y006285D01*
X002520Y006403D02*
X003157Y006403D01*
X003276Y006522D02*
X002520Y006522D01*
X002520Y006640D02*
X003394Y006640D01*
X003513Y006759D02*
X002520Y006759D01*
X002520Y006877D02*
X003631Y006877D01*
X003750Y006996D02*
X002520Y006996D01*
X002520Y007114D02*
X004868Y007114D01*
X004752Y007233D02*
X004987Y007233D01*
X005105Y007351D02*
X004817Y007351D01*
X004817Y007297D02*
X004817Y007721D01*
X004997Y007901D01*
X005040Y008004D01*
X005040Y008344D01*
X005176Y008480D01*
X005888Y008480D01*
X005888Y008458D01*
X005982Y008364D01*
X006429Y008364D01*
X006523Y008458D01*
X006523Y009062D01*
X006429Y009156D01*
X005982Y009156D01*
X005888Y009062D01*
X005888Y009040D01*
X005004Y009040D01*
X004901Y008997D01*
X004640Y008736D01*
X004640Y010144D01*
X004876Y010380D01*
X005824Y010380D01*
X005858Y010347D01*
X006462Y010347D01*
X006556Y010441D01*
X006556Y010888D01*
X006462Y010982D01*
X005858Y010982D01*
X005816Y010940D01*
X004704Y010940D01*
X004601Y010897D01*
X004523Y010819D01*
X004523Y010819D01*
X004123Y010419D01*
X004080Y010316D01*
X004080Y008117D01*
X003997Y008117D01*
X003903Y008023D01*
X003903Y007297D01*
X003997Y007203D01*
X004723Y007203D01*
X004817Y007297D01*
X004817Y007470D02*
X005854Y007470D01*
X005816Y007588D02*
X004817Y007588D01*
X004817Y007707D02*
X005764Y007707D01*
X005764Y007825D02*
X004921Y007825D01*
X005015Y007944D02*
X005764Y007944D01*
X005764Y008062D02*
X005040Y008062D01*
X005040Y008181D02*
X005856Y008181D01*
X005928Y008418D02*
X005114Y008418D01*
X005040Y008299D02*
X007003Y008299D01*
X006896Y008364D02*
X006896Y008741D01*
X006933Y008741D01*
X006933Y008779D01*
X006896Y008779D01*
X006896Y009156D01*
X006736Y009156D01*
X006695Y009145D01*
X006659Y009124D01*
X006629Y009094D01*
X006608Y009058D01*
X006597Y009017D01*
X006597Y008779D01*
X006896Y008779D01*
X006896Y008741D01*
X006597Y008741D01*
X006597Y008503D01*
X006608Y008462D01*
X006629Y008426D01*
X006659Y008396D01*
X006695Y008375D01*
X006736Y008364D01*
X006896Y008364D01*
X006896Y008418D02*
X006933Y008418D01*
X006933Y008536D02*
X006896Y008536D01*
X006896Y008655D02*
X006933Y008655D01*
X006933Y008773D02*
X007410Y008773D01*
X007359Y008655D02*
X007232Y008655D01*
X007232Y008536D02*
X007240Y008536D01*
X007232Y008779D02*
X007232Y009017D01*
X007221Y009058D01*
X007200Y009094D01*
X007170Y009124D01*
X007134Y009145D01*
X007093Y009156D01*
X006933Y009156D01*
X006933Y008779D01*
X007232Y008779D01*
X007232Y008892D02*
X007484Y008892D01*
X007603Y009010D02*
X007232Y009010D01*
X007163Y009129D02*
X009410Y009129D01*
X009410Y009247D02*
X004640Y009247D01*
X004640Y009129D02*
X005954Y009129D01*
X006142Y009603D02*
X004640Y009603D01*
X004640Y009721D02*
X005775Y009721D01*
X005764Y009732D02*
X005858Y009638D01*
X006081Y009638D01*
X006100Y009620D01*
X006203Y009577D01*
X006676Y009577D01*
X006680Y009573D01*
X007140Y009573D01*
X007144Y009577D01*
X007663Y009577D01*
X007766Y009620D01*
X007806Y009660D01*
X008117Y009660D01*
X008410Y009953D01*
X008410Y010367D01*
X008117Y010660D01*
X008410Y010953D01*
X008410Y011140D01*
X007930Y011140D01*
X007930Y011180D01*
X007890Y011180D01*
X007890Y011660D01*
X007703Y011660D01*
X007410Y011367D01*
X007410Y011180D01*
X007890Y011180D01*
X007890Y011140D01*
X007410Y011140D01*
X007410Y010953D01*
X007703Y010660D01*
X007890Y010660D01*
X007890Y011140D01*
X007930Y011140D01*
X007930Y010660D01*
X008117Y010660D01*
X007703Y010660D01*
X007410Y010367D01*
X007410Y010137D01*
X007144Y010137D01*
X007140Y010141D01*
X006680Y010141D01*
X006676Y010137D01*
X006556Y010137D01*
X006556Y010179D01*
X006462Y010273D01*
X005858Y010273D01*
X005764Y010179D01*
X005764Y009732D01*
X005764Y009840D02*
X004640Y009840D01*
X004640Y009958D02*
X005764Y009958D01*
X005764Y010077D02*
X004640Y010077D01*
X004691Y010195D02*
X005779Y010195D01*
X006457Y009129D02*
X006666Y009129D01*
X006597Y009010D02*
X006523Y009010D01*
X006523Y008892D02*
X006597Y008892D01*
X006523Y008773D02*
X006896Y008773D01*
X006896Y008892D02*
X006933Y008892D01*
X006933Y009010D02*
X006896Y009010D01*
X006896Y009129D02*
X006933Y009129D01*
X006597Y008655D02*
X006523Y008655D01*
X006523Y008536D02*
X006597Y008536D01*
X006637Y008418D02*
X006483Y008418D01*
X006464Y008181D02*
X006664Y008181D01*
X006926Y007588D02*
X007410Y007588D01*
X007410Y007470D02*
X006466Y007470D01*
X006556Y007351D02*
X007462Y007351D01*
X007580Y007233D02*
X007198Y007233D01*
X007201Y007230D02*
X007172Y007259D01*
X007135Y007280D01*
X007094Y007291D01*
X006912Y007291D01*
X006912Y007009D01*
X007233Y007009D01*
X007233Y007152D01*
X007222Y007193D01*
X007201Y007230D01*
X007233Y007114D02*
X007699Y007114D01*
X007588Y006996D02*
X007233Y006996D01*
X007233Y007005D02*
X007233Y006862D01*
X007222Y006821D01*
X007201Y006785D01*
X007172Y006755D01*
X007135Y006734D01*
X007094Y006723D01*
X006912Y006723D01*
X006912Y007005D01*
X006908Y007005D01*
X006908Y006723D01*
X006726Y006723D01*
X006685Y006734D01*
X006648Y006755D01*
X006619Y006785D01*
X006598Y006821D01*
X006587Y006862D01*
X006587Y007005D01*
X006908Y007005D01*
X006908Y007009D01*
X006587Y007009D01*
X006587Y007152D01*
X006598Y007193D01*
X006619Y007230D01*
X006648Y007259D01*
X006685Y007280D01*
X006726Y007291D01*
X006908Y007291D01*
X006908Y007009D01*
X006912Y007009D01*
X006912Y007005D01*
X007233Y007005D01*
X007233Y006877D02*
X007470Y006877D01*
X007410Y006759D02*
X007175Y006759D01*
X006912Y006759D02*
X006908Y006759D01*
X006908Y006877D02*
X006912Y006877D01*
X006908Y006996D02*
X006912Y006996D01*
X006908Y007114D02*
X006912Y007114D01*
X006908Y007233D02*
X006912Y007233D01*
X006622Y007233D02*
X006556Y007233D01*
X006556Y007114D02*
X006587Y007114D01*
X006587Y006996D02*
X006556Y006996D01*
X006587Y006877D02*
X006501Y006877D01*
X006645Y006759D02*
X005304Y006759D01*
X005186Y006640D02*
X007410Y006640D01*
X007410Y006522D02*
X005066Y006522D01*
X005097Y006078D02*
X004980Y006030D01*
X004890Y005940D01*
X004842Y005823D01*
X004842Y005697D01*
X004890Y005580D01*
X004980Y005490D01*
X005097Y005442D01*
X005223Y005442D01*
X005327Y005484D01*
X005770Y005484D01*
X005808Y005447D01*
X006412Y005447D01*
X006506Y005541D01*
X006506Y005988D01*
X006412Y006082D01*
X005808Y006082D01*
X005770Y006044D01*
X005306Y006044D01*
X005223Y006078D01*
X005097Y006078D01*
X005022Y006048D02*
X003640Y006048D01*
X003640Y005929D02*
X004885Y005929D01*
X004842Y005811D02*
X003640Y005811D01*
X003640Y005692D02*
X004843Y005692D01*
X004896Y005574D02*
X003640Y005574D01*
X003640Y005455D02*
X005064Y005455D01*
X005256Y005455D02*
X005799Y005455D01*
X005771Y005337D02*
X003640Y005337D01*
X003640Y005218D02*
X005714Y005218D01*
X005714Y005100D02*
X003640Y005100D01*
X003640Y004981D02*
X005714Y004981D01*
X005714Y004863D02*
X003762Y004863D01*
X003833Y004744D02*
X005802Y004744D01*
X005877Y004152D02*
X004049Y004152D01*
X003930Y004270D02*
X008936Y004270D01*
X009410Y004389D02*
X003833Y004389D01*
X003833Y004507D02*
X009410Y004507D01*
X010548Y003796D02*
X015453Y003796D01*
X015453Y003818D02*
X015453Y003091D01*
X015547Y002998D01*
X016273Y002998D01*
X016367Y003091D01*
X016367Y003818D01*
X016273Y003911D01*
X015547Y003911D01*
X015453Y003818D01*
X015453Y003678D02*
X010616Y003678D01*
X010683Y003559D02*
X015453Y003559D01*
X015453Y003441D02*
X010714Y003441D01*
X010746Y003322D02*
X015453Y003322D01*
X015453Y003204D02*
X010770Y003204D01*
X010770Y003085D02*
X015460Y003085D01*
X016360Y003085D02*
X017242Y003085D01*
X017242Y002967D02*
X010770Y002967D01*
X010759Y002848D02*
X013499Y002848D01*
X013485Y002833D02*
X013485Y002107D01*
X013578Y002013D01*
X014305Y002013D01*
X014398Y002107D01*
X014398Y002833D01*
X014305Y002927D01*
X013578Y002927D01*
X013485Y002833D01*
X013485Y002730D02*
X010728Y002730D01*
X010696Y002611D02*
X013485Y002611D01*
X013485Y002493D02*
X010645Y002493D01*
X010577Y002374D02*
X013485Y002374D01*
X013485Y002256D02*
X010508Y002256D01*
X010390Y002137D02*
X013485Y002137D01*
X013573Y002019D02*
X010271Y002019D01*
X010071Y001900D02*
X017242Y001900D01*
X017242Y001782D02*
X009750Y001782D01*
X009660Y001663D02*
X017242Y001663D01*
X017242Y001545D02*
X009660Y001545D01*
X009660Y001426D02*
X017242Y001426D01*
X017242Y002019D02*
X014310Y002019D01*
X014398Y002137D02*
X017242Y002137D01*
X017242Y002256D02*
X014398Y002256D01*
X014398Y002374D02*
X017242Y002374D01*
X017242Y002493D02*
X014398Y002493D01*
X014398Y002611D02*
X017242Y002611D01*
X017242Y002730D02*
X014398Y002730D01*
X014384Y002848D02*
X017242Y002848D01*
X017242Y003204D02*
X016367Y003204D01*
X016367Y003322D02*
X017242Y003322D01*
X017242Y003441D02*
X016367Y003441D01*
X016367Y003559D02*
X017242Y003559D01*
X017242Y003678D02*
X016367Y003678D01*
X016367Y003796D02*
X017242Y003796D01*
X017242Y006996D02*
X016334Y006996D01*
X016367Y007114D02*
X017242Y007114D01*
X017242Y007233D02*
X016367Y007233D01*
X016367Y007351D02*
X017242Y007351D01*
X017242Y007470D02*
X016367Y007470D01*
X016367Y007588D02*
X017242Y007588D01*
X017242Y007707D02*
X016367Y007707D01*
X016296Y007825D02*
X017242Y007825D01*
X015453Y009010D02*
X015163Y009010D01*
X014581Y009840D02*
X013686Y009840D01*
X013804Y009958D02*
X014478Y009958D01*
X014442Y010077D02*
X013923Y010077D01*
X014041Y010195D02*
X014451Y010195D01*
X014513Y010314D02*
X014160Y010314D01*
X011584Y011930D02*
X011216Y011562D01*
X011117Y011660D01*
X010703Y011660D01*
X011117Y011660D01*
X011357Y011900D01*
X011512Y011900D01*
X011584Y011930D01*
X011508Y011854D02*
X011311Y011854D01*
X011390Y011736D02*
X011193Y011736D01*
X011160Y011617D02*
X011271Y011617D01*
X010660Y011617D02*
X009660Y011617D01*
X009660Y011499D02*
X010541Y011499D01*
X010627Y011736D02*
X009660Y011736D01*
X009660Y011854D02*
X010509Y011854D01*
X010410Y011973D02*
X009660Y011973D01*
X009660Y012091D02*
X010410Y012091D01*
X010410Y012210D02*
X009660Y012210D01*
X009660Y012328D02*
X010410Y012328D01*
X010489Y012447D02*
X009660Y012447D01*
X009660Y012565D02*
X010608Y012565D01*
X010703Y012660D02*
X011117Y012660D01*
X011355Y012422D01*
X011400Y012468D01*
X011400Y012943D01*
X011117Y012660D01*
X010703Y012660D01*
X010679Y012684D02*
X009660Y012684D01*
X009660Y012802D02*
X010561Y012802D01*
X010442Y012921D02*
X009660Y012921D01*
X009660Y013039D02*
X010410Y013039D01*
X010410Y013158D02*
X009660Y013158D01*
X009660Y013276D02*
X010410Y013276D01*
X010437Y013395D02*
X009660Y013395D01*
X009660Y013513D02*
X010556Y013513D01*
X010674Y013632D02*
X009660Y013632D01*
X009660Y013750D02*
X010700Y013750D01*
X010724Y013869D02*
X009660Y013869D01*
X009660Y013987D02*
X010819Y013987D01*
X010938Y014106D02*
X009660Y014106D01*
X009660Y014224D02*
X011056Y014224D01*
X010890Y014260D02*
X010890Y014740D01*
X010410Y014740D01*
X010410Y014553D01*
X010703Y014260D01*
X010890Y014260D01*
X010890Y014343D02*
X010930Y014343D01*
X010930Y014461D02*
X010890Y014461D01*
X010890Y014580D02*
X010930Y014580D01*
X010930Y014698D02*
X010890Y014698D01*
X010890Y014817D02*
X010930Y014817D01*
X010930Y014935D02*
X010890Y014935D01*
X010890Y015054D02*
X010930Y015054D01*
X010930Y015172D02*
X010890Y015172D01*
X010672Y015291D02*
X009660Y015291D01*
X009660Y015409D02*
X010554Y015409D01*
X010615Y015172D02*
X009660Y015172D01*
X009660Y015054D02*
X010496Y015054D01*
X010410Y014935D02*
X009660Y014935D01*
X009660Y014817D02*
X010410Y014817D01*
X010410Y014698D02*
X009660Y014698D01*
X009660Y014580D02*
X010410Y014580D01*
X010502Y014461D02*
X009660Y014461D01*
X009660Y014343D02*
X010620Y014343D01*
X011318Y014461D02*
X012498Y014461D01*
X012495Y014580D02*
X011410Y014580D01*
X011410Y014698D02*
X012495Y014698D01*
X012495Y014817D02*
X011410Y014817D01*
X011410Y014935D02*
X012089Y014935D01*
X011970Y015054D02*
X011324Y015054D01*
X011205Y015172D02*
X011864Y015172D01*
X011830Y015291D02*
X011148Y015291D01*
X011266Y015409D02*
X011830Y015409D01*
X010681Y016239D02*
X010284Y016239D01*
X010280Y016357D02*
X010606Y016357D01*
X010487Y016476D02*
X010280Y016476D01*
X010280Y016594D02*
X010410Y016594D01*
X010410Y016713D02*
X010280Y016713D01*
X010280Y016831D02*
X010410Y016831D01*
X010410Y016950D02*
X010280Y016950D01*
X010280Y017068D02*
X010511Y017068D01*
X010629Y017187D02*
X010280Y017187D01*
X010280Y017305D02*
X010658Y017305D01*
X010539Y017424D02*
X010280Y017424D01*
X010280Y017542D02*
X010421Y017542D01*
X010410Y017661D02*
X010280Y017661D01*
X010280Y017779D02*
X010410Y017779D01*
X010410Y017898D02*
X010350Y017898D01*
X010824Y018372D02*
X017242Y018372D01*
X017242Y018490D02*
X010943Y018490D01*
X011061Y018609D02*
X017242Y018609D01*
X017242Y018727D02*
X011180Y018727D01*
X011298Y018846D02*
X017242Y018846D01*
X017242Y018964D02*
X011417Y018964D01*
X011535Y019083D02*
X013435Y019083D01*
X013439Y019794D02*
X010691Y019794D01*
X010723Y019912D02*
X017242Y019912D01*
X017242Y019794D02*
X014344Y019794D01*
X014348Y019675D02*
X017242Y019675D01*
X017242Y019557D02*
X014348Y019557D01*
X014348Y019438D02*
X017242Y019438D01*
X017242Y019320D02*
X014348Y019320D01*
X014348Y019201D02*
X017242Y019201D01*
X017242Y019083D02*
X014348Y019083D01*
X015435Y020015D02*
X015465Y019985D01*
X015501Y019964D01*
X015542Y019953D01*
X015822Y019953D01*
X015822Y020372D01*
X015898Y020372D01*
X015898Y019953D01*
X016178Y019953D01*
X016219Y019964D01*
X016255Y019985D01*
X016285Y020015D01*
X016306Y020051D01*
X016317Y020092D01*
X016317Y020372D01*
X015898Y020372D01*
X015898Y020448D01*
X015822Y020448D01*
X015822Y020372D01*
X015403Y020372D01*
X015403Y020092D01*
X015414Y020051D01*
X015435Y020015D01*
X015426Y020031D02*
X010755Y020031D01*
X010770Y020149D02*
X015403Y020149D01*
X015403Y020268D02*
X010770Y020268D01*
X010770Y020386D02*
X015822Y020386D01*
X015822Y020448D02*
X015403Y020448D01*
X015403Y020728D01*
X015414Y020769D01*
X015435Y020805D01*
X015465Y020835D01*
X015501Y020856D01*
X015542Y020867D01*
X015822Y020867D01*
X015822Y020448D01*
X015822Y020505D02*
X015898Y020505D01*
X015898Y020448D02*
X015898Y020867D01*
X016178Y020867D01*
X016219Y020856D01*
X016255Y020835D01*
X016285Y020805D01*
X016306Y020769D01*
X016317Y020728D01*
X016317Y020448D01*
X015898Y020448D01*
X015898Y020386D02*
X017242Y020386D01*
X017242Y020268D02*
X016317Y020268D01*
X016317Y020149D02*
X017242Y020149D01*
X017242Y020031D02*
X016294Y020031D01*
X016317Y020505D02*
X017242Y020505D01*
X017242Y020623D02*
X016317Y020623D01*
X016313Y020742D02*
X017242Y020742D01*
X017242Y020860D02*
X016203Y020860D01*
X015898Y020860D02*
X015822Y020860D01*
X015822Y020742D02*
X015898Y020742D01*
X015898Y020623D02*
X015822Y020623D01*
X015822Y020268D02*
X015898Y020268D01*
X015898Y020149D02*
X015822Y020149D01*
X015822Y020031D02*
X015898Y020031D01*
X015403Y020505D02*
X010751Y020505D01*
X010719Y020623D02*
X015403Y020623D01*
X015407Y020742D02*
X010687Y020742D01*
X010626Y020860D02*
X015517Y020860D01*
X017242Y020979D02*
X010558Y020979D01*
X010476Y021097D02*
X017242Y021097D01*
X017242Y021216D02*
X010357Y021216D01*
X010220Y021334D02*
X017242Y021334D01*
X017242Y021453D02*
X010014Y021453D01*
X009660Y021571D02*
X017242Y021571D01*
X017242Y021690D02*
X009660Y021690D01*
X009660Y021808D02*
X017242Y021808D01*
X017242Y021927D02*
X009660Y021927D01*
X009660Y022045D02*
X017242Y022045D01*
X017242Y018253D02*
X011124Y018253D01*
X011243Y018135D02*
X017242Y018135D01*
X017242Y018016D02*
X011361Y018016D01*
X011410Y017898D02*
X017242Y017898D01*
X017242Y017779D02*
X011410Y017779D01*
X011410Y017661D02*
X017242Y017661D01*
X017242Y017542D02*
X011399Y017542D01*
X011281Y017424D02*
X017242Y017424D01*
X017242Y017305D02*
X011162Y017305D01*
X011191Y017187D02*
X017242Y017187D01*
X017242Y015883D02*
X016196Y015883D01*
X016193Y015888D02*
X016163Y015918D01*
X016127Y015939D01*
X016086Y015950D01*
X015670Y015950D01*
X015670Y015665D01*
X016225Y015665D01*
X016225Y015811D01*
X016214Y015852D01*
X016193Y015888D01*
X016225Y015765D02*
X017242Y015765D01*
X017242Y015646D02*
X016225Y015646D01*
X016225Y015528D02*
X017242Y015528D01*
X017242Y015409D02*
X016861Y015409D01*
X016951Y015291D02*
X017242Y015291D01*
X017242Y015172D02*
X016978Y015172D01*
X016961Y015054D02*
X017242Y015054D01*
X017242Y014935D02*
X016885Y014935D01*
X017242Y014817D02*
X016225Y014817D01*
X016225Y014698D02*
X017242Y014698D01*
X017242Y014580D02*
X016225Y014580D01*
X016222Y014461D02*
X016655Y014461D01*
X016865Y014461D02*
X017242Y014461D01*
X017242Y014343D02*
X017028Y014343D01*
X017078Y014224D02*
X017242Y014224D01*
X017242Y014106D02*
X017078Y014106D01*
X017033Y013987D02*
X017242Y013987D01*
X017242Y013869D02*
X016888Y013869D01*
X015670Y015765D02*
X015660Y015765D01*
X015660Y015883D02*
X015670Y015883D01*
X015105Y014343D02*
X014776Y014343D01*
X011400Y012921D02*
X011378Y012921D01*
X011400Y012802D02*
X011259Y012802D01*
X011141Y012684D02*
X011400Y012684D01*
X011400Y012565D02*
X011212Y012565D01*
X011331Y012447D02*
X011379Y012447D01*
X010077Y011380D02*
X009660Y011380D01*
X009660Y011262D02*
X009959Y011262D01*
X009840Y011143D02*
X009660Y011143D01*
X009660Y011025D02*
X009732Y011025D01*
X009690Y010906D02*
X009660Y010906D01*
X009660Y010788D02*
X009690Y010788D01*
X009690Y010669D02*
X009660Y010669D01*
X009660Y010551D02*
X009690Y010551D01*
X009690Y010432D02*
X009660Y010432D01*
X009660Y010314D02*
X009690Y010314D01*
X009690Y010195D02*
X009660Y010195D01*
X009660Y010077D02*
X009690Y010077D01*
X009690Y009958D02*
X009660Y009958D01*
X009660Y009840D02*
X009690Y009840D01*
X009690Y009721D02*
X009660Y009721D01*
X009660Y009603D02*
X009690Y009603D01*
X009690Y009484D02*
X009660Y009484D01*
X009660Y009366D02*
X009690Y009366D01*
X009690Y009247D02*
X009660Y009247D01*
X009660Y009129D02*
X009690Y009129D01*
X009410Y009010D02*
X008217Y009010D01*
X008336Y008892D02*
X009410Y008892D01*
X009410Y008773D02*
X008410Y008773D01*
X008410Y008655D02*
X009410Y008655D01*
X009410Y008536D02*
X008410Y008536D01*
X008410Y008418D02*
X009410Y008418D01*
X009410Y008299D02*
X008306Y008299D01*
X007655Y008062D02*
X007558Y008062D01*
X007536Y007944D02*
X007440Y007944D01*
X007418Y007825D02*
X007321Y007825D01*
X007410Y007707D02*
X007217Y007707D01*
X007647Y006166D02*
X003712Y006166D01*
X003968Y007233D02*
X002520Y007233D01*
X002520Y007351D02*
X003903Y007351D01*
X003903Y007470D02*
X002520Y007470D01*
X002520Y007588D02*
X003903Y007588D01*
X003903Y007707D02*
X002520Y007707D01*
X002520Y007825D02*
X003903Y007825D01*
X003903Y007944D02*
X002520Y007944D01*
X002520Y008062D02*
X003942Y008062D01*
X004080Y008181D02*
X002520Y008181D01*
X002520Y008299D02*
X004080Y008299D01*
X004080Y008418D02*
X002520Y008418D01*
X002520Y008536D02*
X004080Y008536D01*
X004080Y008655D02*
X002520Y008655D01*
X002520Y008773D02*
X004080Y008773D01*
X004080Y008892D02*
X002520Y008892D01*
X002520Y009010D02*
X004080Y009010D01*
X004080Y009129D02*
X002520Y009129D01*
X002520Y009247D02*
X002937Y009247D01*
X002919Y009265D02*
X003013Y009172D01*
X003739Y009172D01*
X003833Y009265D01*
X003833Y009992D01*
X003790Y010034D01*
X003790Y010644D01*
X004476Y011330D01*
X005788Y011330D01*
X005788Y011308D01*
X005882Y011214D01*
X006329Y011214D01*
X006423Y011308D01*
X006423Y011912D01*
X006386Y011950D01*
X006386Y011988D01*
X006412Y011988D01*
X006506Y012082D01*
X006506Y012529D01*
X006412Y012623D01*
X005808Y012623D01*
X005714Y012529D01*
X005714Y012082D01*
X005808Y011988D01*
X005826Y011988D01*
X005826Y011950D01*
X005788Y011912D01*
X005788Y011890D01*
X004304Y011890D01*
X004201Y011847D01*
X003351Y010997D01*
X003273Y010919D01*
X003230Y010816D01*
X003230Y010085D01*
X003013Y010085D01*
X002919Y009992D01*
X002919Y009265D01*
X002919Y009366D02*
X002520Y009366D01*
X002520Y009484D02*
X002919Y009484D01*
X002919Y009603D02*
X002520Y009603D01*
X002520Y009721D02*
X002919Y009721D01*
X002919Y009840D02*
X002520Y009840D01*
X002520Y009958D02*
X002919Y009958D01*
X003004Y010077D02*
X002520Y010077D01*
X002520Y010195D02*
X003230Y010195D01*
X003230Y010314D02*
X002520Y010314D01*
X002520Y010432D02*
X003230Y010432D01*
X003230Y010551D02*
X002520Y010551D01*
X002520Y010669D02*
X003230Y010669D01*
X003230Y010788D02*
X002520Y010788D01*
X002520Y010906D02*
X003267Y010906D01*
X003379Y011025D02*
X002520Y011025D01*
X002520Y011143D02*
X003497Y011143D01*
X003616Y011262D02*
X002520Y011262D01*
X002520Y011380D02*
X003734Y011380D01*
X003853Y011499D02*
X002520Y011499D01*
X002520Y011617D02*
X003971Y011617D01*
X004090Y011736D02*
X002520Y011736D01*
X002520Y011854D02*
X004217Y011854D01*
X004408Y011262D02*
X005834Y011262D01*
X006377Y011262D02*
X006543Y011262D01*
X006529Y011276D02*
X006559Y011246D01*
X006595Y011225D01*
X006636Y011214D01*
X006796Y011214D01*
X006796Y011591D01*
X006833Y011591D01*
X006833Y011214D01*
X006993Y011214D01*
X007034Y011225D01*
X007070Y011246D01*
X007100Y011276D01*
X007121Y011312D01*
X007132Y011353D01*
X007132Y011591D01*
X006833Y011591D01*
X006833Y011629D01*
X007132Y011629D01*
X007132Y011867D01*
X007121Y011908D01*
X007110Y011927D01*
X007135Y011934D01*
X007172Y011955D01*
X007201Y011985D01*
X007222Y012021D01*
X007233Y012062D01*
X007233Y012205D01*
X006912Y012205D01*
X006912Y012209D01*
X007233Y012209D01*
X007233Y012352D01*
X007222Y012393D01*
X007201Y012430D01*
X007172Y012459D01*
X007135Y012480D01*
X007094Y012491D01*
X006912Y012491D01*
X006912Y012209D01*
X006908Y012209D01*
X006908Y012205D01*
X006587Y012205D01*
X006587Y012062D01*
X006598Y012021D01*
X006610Y011999D01*
X006595Y011995D01*
X006559Y011974D01*
X006529Y011944D01*
X006508Y011908D01*
X006497Y011867D01*
X006497Y011629D01*
X006796Y011629D01*
X006796Y011591D01*
X006497Y011591D01*
X006497Y011353D01*
X006508Y011312D01*
X006529Y011276D01*
X006497Y011380D02*
X006423Y011380D01*
X006423Y011499D02*
X006497Y011499D01*
X006423Y011617D02*
X006796Y011617D01*
X006833Y011617D02*
X007660Y011617D01*
X007703Y011660D02*
X007410Y011953D01*
X007410Y012140D01*
X007890Y012140D01*
X007890Y012180D01*
X007890Y012660D01*
X007703Y012660D01*
X007410Y012367D01*
X007410Y012180D01*
X007890Y012180D01*
X007930Y012180D01*
X007930Y012660D01*
X008117Y012660D01*
X008410Y012367D01*
X008410Y012180D01*
X007930Y012180D01*
X007930Y012140D01*
X008410Y012140D01*
X008410Y011953D01*
X008117Y011660D01*
X007930Y011660D01*
X008117Y011660D01*
X008410Y011367D01*
X008410Y011180D01*
X007930Y011180D01*
X007930Y011660D01*
X007930Y012140D01*
X007890Y012140D01*
X007890Y011660D01*
X007703Y011660D01*
X007627Y011736D02*
X007132Y011736D01*
X007132Y011854D02*
X007509Y011854D01*
X007410Y011973D02*
X007189Y011973D01*
X007233Y012091D02*
X007410Y012091D01*
X007410Y012210D02*
X007233Y012210D01*
X007233Y012328D02*
X007410Y012328D01*
X007489Y012447D02*
X007184Y012447D01*
X006912Y012447D02*
X006908Y012447D01*
X006908Y012491D02*
X006726Y012491D01*
X006685Y012480D01*
X006648Y012459D01*
X006619Y012430D01*
X006598Y012393D01*
X006587Y012352D01*
X006587Y012209D01*
X006908Y012209D01*
X006908Y012491D01*
X006908Y012328D02*
X006912Y012328D01*
X006908Y012210D02*
X006912Y012210D01*
X006587Y012210D02*
X006506Y012210D01*
X006506Y012328D02*
X006587Y012328D01*
X006636Y012447D02*
X006506Y012447D01*
X006471Y012565D02*
X007608Y012565D01*
X007703Y012660D02*
X008117Y012660D01*
X008410Y012953D01*
X008410Y013367D01*
X008117Y013660D01*
X007703Y013660D01*
X007433Y013390D01*
X007146Y013390D01*
X007140Y013397D01*
X006680Y013397D01*
X006676Y013393D01*
X006153Y013393D01*
X006050Y013350D01*
X006031Y013332D01*
X005808Y013332D01*
X005714Y013238D01*
X005714Y012791D01*
X005808Y012697D01*
X006412Y012697D01*
X006506Y012791D01*
X006506Y012833D01*
X006676Y012833D01*
X006680Y012829D01*
X007140Y012829D01*
X007141Y012830D01*
X007533Y012830D01*
X007703Y012660D01*
X007679Y012684D02*
X002520Y012684D01*
X002520Y012802D02*
X005714Y012802D01*
X005714Y012921D02*
X002520Y012921D01*
X002520Y013039D02*
X005714Y013039D01*
X005714Y013158D02*
X002520Y013158D01*
X002520Y013276D02*
X005752Y013276D01*
X005682Y013464D02*
X005588Y013558D01*
X005588Y013580D01*
X005301Y013580D01*
X005301Y013378D01*
X005207Y013285D01*
X004481Y013285D01*
X004387Y013378D01*
X004387Y014105D01*
X004481Y014198D01*
X005207Y014198D01*
X005266Y014140D01*
X005588Y014140D01*
X005588Y014162D01*
X005682Y014256D01*
X006129Y014256D01*
X006223Y014162D01*
X006223Y013558D01*
X006129Y013464D01*
X005682Y013464D01*
X005633Y013513D02*
X005301Y013513D01*
X005301Y013395D02*
X006678Y013395D01*
X006633Y013464D02*
X006793Y013464D01*
X006834Y013475D01*
X006870Y013496D01*
X006900Y013526D01*
X006921Y013562D01*
X006932Y013603D01*
X006932Y013841D01*
X006633Y013841D01*
X006633Y013464D01*
X006596Y013464D02*
X006596Y013841D01*
X006633Y013841D01*
X006633Y013879D01*
X006596Y013879D01*
X006596Y014256D01*
X006436Y014256D01*
X006395Y014245D01*
X006359Y014224D01*
X006329Y014194D01*
X006308Y014158D01*
X006297Y014117D01*
X006297Y013879D01*
X006596Y013879D01*
X006596Y013841D01*
X006297Y013841D01*
X006297Y013603D01*
X006308Y013562D01*
X006329Y013526D01*
X006359Y013496D01*
X006395Y013475D01*
X006436Y013464D01*
X006596Y013464D01*
X006596Y013513D02*
X006633Y013513D01*
X006633Y013632D02*
X006596Y013632D01*
X006596Y013750D02*
X006633Y013750D01*
X006633Y013869D02*
X009410Y013869D01*
X009410Y013987D02*
X006932Y013987D01*
X006932Y013879D02*
X006932Y014117D01*
X006921Y014158D01*
X006900Y014194D01*
X006870Y014224D01*
X006834Y014245D01*
X006793Y014256D01*
X006633Y014256D01*
X006633Y013879D01*
X006932Y013879D01*
X006932Y013750D02*
X009410Y013750D01*
X009410Y013632D02*
X008146Y013632D01*
X008264Y013513D02*
X009410Y013513D01*
X009410Y013395D02*
X008383Y013395D01*
X008410Y013276D02*
X009410Y013276D01*
X009410Y013158D02*
X008410Y013158D01*
X008410Y013039D02*
X009410Y013039D01*
X009410Y012921D02*
X008378Y012921D01*
X008259Y012802D02*
X009410Y012802D01*
X009410Y012684D02*
X008141Y012684D01*
X008212Y012565D02*
X009410Y012565D01*
X009410Y012447D02*
X008331Y012447D01*
X008410Y012328D02*
X009410Y012328D01*
X009410Y012210D02*
X008410Y012210D01*
X008410Y012091D02*
X009410Y012091D01*
X009410Y011973D02*
X008410Y011973D01*
X008311Y011854D02*
X009410Y011854D01*
X009410Y011736D02*
X008193Y011736D01*
X008160Y011617D02*
X009410Y011617D01*
X009410Y011499D02*
X008279Y011499D01*
X008397Y011380D02*
X009410Y011380D01*
X009410Y011262D02*
X008410Y011262D01*
X008410Y011025D02*
X009410Y011025D01*
X009410Y011143D02*
X007930Y011143D01*
X007890Y011143D02*
X004289Y011143D01*
X004171Y011025D02*
X006665Y011025D01*
X006648Y011015D02*
X006619Y010985D01*
X006598Y010949D01*
X006587Y010908D01*
X006587Y010765D01*
X006908Y010765D01*
X006908Y011047D01*
X006726Y011047D01*
X006685Y011036D01*
X006648Y011015D01*
X006587Y010906D02*
X006538Y010906D01*
X006556Y010788D02*
X006587Y010788D01*
X006587Y010761D02*
X006587Y010618D01*
X006598Y010577D01*
X006619Y010540D01*
X006648Y010511D01*
X006685Y010490D01*
X006726Y010479D01*
X006908Y010479D01*
X006908Y010761D01*
X006587Y010761D01*
X006587Y010669D02*
X006556Y010669D01*
X006556Y010551D02*
X006613Y010551D01*
X006548Y010432D02*
X007475Y010432D01*
X007410Y010314D02*
X004810Y010314D01*
X004373Y010669D02*
X003815Y010669D01*
X003790Y010551D02*
X004255Y010551D01*
X004136Y010432D02*
X003790Y010432D01*
X003790Y010314D02*
X004080Y010314D01*
X004080Y010195D02*
X003790Y010195D01*
X003790Y010077D02*
X004080Y010077D01*
X004080Y009958D02*
X003833Y009958D01*
X003833Y009840D02*
X004080Y009840D01*
X004080Y009721D02*
X003833Y009721D01*
X003833Y009603D02*
X004080Y009603D01*
X004080Y009484D02*
X003833Y009484D01*
X003833Y009366D02*
X004080Y009366D01*
X004080Y009247D02*
X003814Y009247D01*
X004640Y009366D02*
X009410Y009366D01*
X009410Y009484D02*
X004640Y009484D01*
X004640Y009010D02*
X004932Y009010D01*
X004796Y008892D02*
X004640Y008892D01*
X004640Y008773D02*
X004677Y008773D01*
X004492Y010788D02*
X003934Y010788D01*
X004052Y010906D02*
X004622Y010906D01*
X005714Y012091D02*
X002520Y012091D01*
X002520Y011973D02*
X005826Y011973D01*
X005714Y012210D02*
X002520Y012210D01*
X002520Y012328D02*
X005714Y012328D01*
X005714Y012447D02*
X002520Y012447D01*
X002520Y012565D02*
X005749Y012565D01*
X006386Y011973D02*
X006557Y011973D01*
X006587Y012091D02*
X006506Y012091D01*
X006497Y011854D02*
X006423Y011854D01*
X006423Y011736D02*
X006497Y011736D01*
X006796Y011499D02*
X006833Y011499D01*
X006833Y011380D02*
X006796Y011380D01*
X006796Y011262D02*
X006833Y011262D01*
X006912Y011047D02*
X006912Y010765D01*
X006908Y010765D01*
X006908Y010761D01*
X006912Y010761D01*
X006912Y010765D01*
X007233Y010765D01*
X007233Y010908D01*
X007222Y010949D01*
X007201Y010985D01*
X007172Y011015D01*
X007135Y011036D01*
X007094Y011047D01*
X006912Y011047D01*
X006908Y011025D02*
X006912Y011025D01*
X006908Y010906D02*
X006912Y010906D01*
X006908Y010788D02*
X006912Y010788D01*
X006912Y010761D02*
X007233Y010761D01*
X007233Y010618D01*
X007222Y010577D01*
X007201Y010540D01*
X007172Y010511D01*
X007135Y010490D01*
X007094Y010479D01*
X006912Y010479D01*
X006912Y010761D01*
X006908Y010669D02*
X006912Y010669D01*
X006908Y010551D02*
X006912Y010551D01*
X007207Y010551D02*
X007593Y010551D01*
X007694Y010669D02*
X007233Y010669D01*
X007233Y010788D02*
X007575Y010788D01*
X007457Y010906D02*
X007233Y010906D01*
X007155Y011025D02*
X007410Y011025D01*
X007410Y011262D02*
X007086Y011262D01*
X007132Y011380D02*
X007423Y011380D01*
X007541Y011499D02*
X007132Y011499D01*
X007890Y011499D02*
X007930Y011499D01*
X007930Y011617D02*
X007890Y011617D01*
X007890Y011736D02*
X007930Y011736D01*
X007930Y011854D02*
X007890Y011854D01*
X007890Y011973D02*
X007930Y011973D01*
X007930Y012091D02*
X007890Y012091D01*
X007890Y012210D02*
X007930Y012210D01*
X007930Y012328D02*
X007890Y012328D01*
X007890Y012447D02*
X007930Y012447D01*
X007930Y012565D02*
X007890Y012565D01*
X007561Y012802D02*
X006506Y012802D01*
X006341Y013513D02*
X006179Y013513D01*
X006223Y013632D02*
X006297Y013632D01*
X006297Y013750D02*
X006223Y013750D01*
X006223Y013869D02*
X006596Y013869D01*
X006596Y013987D02*
X006633Y013987D01*
X006633Y014106D02*
X006596Y014106D01*
X006596Y014224D02*
X006633Y014224D01*
X006358Y014224D02*
X006162Y014224D01*
X006223Y014106D02*
X006297Y014106D01*
X006297Y013987D02*
X006223Y013987D01*
X006157Y014527D02*
X006051Y014588D01*
X005858Y014588D01*
X005764Y014682D01*
X005764Y015129D01*
X005858Y015223D01*
X006462Y015223D01*
X006556Y015129D01*
X006556Y015087D01*
X006676Y015087D01*
X006680Y015091D01*
X007140Y015091D01*
X007144Y015087D01*
X007530Y015087D01*
X007703Y015260D01*
X007410Y015553D01*
X007410Y015740D01*
X007890Y015740D01*
X007890Y015780D01*
X007890Y016260D01*
X007703Y016260D01*
X007410Y015967D01*
X007410Y015780D01*
X007890Y015780D01*
X007930Y015780D01*
X007930Y016260D01*
X008117Y016260D01*
X007930Y016260D01*
X007930Y016740D01*
X007930Y016780D01*
X007890Y016780D01*
X007890Y017260D01*
X007703Y017260D01*
X008117Y017260D01*
X008410Y017553D01*
X008410Y017967D01*
X008117Y018260D01*
X007703Y018260D01*
X007436Y017993D01*
X007144Y017993D01*
X007140Y017997D01*
X006680Y017997D01*
X006676Y017993D01*
X006103Y017993D01*
X006000Y017950D01*
X005982Y017932D01*
X005758Y017932D01*
X005664Y017838D01*
X005664Y017391D01*
X005758Y017297D01*
X006362Y017297D01*
X006456Y017391D01*
X006456Y017433D01*
X006676Y017433D01*
X006680Y017429D01*
X007140Y017429D01*
X007144Y017433D01*
X007530Y017433D01*
X007703Y017260D01*
X007410Y016967D01*
X007410Y016780D01*
X007890Y016780D01*
X007890Y016740D01*
X007410Y016740D01*
X007410Y016553D01*
X007703Y016260D01*
X007890Y016260D01*
X007890Y016740D01*
X007930Y016740D01*
X008410Y016740D01*
X008410Y016553D01*
X008117Y016260D01*
X008410Y015967D01*
X008410Y015780D01*
X007930Y015780D01*
X007930Y015740D01*
X008410Y015740D01*
X008410Y015553D01*
X008117Y015260D01*
X007930Y015260D01*
X007930Y015740D01*
X007890Y015740D01*
X007890Y015260D01*
X007703Y015260D01*
X008117Y015260D01*
X008410Y014967D01*
X008410Y014553D01*
X008117Y014260D01*
X007703Y014260D01*
X007436Y014527D01*
X007144Y014527D01*
X007140Y014523D01*
X006680Y014523D01*
X006676Y014527D01*
X006157Y014527D01*
X006066Y014580D02*
X002520Y014580D01*
X002520Y014698D02*
X005764Y014698D01*
X005764Y014817D02*
X002520Y014817D01*
X002520Y014935D02*
X005764Y014935D01*
X005764Y015054D02*
X002520Y015054D01*
X002520Y015172D02*
X005806Y015172D01*
X005858Y015297D02*
X006462Y015297D01*
X006556Y015391D01*
X006556Y015838D01*
X006462Y015932D01*
X005858Y015932D01*
X005820Y015894D01*
X004317Y015894D01*
X004317Y016073D01*
X004223Y016167D01*
X004140Y016167D01*
X004140Y016844D01*
X005426Y018130D01*
X005688Y018130D01*
X005688Y018108D01*
X005782Y018014D01*
X006229Y018014D01*
X006323Y018108D01*
X006323Y018712D01*
X006229Y018806D01*
X005782Y018806D01*
X005688Y018712D01*
X005688Y018690D01*
X005254Y018690D01*
X005168Y018654D01*
X005189Y018667D01*
X005219Y018696D01*
X005240Y018733D01*
X005251Y018774D01*
X005251Y019053D01*
X004833Y019053D01*
X004833Y019130D01*
X005251Y019130D01*
X005251Y019409D01*
X005240Y019450D01*
X005219Y019487D01*
X005189Y019516D01*
X005153Y019537D01*
X005112Y019548D01*
X004833Y019548D01*
X004833Y019130D01*
X004756Y019130D01*
X004756Y019548D01*
X004476Y019548D01*
X004436Y019537D01*
X004399Y019516D01*
X004369Y019487D01*
X004348Y019450D01*
X004337Y019409D01*
X004337Y019130D01*
X004756Y019130D01*
X004756Y019053D01*
X004833Y019053D01*
X004833Y018635D01*
X005112Y018635D01*
X005148Y018644D01*
X005073Y018569D01*
X003623Y017119D01*
X003580Y017016D01*
X003580Y016167D01*
X003497Y016167D01*
X003403Y016073D01*
X003403Y015347D01*
X003497Y015253D01*
X004223Y015253D01*
X004304Y015334D01*
X005820Y015334D01*
X005858Y015297D01*
X006514Y015172D02*
X007615Y015172D01*
X007672Y015291D02*
X004261Y015291D01*
X004317Y016002D02*
X007444Y016002D01*
X007410Y015883D02*
X007227Y015883D01*
X007222Y015899D02*
X007201Y015935D01*
X007172Y015965D01*
X007135Y015986D01*
X007094Y015997D01*
X006912Y015997D01*
X006912Y015715D01*
X006908Y015715D01*
X006908Y015997D01*
X006726Y015997D01*
X006685Y015986D01*
X006648Y015965D01*
X006619Y015935D01*
X006598Y015899D01*
X006587Y015858D01*
X006587Y015715D01*
X006908Y015715D01*
X006908Y015711D01*
X006587Y015711D01*
X006587Y015568D01*
X006598Y015527D01*
X006619Y015490D01*
X006648Y015461D01*
X006685Y015440D01*
X006726Y015429D01*
X006908Y015429D01*
X006908Y015711D01*
X006912Y015711D01*
X006912Y015715D01*
X007233Y015715D01*
X007233Y015858D01*
X007222Y015899D01*
X007233Y015765D02*
X007890Y015765D01*
X007930Y015765D02*
X009410Y015765D01*
X009410Y015883D02*
X008410Y015883D01*
X008376Y016002D02*
X009410Y016002D01*
X009410Y016120D02*
X008257Y016120D01*
X008139Y016239D02*
X009410Y016239D01*
X009410Y016357D02*
X008214Y016357D01*
X008333Y016476D02*
X009410Y016476D01*
X009410Y016594D02*
X008410Y016594D01*
X008410Y016713D02*
X009410Y016713D01*
X009410Y016831D02*
X008410Y016831D01*
X008410Y016780D02*
X008410Y016967D01*
X008117Y017260D01*
X007930Y017260D01*
X007930Y016780D01*
X008410Y016780D01*
X008410Y016950D02*
X009410Y016950D01*
X009410Y017068D02*
X008309Y017068D01*
X008191Y017187D02*
X009410Y017187D01*
X009410Y017305D02*
X008162Y017305D01*
X008281Y017424D02*
X009410Y017424D01*
X009410Y017542D02*
X008399Y017542D01*
X008410Y017661D02*
X009410Y017661D01*
X009410Y017779D02*
X008410Y017779D01*
X008410Y017898D02*
X009410Y017898D01*
X009410Y018016D02*
X008361Y018016D01*
X008243Y018135D02*
X009410Y018135D01*
X009410Y018253D02*
X008124Y018253D01*
X007696Y018253D02*
X007032Y018253D01*
X007032Y018153D02*
X007032Y018391D01*
X006733Y018391D01*
X006733Y018014D01*
X006893Y018014D01*
X006934Y018025D01*
X006970Y018046D01*
X007000Y018076D01*
X007021Y018112D01*
X007032Y018153D01*
X007027Y018135D02*
X007577Y018135D01*
X007459Y018016D02*
X006901Y018016D01*
X006733Y018016D02*
X006696Y018016D01*
X006696Y018014D02*
X006696Y018391D01*
X006733Y018391D01*
X006733Y018429D01*
X006696Y018429D01*
X006696Y018806D01*
X006536Y018806D01*
X006495Y018795D01*
X006459Y018774D01*
X006429Y018744D01*
X006408Y018708D01*
X006397Y018667D01*
X006397Y018429D01*
X006696Y018429D01*
X006696Y018391D01*
X006397Y018391D01*
X006397Y018153D01*
X006408Y018112D01*
X006429Y018076D01*
X006459Y018046D01*
X006495Y018025D01*
X006536Y018014D01*
X006696Y018014D01*
X006696Y018135D02*
X006733Y018135D01*
X006733Y018253D02*
X006696Y018253D01*
X006696Y018372D02*
X006733Y018372D01*
X006733Y018429D02*
X007032Y018429D01*
X007032Y018667D01*
X007021Y018708D01*
X007000Y018744D01*
X006970Y018774D01*
X006934Y018795D01*
X006893Y018806D01*
X006733Y018806D01*
X006733Y018429D01*
X006733Y018490D02*
X006696Y018490D01*
X006696Y018609D02*
X006733Y018609D01*
X006733Y018727D02*
X006696Y018727D01*
X007010Y018727D02*
X009410Y018727D01*
X009410Y018609D02*
X007032Y018609D01*
X007032Y018490D02*
X009410Y018490D01*
X009410Y018372D02*
X007032Y018372D01*
X006527Y018016D02*
X006232Y018016D01*
X006323Y018135D02*
X006402Y018135D01*
X006397Y018253D02*
X006323Y018253D01*
X006323Y018372D02*
X006397Y018372D01*
X006397Y018490D02*
X006323Y018490D01*
X006323Y018609D02*
X006397Y018609D01*
X006419Y018727D02*
X006309Y018727D01*
X005703Y018727D02*
X005237Y018727D01*
X005251Y018846D02*
X009410Y018846D01*
X009235Y018964D02*
X005251Y018964D01*
X005251Y019201D02*
X008674Y019201D01*
X008548Y019320D02*
X005251Y019320D01*
X005243Y019438D02*
X008429Y019438D01*
X008353Y019557D02*
X002520Y019557D01*
X002520Y019675D02*
X008285Y019675D01*
X008229Y019794D02*
X002520Y019794D01*
X002520Y019912D02*
X008197Y019912D01*
X008165Y020031D02*
X002520Y020031D01*
X002520Y020149D02*
X008150Y020149D01*
X008150Y020268D02*
X002520Y020268D01*
X002520Y020386D02*
X008150Y020386D01*
X008169Y020505D02*
X002520Y020505D01*
X002520Y020623D02*
X003436Y020623D01*
X003451Y020614D02*
X003492Y020603D01*
X003772Y020603D01*
X003772Y021022D01*
X003848Y021022D01*
X003848Y021098D01*
X004267Y021098D01*
X004267Y021378D01*
X004256Y021419D01*
X004235Y021455D01*
X004205Y021485D01*
X004169Y021506D01*
X004128Y021517D01*
X003848Y021517D01*
X003848Y021098D01*
X003772Y021098D01*
X003772Y021022D01*
X003353Y021022D01*
X003353Y020742D01*
X003364Y020701D01*
X003385Y020665D01*
X003415Y020635D01*
X003451Y020614D01*
X003353Y020742D02*
X002520Y020742D01*
X002520Y020860D02*
X003353Y020860D01*
X003353Y020979D02*
X002520Y020979D01*
X002520Y021097D02*
X003772Y021097D01*
X003772Y021098D02*
X003353Y021098D01*
X003353Y021378D01*
X003364Y021419D01*
X003385Y021455D01*
X003415Y021485D01*
X003451Y021506D01*
X003492Y021517D01*
X003772Y021517D01*
X003772Y021098D01*
X003848Y021097D02*
X006090Y021097D01*
X006090Y020979D02*
X004267Y020979D01*
X004267Y021022D02*
X004267Y020742D01*
X004256Y020701D01*
X004235Y020665D01*
X004205Y020635D01*
X004169Y020614D01*
X004128Y020603D01*
X003848Y020603D01*
X003848Y021022D01*
X004267Y021022D01*
X004267Y020860D02*
X006148Y020860D01*
X006152Y020856D02*
X006188Y020835D01*
X006229Y020824D01*
X006398Y020824D01*
X006398Y021231D01*
X006090Y021231D01*
X006090Y020963D01*
X006101Y020923D01*
X006122Y020886D01*
X006152Y020856D01*
X006398Y020860D02*
X006456Y020860D01*
X006456Y020824D02*
X006625Y020824D01*
X006666Y020835D01*
X006702Y020856D01*
X006732Y020886D01*
X006753Y020923D01*
X006764Y020963D01*
X006764Y021231D01*
X006456Y021231D01*
X006456Y021289D01*
X006764Y021289D01*
X006764Y021557D01*
X006753Y021597D01*
X006732Y021634D01*
X006702Y021664D01*
X006666Y021685D01*
X006625Y021696D01*
X006456Y021696D01*
X006456Y021289D01*
X006398Y021289D01*
X006398Y021696D01*
X006229Y021696D01*
X006188Y021685D01*
X006152Y021664D01*
X006122Y021634D01*
X006101Y021597D01*
X006090Y021557D01*
X006090Y021289D01*
X006398Y021289D01*
X006398Y021231D01*
X006456Y021231D01*
X006456Y020824D01*
X006456Y020979D02*
X006398Y020979D01*
X006398Y021097D02*
X006456Y021097D01*
X006456Y021216D02*
X006398Y021216D01*
X006398Y021334D02*
X006456Y021334D01*
X006456Y021453D02*
X006398Y021453D01*
X006398Y021571D02*
X006456Y021571D01*
X006456Y021690D02*
X006398Y021690D01*
X006206Y021690D02*
X002520Y021690D01*
X002520Y021808D02*
X009410Y021808D01*
X009410Y021690D02*
X007543Y021690D01*
X007630Y021571D02*
X009410Y021571D01*
X009410Y021927D02*
X002520Y021927D01*
X002520Y022045D02*
X009410Y022045D01*
X008906Y021453D02*
X008663Y021453D01*
X008345Y020979D02*
X007630Y020979D01*
X007572Y020860D02*
X008294Y020860D01*
X008233Y020742D02*
X004267Y020742D01*
X004184Y020623D02*
X008201Y020623D01*
X007014Y020860D02*
X006706Y020860D01*
X006764Y020979D02*
X006956Y020979D01*
X006956Y021097D02*
X006764Y021097D01*
X006764Y021216D02*
X006956Y021216D01*
X006956Y021334D02*
X006764Y021334D01*
X006764Y021453D02*
X006956Y021453D01*
X006956Y021571D02*
X006760Y021571D01*
X006648Y021690D02*
X007044Y021690D01*
X006094Y021571D02*
X002520Y021571D01*
X002520Y021453D02*
X003384Y021453D01*
X003353Y021334D02*
X002520Y021334D01*
X002520Y021216D02*
X003353Y021216D01*
X003772Y021216D02*
X003848Y021216D01*
X003848Y021334D02*
X003772Y021334D01*
X003772Y021453D02*
X003848Y021453D01*
X004236Y021453D02*
X006090Y021453D01*
X006090Y021334D02*
X004267Y021334D01*
X004267Y021216D02*
X006090Y021216D01*
X004833Y019438D02*
X004756Y019438D01*
X004756Y019320D02*
X004833Y019320D01*
X004833Y019201D02*
X004756Y019201D01*
X004756Y019083D02*
X002520Y019083D01*
X002520Y019201D02*
X004337Y019201D01*
X004337Y019320D02*
X002520Y019320D01*
X002520Y019438D02*
X004345Y019438D01*
X004337Y019053D02*
X004337Y018774D01*
X004348Y018733D01*
X004369Y018696D01*
X004399Y018667D01*
X004436Y018646D01*
X004476Y018635D01*
X004756Y018635D01*
X004756Y019053D01*
X004337Y019053D01*
X004337Y018964D02*
X002520Y018964D01*
X002520Y018846D02*
X004337Y018846D01*
X004352Y018727D02*
X002520Y018727D01*
X002520Y018609D02*
X005113Y018609D01*
X004994Y018490D02*
X002520Y018490D01*
X002520Y018372D02*
X004876Y018372D01*
X004757Y018253D02*
X002520Y018253D01*
X002520Y018135D02*
X004639Y018135D01*
X004520Y018016D02*
X002520Y018016D01*
X002520Y017898D02*
X004402Y017898D01*
X004283Y017779D02*
X002520Y017779D01*
X002520Y017661D02*
X004165Y017661D01*
X004046Y017542D02*
X002520Y017542D01*
X002520Y017424D02*
X003928Y017424D01*
X003809Y017305D02*
X002520Y017305D01*
X002520Y017187D02*
X003691Y017187D01*
X003602Y017068D02*
X002520Y017068D01*
X002520Y016950D02*
X003580Y016950D01*
X003580Y016831D02*
X002520Y016831D01*
X002520Y016713D02*
X003580Y016713D01*
X003580Y016594D02*
X002520Y016594D01*
X002520Y016476D02*
X003580Y016476D01*
X003580Y016357D02*
X002520Y016357D01*
X002520Y016239D02*
X003580Y016239D01*
X003450Y016120D02*
X002520Y016120D01*
X002520Y016002D02*
X003403Y016002D01*
X003403Y015883D02*
X002520Y015883D01*
X002520Y015765D02*
X003403Y015765D01*
X003403Y015646D02*
X002520Y015646D01*
X002520Y015528D02*
X003403Y015528D01*
X003403Y015409D02*
X002520Y015409D01*
X002520Y015291D02*
X003459Y015291D01*
X004270Y016120D02*
X007563Y016120D01*
X007681Y016239D02*
X004140Y016239D01*
X004140Y016357D02*
X007606Y016357D01*
X007487Y016476D02*
X004140Y016476D01*
X004140Y016594D02*
X004891Y016594D01*
X004897Y016592D02*
X005023Y016592D01*
X005116Y016630D01*
X005716Y016630D01*
X005758Y016588D01*
X006362Y016588D01*
X006456Y016682D01*
X006456Y017129D01*
X006362Y017223D01*
X005758Y017223D01*
X005724Y017190D01*
X005116Y017190D01*
X005023Y017228D01*
X004897Y017228D01*
X004780Y017180D01*
X004690Y017090D01*
X004642Y016973D01*
X004642Y016847D01*
X004690Y016730D01*
X004780Y016640D01*
X004897Y016592D01*
X005029Y016594D02*
X005752Y016594D01*
X005749Y017305D02*
X004601Y017305D01*
X004483Y017187D02*
X004796Y017187D01*
X004681Y017068D02*
X004364Y017068D01*
X004246Y016950D02*
X004642Y016950D01*
X004648Y016831D02*
X004140Y016831D01*
X004140Y016713D02*
X004707Y016713D01*
X004720Y017424D02*
X005664Y017424D01*
X005664Y017542D02*
X004838Y017542D01*
X004957Y017661D02*
X005664Y017661D01*
X005664Y017779D02*
X005075Y017779D01*
X005194Y017898D02*
X005723Y017898D01*
X005780Y018016D02*
X005312Y018016D01*
X004833Y018727D02*
X004756Y018727D01*
X004756Y018846D02*
X004833Y018846D01*
X004833Y018964D02*
X004756Y018964D01*
X004833Y019083D02*
X008879Y019083D01*
X009685Y018964D02*
X010511Y018964D01*
X010393Y018846D02*
X009660Y018846D01*
X009660Y018727D02*
X010274Y018727D01*
X010156Y018609D02*
X009660Y018609D01*
X009660Y018490D02*
X010037Y018490D01*
X009919Y018372D02*
X009660Y018372D01*
X009660Y018253D02*
X009800Y018253D01*
X009686Y018135D02*
X009660Y018135D01*
X010041Y019083D02*
X010630Y019083D01*
X010748Y019201D02*
X010246Y019201D01*
X010372Y019320D02*
X010867Y019320D01*
X010985Y019438D02*
X010491Y019438D01*
X010567Y019557D02*
X011104Y019557D01*
X011222Y019675D02*
X010635Y019675D01*
X007930Y017187D02*
X007890Y017187D01*
X007890Y017068D02*
X007930Y017068D01*
X007930Y016950D02*
X007890Y016950D01*
X007890Y016831D02*
X007930Y016831D01*
X007930Y016713D02*
X007890Y016713D01*
X007890Y016594D02*
X007930Y016594D01*
X007930Y016476D02*
X007890Y016476D01*
X007890Y016357D02*
X007930Y016357D01*
X007930Y016239D02*
X007890Y016239D01*
X007890Y016120D02*
X007930Y016120D01*
X007930Y016002D02*
X007890Y016002D01*
X007890Y015883D02*
X007930Y015883D01*
X007930Y015646D02*
X007890Y015646D01*
X007890Y015528D02*
X007930Y015528D01*
X007930Y015409D02*
X007890Y015409D01*
X007890Y015291D02*
X007930Y015291D01*
X008148Y015291D02*
X009410Y015291D01*
X009410Y015409D02*
X008266Y015409D01*
X008385Y015528D02*
X009410Y015528D01*
X009410Y015646D02*
X008410Y015646D01*
X008205Y015172D02*
X009410Y015172D01*
X009410Y015054D02*
X008324Y015054D01*
X008410Y014935D02*
X009410Y014935D01*
X009410Y014817D02*
X008410Y014817D01*
X008410Y014698D02*
X009410Y014698D01*
X009410Y014580D02*
X008410Y014580D01*
X008318Y014461D02*
X009410Y014461D01*
X009410Y014343D02*
X008200Y014343D01*
X007620Y014343D02*
X002520Y014343D01*
X002520Y014461D02*
X007502Y014461D01*
X006932Y014106D02*
X009410Y014106D01*
X009410Y014224D02*
X006870Y014224D01*
X006932Y013632D02*
X007674Y013632D01*
X007556Y013513D02*
X006887Y013513D01*
X007142Y013395D02*
X007437Y013395D01*
X007554Y015409D02*
X006556Y015409D01*
X006556Y015528D02*
X006597Y015528D01*
X006587Y015646D02*
X006556Y015646D01*
X006556Y015765D02*
X006587Y015765D01*
X006593Y015883D02*
X006511Y015883D01*
X006908Y015883D02*
X006912Y015883D01*
X006908Y015765D02*
X006912Y015765D01*
X006912Y015711D02*
X007233Y015711D01*
X007233Y015568D01*
X007222Y015527D01*
X007201Y015490D01*
X007172Y015461D01*
X007135Y015440D01*
X007094Y015429D01*
X006912Y015429D01*
X006912Y015711D01*
X006908Y015646D02*
X006912Y015646D01*
X006908Y015528D02*
X006912Y015528D01*
X007223Y015528D02*
X007435Y015528D01*
X007410Y015646D02*
X007233Y015646D01*
X007094Y016523D02*
X006912Y016523D01*
X006912Y016805D01*
X006908Y016805D01*
X006908Y016523D01*
X006726Y016523D01*
X006685Y016534D01*
X006648Y016555D01*
X006619Y016585D01*
X006598Y016621D01*
X006587Y016662D01*
X006587Y016805D01*
X006908Y016805D01*
X006908Y016809D01*
X006587Y016809D01*
X006587Y016952D01*
X006598Y016993D01*
X006619Y017030D01*
X006648Y017059D01*
X006685Y017080D01*
X006726Y017091D01*
X006908Y017091D01*
X006908Y016809D01*
X006912Y016809D01*
X007233Y016809D01*
X007233Y016952D01*
X007222Y016993D01*
X007201Y017030D01*
X007172Y017059D01*
X007135Y017080D01*
X007094Y017091D01*
X006912Y017091D01*
X006912Y016809D01*
X006912Y016805D01*
X007233Y016805D01*
X007233Y016662D01*
X007222Y016621D01*
X007201Y016585D01*
X007172Y016555D01*
X007135Y016534D01*
X007094Y016523D01*
X007207Y016594D02*
X007410Y016594D01*
X007410Y016713D02*
X007233Y016713D01*
X007233Y016831D02*
X007410Y016831D01*
X007410Y016950D02*
X007233Y016950D01*
X007156Y017068D02*
X007511Y017068D01*
X007629Y017187D02*
X006399Y017187D01*
X006371Y017305D02*
X007658Y017305D01*
X007539Y017424D02*
X006456Y017424D01*
X006456Y017068D02*
X006664Y017068D01*
X006587Y016950D02*
X006456Y016950D01*
X006456Y016831D02*
X006587Y016831D01*
X006587Y016713D02*
X006456Y016713D01*
X006368Y016594D02*
X006613Y016594D01*
X006908Y016594D02*
X006912Y016594D01*
X006908Y016713D02*
X006912Y016713D01*
X006908Y016831D02*
X006912Y016831D01*
X006908Y016950D02*
X006912Y016950D01*
X006908Y017068D02*
X006912Y017068D01*
X005650Y014224D02*
X002520Y014224D01*
X002520Y014106D02*
X004388Y014106D01*
X004387Y013987D02*
X002520Y013987D01*
X002520Y013869D02*
X004387Y013869D01*
X004387Y013750D02*
X002520Y013750D01*
X002520Y013632D02*
X004387Y013632D01*
X004387Y013513D02*
X002520Y013513D01*
X002520Y013395D02*
X004387Y013395D01*
X006541Y010195D02*
X007410Y010195D01*
X007724Y009603D02*
X009410Y009603D01*
X009410Y009721D02*
X008178Y009721D01*
X008297Y009840D02*
X009410Y009840D01*
X009410Y009958D02*
X008410Y009958D01*
X008410Y010077D02*
X009410Y010077D01*
X009410Y010195D02*
X008410Y010195D01*
X008410Y010314D02*
X009410Y010314D01*
X009410Y010432D02*
X008345Y010432D01*
X008227Y010551D02*
X009410Y010551D01*
X009410Y010669D02*
X008126Y010669D01*
X008245Y010788D02*
X009410Y010788D01*
X009410Y010906D02*
X008363Y010906D01*
X007930Y010906D02*
X007890Y010906D01*
X007890Y010788D02*
X007930Y010788D01*
X007930Y010669D02*
X007890Y010669D01*
X007890Y011025D02*
X007930Y011025D01*
X007930Y011262D02*
X007890Y011262D01*
X007890Y011380D02*
X007930Y011380D01*
X010390Y010788D02*
X010575Y010788D01*
X009410Y006877D02*
X008350Y006877D01*
X008410Y006759D02*
X009410Y006759D01*
X009410Y006640D02*
X008410Y006640D01*
X008410Y006522D02*
X009410Y006522D01*
X007640Y006048D02*
X007189Y006048D01*
X007201Y006035D02*
X007172Y006065D01*
X007135Y006086D01*
X007094Y006097D01*
X006912Y006097D01*
X006912Y005815D01*
X006908Y005815D01*
X006908Y006097D01*
X006726Y006097D01*
X006685Y006086D01*
X006648Y006065D01*
X006619Y006035D01*
X006598Y005999D01*
X006587Y005958D01*
X006587Y005815D01*
X006908Y005815D01*
X006908Y005811D01*
X006587Y005811D01*
X006587Y005668D01*
X006598Y005627D01*
X006619Y005590D01*
X006648Y005561D01*
X006685Y005540D01*
X006726Y005529D01*
X006908Y005529D01*
X006908Y005811D01*
X006912Y005811D01*
X006912Y005815D01*
X007233Y005815D01*
X007233Y005958D01*
X007222Y005999D01*
X007201Y006035D01*
X007233Y005929D02*
X007522Y005929D01*
X007410Y005811D02*
X007233Y005811D01*
X006912Y005811D01*
X006912Y005529D01*
X007094Y005529D01*
X007135Y005540D01*
X007172Y005561D01*
X007201Y005590D01*
X007222Y005627D01*
X007233Y005668D01*
X007233Y005811D01*
X007233Y005692D02*
X007410Y005692D01*
X007410Y005574D02*
X007184Y005574D01*
X006912Y005574D02*
X006908Y005574D01*
X006908Y005692D02*
X006912Y005692D01*
X006908Y005811D02*
X006912Y005811D01*
X006908Y005929D02*
X006912Y005929D01*
X006908Y006048D02*
X006912Y006048D01*
X006631Y006048D02*
X006447Y006048D01*
X006506Y005929D02*
X006587Y005929D01*
X006587Y005811D02*
X006506Y005811D01*
X006506Y005692D02*
X006587Y005692D01*
X006636Y005574D02*
X006506Y005574D01*
X006421Y005455D02*
X007410Y005455D01*
X007476Y005337D02*
X006449Y005337D01*
X006506Y005218D02*
X007572Y005218D01*
X006678Y004626D02*
X003833Y004626D01*
X003928Y002848D02*
X002520Y002848D01*
X002520Y002730D02*
X003903Y002730D01*
X003903Y002611D02*
X002520Y002611D01*
X002520Y002493D02*
X003903Y002493D01*
X003903Y002374D02*
X002520Y002374D01*
X002520Y002256D02*
X003903Y002256D01*
X003903Y002137D02*
X002520Y002137D01*
X002520Y002019D02*
X003982Y002019D01*
X004738Y002019D02*
X008649Y002019D01*
X008849Y001900D02*
X002520Y001900D01*
X002520Y001782D02*
X009170Y001782D01*
X009410Y001663D02*
X002520Y001663D01*
X002520Y001545D02*
X009410Y001545D01*
X009410Y001426D02*
X002520Y001426D01*
X005298Y006048D02*
X005773Y006048D01*
X009660Y015528D02*
X010090Y015528D01*
X009971Y015646D02*
X009660Y015646D01*
X009660Y015765D02*
X009853Y015765D01*
X009734Y015883D02*
X009660Y015883D01*
X010403Y016120D02*
X010563Y016120D01*
X003848Y020623D02*
X003772Y020623D01*
X003772Y020742D02*
X003848Y020742D01*
X003848Y020860D02*
X003772Y020860D01*
X003772Y020979D02*
X003848Y020979D01*
D21*
X013055Y013160D02*
X013210Y013160D01*
X013260Y013110D01*
X015660Y015665D02*
X015665Y015660D01*
D22*
X014710Y014660D03*
X014760Y013160D03*
X012960Y011510D03*
X012110Y013660D03*
X013360Y016260D03*
X016660Y015160D03*
X016760Y014160D03*
X014760Y010110D03*
X005160Y005760D03*
X004960Y016910D03*
D23*
X009960Y016110D02*
X010310Y015760D01*
X010910Y015760D01*
X009960Y016110D02*
X009960Y017960D01*
X011426Y019426D01*
X013891Y019426D01*
X011210Y011160D02*
X010310Y011160D01*
X010010Y010860D01*
X010010Y006910D01*
X010310Y006610D01*
X010910Y006610D01*
X011210Y006610D01*
X012960Y008360D01*
X013926Y008360D01*
X013941Y008376D01*
X014076Y008376D01*
X015060Y009360D01*
X015910Y009360D01*
D24*
X013055Y013160D02*
X011910Y013160D01*
X011660Y012910D01*
X011660Y012360D01*
X011460Y012160D01*
X010910Y012160D01*
X010960Y013210D02*
X010960Y013760D01*
X011360Y014160D01*
X013055Y014160D01*
M02*
