%
M48
M72
T01C0.0200
T02C0.0394
T03C0.1260
%
T01
X20980Y8530
X27230Y12680
X21930Y14180
X33580Y14930
X33580Y9330
T02
X14574Y3180
X16543Y3180
X18511Y3180
X20480Y3180
X19496Y5149
X17527Y5149
X15559Y5149
X13590Y5149
X23496Y5649
X27440Y6249
X29409Y6249
X31377Y6249
X33346Y6249
X34330Y4280
X32361Y4280
X30393Y4280
X28424Y4280
X24480Y3680
X24964Y11211
X23980Y13180
X20870Y17211
X18901Y17211
X16933Y17211
X14964Y17211
X13980Y19180
X15949Y19180
X17917Y19180
X19886Y19180
X23980Y19680
X24964Y17711
X28814Y18311
X30783Y18311
X32751Y18311
X34720Y18311
X33736Y20280
X31767Y20280
X29799Y20280
X27830Y20280
T03
X12730Y12430
X35980Y12430
M30
