G75*
G70*
%OFA0B0*%
%FSLAX24Y24*%
%IPPOS*%
%LPD*%
%AMOC8*
5,1,8,0,0,1.08239X$1,22.5*
%
%ADD10C,0.0000*%
%ADD11R,0.0236X0.0787*%
%ADD12R,0.0594X0.0594*%
%ADD13R,0.0472X0.0315*%
%ADD14R,0.0315X0.0472*%
%ADD15C,0.2300*%
%ADD16R,0.0551X0.0354*%
%ADD17C,0.0160*%
%ADD18R,0.0320X0.0320*%
%ADD19C,0.0320*%
%ADD20C,0.0400*%
%ADD21C,0.0120*%
D10*
X010730Y001430D02*
X010730Y022050D01*
X037972Y022050D01*
X037972Y001430D01*
X010730Y001430D01*
D11*
X014980Y009330D03*
X015480Y009330D03*
X015980Y009330D03*
X016480Y009330D03*
X016980Y009330D03*
X017480Y009330D03*
X017980Y009330D03*
X018480Y009330D03*
X018980Y009330D03*
X019480Y009330D03*
X019980Y009330D03*
X020480Y009330D03*
X020480Y013030D03*
X019980Y013030D03*
X019480Y013030D03*
X018980Y013030D03*
X018480Y013030D03*
X017980Y013030D03*
X017480Y013030D03*
X016980Y013030D03*
X016480Y013030D03*
X015980Y013030D03*
X015480Y013030D03*
X014980Y013030D03*
X028080Y014130D03*
X028580Y014130D03*
X029080Y014130D03*
X029580Y014130D03*
X030080Y014130D03*
X030580Y014130D03*
X031080Y014130D03*
X031580Y014130D03*
X032080Y014130D03*
X032580Y014130D03*
X033080Y014130D03*
X033580Y014130D03*
X033580Y010430D03*
X033080Y010430D03*
X032580Y010430D03*
X032080Y010430D03*
X031580Y010430D03*
X031080Y010430D03*
X030580Y010430D03*
X030080Y010430D03*
X029580Y010430D03*
X029080Y010430D03*
X028580Y010430D03*
X028080Y010430D03*
D12*
X024964Y011211D03*
X023980Y013180D03*
X020870Y017211D03*
X018901Y017211D03*
X016933Y017211D03*
X014964Y017211D03*
X013980Y019180D03*
X015949Y019180D03*
X017917Y019180D03*
X019886Y019180D03*
X023980Y019680D03*
X024964Y017711D03*
X028814Y018311D03*
X030783Y018311D03*
X032751Y018311D03*
X034720Y018311D03*
X033736Y020280D03*
X031767Y020280D03*
X029799Y020280D03*
X027830Y020280D03*
X027440Y006249D03*
X029409Y006249D03*
X031377Y006249D03*
X033346Y006249D03*
X034330Y004280D03*
X032361Y004280D03*
X030393Y004280D03*
X028424Y004280D03*
X024480Y003680D03*
X023496Y005649D03*
X019496Y005149D03*
X017527Y005149D03*
X015559Y005149D03*
X013590Y005149D03*
X014574Y003180D03*
X016543Y003180D03*
X018511Y003180D03*
X020480Y003180D03*
D13*
X027330Y002634D03*
X028330Y002634D03*
X029330Y002634D03*
X030330Y002634D03*
X031330Y002634D03*
X032330Y002634D03*
X033330Y002634D03*
X034330Y002634D03*
X034330Y001926D03*
X033330Y001926D03*
X032330Y001926D03*
X031330Y001926D03*
X030330Y001926D03*
X029330Y001926D03*
X028330Y001926D03*
X027330Y001926D03*
X034630Y014926D03*
X034630Y015634D03*
X020980Y020826D03*
X019980Y020826D03*
X018980Y020826D03*
X017980Y020826D03*
X016980Y020826D03*
X015980Y020826D03*
X014980Y020826D03*
X013980Y020826D03*
X013980Y021534D03*
X014980Y021534D03*
X015980Y021534D03*
X016980Y021534D03*
X017980Y021534D03*
X018980Y021534D03*
X019980Y021534D03*
X020980Y021534D03*
D14*
X024026Y021280D03*
X024734Y021280D03*
X021284Y014180D03*
X020576Y014180D03*
X021376Y013180D03*
X022084Y013180D03*
X022084Y009180D03*
X021376Y009180D03*
X034476Y009780D03*
X035184Y009780D03*
X024534Y002030D03*
X023826Y002030D03*
D15*
X012730Y012430D03*
X035980Y012430D03*
D16*
X026230Y012013D03*
X026230Y011147D03*
D17*
X026239Y011156D02*
X026221Y011156D01*
X026221Y011504D01*
X025931Y011504D01*
X025885Y011492D01*
X025844Y011468D01*
X025810Y011435D01*
X025787Y011394D01*
X025774Y011348D01*
X025774Y011156D01*
X026221Y011156D01*
X026221Y011138D01*
X026239Y011138D01*
X026239Y011156D01*
X026239Y011504D01*
X026529Y011504D01*
X026575Y011492D01*
X026616Y011468D01*
X026650Y011435D01*
X026673Y011394D01*
X026686Y011348D01*
X026686Y011156D01*
X026239Y011156D01*
X026239Y011138D02*
X026686Y011138D01*
X026686Y010946D01*
X026673Y010900D01*
X026650Y010859D01*
X026616Y010826D01*
X026575Y010802D01*
X026529Y010790D01*
X026239Y010790D01*
X026239Y011138D01*
X026221Y011138D02*
X026221Y010790D01*
X025931Y010790D01*
X025885Y010802D01*
X025844Y010826D01*
X025810Y010859D01*
X025787Y010900D01*
X025774Y010946D01*
X025774Y011138D01*
X026221Y011138D01*
X026221Y011213D02*
X026239Y011213D01*
X026239Y011055D02*
X026221Y011055D01*
X026221Y010896D02*
X026239Y010896D01*
X026671Y010896D02*
X027796Y010896D01*
X027794Y010893D02*
X027782Y010847D01*
X027782Y010430D01*
X028080Y010430D01*
X028080Y011003D01*
X027938Y011003D01*
X027892Y010991D01*
X027851Y010967D01*
X027818Y010934D01*
X027794Y010893D01*
X027782Y010738D02*
X025296Y010738D01*
X025285Y010735D02*
X025331Y010747D01*
X025372Y010771D01*
X025405Y010804D01*
X025429Y010845D01*
X025441Y010891D01*
X025441Y011193D01*
X024983Y011193D01*
X024983Y011230D01*
X025441Y011230D01*
X025441Y011532D01*
X025429Y011578D01*
X025405Y011619D01*
X025372Y011652D01*
X025331Y011676D01*
X025285Y011688D01*
X024983Y011688D01*
X024983Y011230D01*
X024946Y011230D01*
X024946Y011688D01*
X024644Y011688D01*
X024598Y011676D01*
X024557Y011652D01*
X024523Y011619D01*
X024500Y011578D01*
X024487Y011532D01*
X024487Y011230D01*
X024946Y011230D01*
X024946Y011193D01*
X024983Y011193D01*
X024983Y010735D01*
X025285Y010735D01*
X025441Y010896D02*
X025789Y010896D01*
X025774Y011055D02*
X025441Y011055D01*
X025774Y011213D02*
X024983Y011213D01*
X024946Y011213D02*
X013282Y011213D01*
X013243Y011191D02*
X013547Y011366D01*
X013794Y011613D01*
X013969Y011917D01*
X014060Y012255D01*
X014060Y012605D01*
X013969Y012943D01*
X013794Y013247D01*
X013547Y013494D01*
X013243Y013669D01*
X012905Y013760D01*
X012555Y013760D01*
X012217Y013669D01*
X011913Y013494D01*
X011666Y013247D01*
X011491Y012943D01*
X011400Y012605D01*
X011400Y012255D01*
X011491Y011917D01*
X011666Y011613D01*
X011913Y011366D01*
X012217Y011191D01*
X012555Y011100D01*
X012905Y011100D01*
X013243Y011191D01*
X013552Y011372D02*
X024487Y011372D01*
X024487Y011530D02*
X013711Y011530D01*
X013838Y011689D02*
X025847Y011689D01*
X025880Y011656D02*
X025774Y011761D01*
X025774Y012265D01*
X025880Y012370D01*
X026106Y012370D01*
X026609Y012873D01*
X026704Y012968D01*
X026829Y013020D01*
X027465Y013020D01*
X027570Y012915D01*
X027570Y012445D01*
X027465Y012340D01*
X027038Y012340D01*
X026686Y011988D01*
X026686Y011761D01*
X026580Y011656D01*
X025880Y011656D01*
X025774Y011847D02*
X013929Y011847D01*
X013993Y012006D02*
X025774Y012006D01*
X025774Y012164D02*
X014036Y012164D01*
X014060Y012323D02*
X025832Y012323D01*
X026217Y012481D02*
X020697Y012481D01*
X020673Y012457D02*
X020778Y012562D01*
X020778Y012840D01*
X021067Y012840D01*
X021144Y012764D01*
X021608Y012764D01*
X021713Y012869D01*
X021713Y013106D01*
X021716Y013112D01*
X021716Y013600D01*
X021806Y013600D01*
X021945Y013658D01*
X022052Y013765D01*
X022127Y013840D01*
X022165Y013840D01*
X022270Y013945D01*
X022270Y014008D01*
X022310Y014104D01*
X022310Y014256D01*
X022270Y014352D01*
X022270Y014415D01*
X022165Y014520D01*
X022102Y014520D01*
X022006Y014560D01*
X021854Y014560D01*
X021758Y014520D01*
X021695Y014520D01*
X021622Y014446D01*
X021622Y014491D01*
X021516Y014596D01*
X021052Y014596D01*
X020947Y014491D01*
X020947Y013869D01*
X021036Y013780D01*
X021036Y013520D01*
X020757Y013520D01*
X020673Y013604D01*
X020287Y013604D01*
X020240Y013557D01*
X020240Y013822D01*
X020263Y013845D01*
X020344Y013764D01*
X020808Y013764D01*
X020913Y013869D01*
X020913Y014491D01*
X020808Y014596D01*
X020344Y014596D01*
X020238Y014491D01*
X020238Y014390D01*
X020128Y014390D01*
X020033Y014350D01*
X019833Y014150D01*
X019760Y014077D01*
X019740Y014030D01*
X019740Y014572D01*
X021090Y015922D01*
X021130Y016018D01*
X021130Y016735D01*
X021241Y016735D01*
X021347Y016840D01*
X021347Y017583D01*
X021241Y017688D01*
X021130Y017688D01*
X021130Y020488D01*
X021291Y020488D01*
X021396Y020594D01*
X021396Y021058D01*
X021291Y021163D01*
X020669Y021163D01*
X020564Y021058D01*
X020564Y020594D01*
X020610Y020548D01*
X020610Y017688D01*
X020498Y017688D01*
X020393Y017583D01*
X020393Y016840D01*
X020498Y016735D01*
X020610Y016735D01*
X020610Y016177D01*
X019333Y014900D01*
X019260Y014827D01*
X019240Y014780D01*
X019240Y015572D01*
X019950Y016283D01*
X019990Y016378D01*
X019990Y018703D01*
X020257Y018703D01*
X020362Y018809D01*
X020362Y019551D01*
X020257Y019657D01*
X020146Y019657D01*
X020146Y020488D01*
X020291Y020488D01*
X020396Y020594D01*
X020396Y021058D01*
X020291Y021163D01*
X019669Y021163D01*
X019564Y021058D01*
X019564Y020594D01*
X019626Y020532D01*
X019626Y019657D01*
X019514Y019657D01*
X019409Y019551D01*
X019409Y018809D01*
X019470Y018747D01*
X019470Y016538D01*
X018833Y015900D01*
X018760Y015827D01*
X018740Y015780D01*
X018740Y016683D01*
X018792Y016735D01*
X019273Y016735D01*
X019378Y016840D01*
X019378Y017583D01*
X019273Y017688D01*
X019161Y017688D01*
X019161Y020488D01*
X019291Y020488D01*
X019396Y020594D01*
X019396Y021058D01*
X019291Y021163D01*
X018669Y021163D01*
X018564Y021058D01*
X018564Y020594D01*
X018641Y020516D01*
X018641Y017688D01*
X018530Y017688D01*
X018424Y017583D01*
X018424Y017102D01*
X018333Y017011D01*
X018260Y016938D01*
X018220Y016842D01*
X018220Y016580D01*
X018200Y016627D01*
X018127Y016700D01*
X017990Y016838D01*
X017990Y018703D01*
X018288Y018703D01*
X018394Y018809D01*
X018394Y019551D01*
X018288Y019657D01*
X018177Y019657D01*
X018177Y020488D01*
X018291Y020488D01*
X018396Y020594D01*
X018396Y021058D01*
X018291Y021163D01*
X017669Y021163D01*
X017564Y021058D01*
X017564Y020594D01*
X017657Y020500D01*
X017657Y019657D01*
X017546Y019657D01*
X017440Y019551D01*
X017440Y018809D01*
X017470Y018779D01*
X017470Y016678D01*
X017510Y016583D01*
X017720Y016372D01*
X017720Y016030D01*
X017700Y016077D01*
X017627Y016150D01*
X017240Y016538D01*
X017240Y016735D01*
X017304Y016735D01*
X017410Y016840D01*
X017410Y017583D01*
X017304Y017688D01*
X017193Y017688D01*
X017193Y020488D01*
X017291Y020488D01*
X017396Y020594D01*
X017396Y021058D01*
X017291Y021163D01*
X016669Y021163D01*
X016564Y021058D01*
X016564Y020594D01*
X016669Y020488D01*
X016673Y020488D01*
X016673Y017688D01*
X016561Y017688D01*
X016456Y017583D01*
X016456Y016840D01*
X016561Y016735D01*
X016720Y016735D01*
X016720Y016378D01*
X016760Y016283D01*
X017220Y015822D01*
X017220Y015780D01*
X017200Y015827D01*
X017127Y015900D01*
X016240Y016788D01*
X016240Y018703D01*
X016320Y018703D01*
X016425Y018809D01*
X016425Y019551D01*
X016320Y019657D01*
X016209Y019657D01*
X016209Y020488D01*
X016291Y020488D01*
X016396Y020594D01*
X016396Y021058D01*
X016291Y021163D01*
X015669Y021163D01*
X015564Y021058D01*
X015564Y020594D01*
X015669Y020488D01*
X015689Y020488D01*
X015689Y019657D01*
X015577Y019657D01*
X015472Y019551D01*
X015472Y018809D01*
X015577Y018703D01*
X015720Y018703D01*
X015720Y016628D01*
X015760Y016533D01*
X016720Y015572D01*
X016720Y015280D01*
X016700Y015327D01*
X015293Y016735D01*
X015336Y016735D01*
X015441Y016840D01*
X015441Y017583D01*
X015336Y017688D01*
X015224Y017688D01*
X015224Y020488D01*
X015291Y020488D01*
X015396Y020594D01*
X015396Y021058D01*
X015291Y021163D01*
X014669Y021163D01*
X014564Y021058D01*
X014564Y020594D01*
X014669Y020488D01*
X014704Y020488D01*
X014704Y017688D01*
X014593Y017688D01*
X014487Y017583D01*
X014487Y016840D01*
X014593Y016735D01*
X014704Y016735D01*
X014704Y016644D01*
X014744Y016548D01*
X014817Y016475D01*
X016220Y015072D01*
X016220Y014530D01*
X016200Y014577D01*
X014240Y016538D01*
X014240Y018703D01*
X014351Y018703D01*
X014457Y018809D01*
X014457Y019551D01*
X014351Y019657D01*
X014240Y019657D01*
X014240Y020488D01*
X014291Y020488D01*
X014396Y020594D01*
X014396Y021058D01*
X014291Y021163D01*
X013669Y021163D01*
X013564Y021058D01*
X013564Y020594D01*
X013669Y020488D01*
X013720Y020488D01*
X013720Y019657D01*
X013609Y019657D01*
X013503Y019551D01*
X013503Y018809D01*
X013609Y018703D01*
X013720Y018703D01*
X013720Y016378D01*
X013760Y016283D01*
X013833Y016210D01*
X015720Y014322D01*
X015720Y013557D01*
X015709Y013568D01*
X015668Y013592D01*
X015622Y013604D01*
X015480Y013604D01*
X015338Y013604D01*
X015292Y013592D01*
X015251Y013568D01*
X015230Y013547D01*
X015209Y013568D01*
X015168Y013592D01*
X015122Y013604D01*
X014980Y013604D01*
X014838Y013604D01*
X014792Y013592D01*
X014751Y013568D01*
X014718Y013535D01*
X014694Y013494D01*
X014682Y013448D01*
X014682Y013030D01*
X014682Y012613D01*
X014694Y012567D01*
X014718Y012526D01*
X014751Y012493D01*
X014792Y012469D01*
X014838Y012457D01*
X014980Y012457D01*
X015122Y012457D01*
X015168Y012469D01*
X015209Y012493D01*
X015230Y012514D01*
X015251Y012493D01*
X015292Y012469D01*
X015338Y012457D01*
X015480Y012457D01*
X015622Y012457D01*
X015668Y012469D01*
X015709Y012493D01*
X015730Y012514D01*
X015787Y012457D01*
X016173Y012457D01*
X016230Y012514D01*
X016287Y012457D01*
X016673Y012457D01*
X016730Y012514D01*
X016787Y012457D01*
X017173Y012457D01*
X017230Y012514D01*
X017287Y012457D01*
X017673Y012457D01*
X017730Y012514D01*
X017787Y012457D01*
X018173Y012457D01*
X018230Y012514D01*
X018287Y012457D01*
X018673Y012457D01*
X018730Y012514D01*
X018787Y012457D01*
X019173Y012457D01*
X019230Y012514D01*
X019287Y012457D01*
X019673Y012457D01*
X019730Y012514D01*
X019787Y012457D01*
X020173Y012457D01*
X020230Y012514D01*
X020287Y012457D01*
X020673Y012457D01*
X020778Y012640D02*
X026376Y012640D01*
X026534Y012798D02*
X024436Y012798D01*
X024445Y012814D02*
X024457Y012859D01*
X024457Y013162D01*
X023998Y013162D01*
X023998Y013198D01*
X024457Y013198D01*
X024457Y013501D01*
X024445Y013546D01*
X024421Y013587D01*
X024387Y013621D01*
X024346Y013645D01*
X024301Y013657D01*
X023998Y013657D01*
X023998Y013198D01*
X023962Y013198D01*
X023962Y013162D01*
X023998Y013162D01*
X023998Y012703D01*
X024301Y012703D01*
X024346Y012715D01*
X024387Y012739D01*
X024421Y012773D01*
X024445Y012814D01*
X024457Y012957D02*
X026693Y012957D01*
X027020Y012323D02*
X034650Y012323D01*
X034650Y012255D02*
X034741Y011917D01*
X034916Y011613D01*
X035163Y011366D01*
X035467Y011191D01*
X035805Y011100D01*
X036155Y011100D01*
X036493Y011191D01*
X036797Y011366D01*
X037044Y011613D01*
X037219Y011917D01*
X037310Y012255D01*
X037310Y012605D01*
X037219Y012943D01*
X037044Y013247D01*
X036797Y013494D01*
X036493Y013669D01*
X036155Y013760D01*
X035805Y013760D01*
X035467Y013669D01*
X035163Y013494D01*
X034916Y013247D01*
X034741Y012943D01*
X034650Y012605D01*
X034650Y012255D01*
X034674Y012164D02*
X026862Y012164D01*
X026703Y012006D02*
X034717Y012006D01*
X034781Y011847D02*
X026686Y011847D01*
X026613Y011689D02*
X034872Y011689D01*
X034999Y011530D02*
X025441Y011530D01*
X025441Y011372D02*
X025781Y011372D01*
X026221Y011372D02*
X026239Y011372D01*
X026679Y011372D02*
X035158Y011372D01*
X035428Y011213D02*
X026686Y011213D01*
X026686Y011055D02*
X037792Y011055D01*
X037792Y011213D02*
X036532Y011213D01*
X036802Y011372D02*
X037792Y011372D01*
X037792Y011530D02*
X036961Y011530D01*
X037088Y011689D02*
X037792Y011689D01*
X037792Y011847D02*
X037179Y011847D01*
X037243Y012006D02*
X037792Y012006D01*
X037792Y012164D02*
X037286Y012164D01*
X037310Y012323D02*
X037792Y012323D01*
X037792Y012481D02*
X037310Y012481D01*
X037301Y012640D02*
X037792Y012640D01*
X037792Y012798D02*
X037258Y012798D01*
X037212Y012957D02*
X037792Y012957D01*
X037792Y013115D02*
X037120Y013115D01*
X037017Y013274D02*
X037792Y013274D01*
X037792Y013432D02*
X036859Y013432D01*
X036630Y013591D02*
X037792Y013591D01*
X037792Y013749D02*
X036196Y013749D01*
X035764Y013749D02*
X033878Y013749D01*
X033878Y013662D02*
X033878Y013891D01*
X033902Y013915D01*
X033960Y014055D01*
X033960Y014586D01*
X034698Y014586D01*
X034704Y014588D01*
X034941Y014588D01*
X035046Y014694D01*
X035046Y015158D01*
X034941Y015263D01*
X034704Y015263D01*
X034698Y015266D01*
X033819Y015266D01*
X033815Y015270D01*
X033752Y015270D01*
X033656Y015310D01*
X033504Y015310D01*
X033408Y015270D01*
X033345Y015270D01*
X033240Y015165D01*
X033240Y015102D01*
X033200Y015006D01*
X033200Y014704D01*
X033080Y014704D01*
X032938Y014704D01*
X032892Y014692D01*
X032851Y014668D01*
X032830Y014647D01*
X032820Y014657D01*
X032820Y016072D01*
X034582Y017835D01*
X035091Y017835D01*
X035197Y017940D01*
X035197Y018683D01*
X035091Y018788D01*
X034348Y018788D01*
X034243Y018683D01*
X034243Y018174D01*
X033720Y017651D01*
X033720Y019803D01*
X034107Y019803D01*
X034212Y019909D01*
X034212Y020651D01*
X034107Y020757D01*
X033364Y020757D01*
X033259Y020651D01*
X033259Y020117D01*
X033240Y020072D01*
X033240Y017779D01*
X031944Y016483D01*
X031877Y016416D01*
X031840Y016328D01*
X031840Y014657D01*
X031830Y014647D01*
X031820Y014657D01*
X031820Y017041D01*
X032614Y017835D01*
X033123Y017835D01*
X033228Y017940D01*
X033228Y018683D01*
X033123Y018788D01*
X032380Y018788D01*
X032274Y018683D01*
X032274Y018174D01*
X031444Y017344D01*
X031377Y017276D01*
X031340Y017188D01*
X031340Y014657D01*
X031330Y014647D01*
X031320Y014657D01*
X031320Y017431D01*
X031933Y018044D01*
X031970Y018132D01*
X031970Y019803D01*
X032138Y019803D01*
X032244Y019909D01*
X032244Y020651D01*
X032138Y020757D01*
X031396Y020757D01*
X031290Y020651D01*
X031290Y019909D01*
X031396Y019803D01*
X031490Y019803D01*
X031490Y018279D01*
X031260Y018049D01*
X031260Y018683D01*
X031154Y018788D01*
X030411Y018788D01*
X030320Y018697D01*
X030320Y020046D01*
X030283Y020134D01*
X030275Y020143D01*
X030275Y020651D01*
X030170Y020757D01*
X029427Y020757D01*
X029322Y020651D01*
X029322Y019909D01*
X029427Y019803D01*
X029840Y019803D01*
X029840Y014657D01*
X029830Y014647D01*
X029820Y014657D01*
X029820Y017593D01*
X029783Y017682D01*
X029716Y017749D01*
X029291Y018174D01*
X029291Y018683D01*
X029186Y018788D01*
X028443Y018788D01*
X028337Y018683D01*
X028337Y017940D01*
X028443Y017835D01*
X028952Y017835D01*
X029340Y017446D01*
X029340Y014657D01*
X029330Y014647D01*
X029320Y014657D01*
X029320Y016828D01*
X029283Y016916D01*
X029216Y016983D01*
X028270Y017929D01*
X028270Y019872D01*
X028307Y019909D01*
X028307Y020651D01*
X028201Y020757D01*
X027459Y020757D01*
X027353Y020651D01*
X027353Y019909D01*
X027459Y019803D01*
X027790Y019803D01*
X027790Y017782D01*
X027827Y017694D01*
X028840Y016681D01*
X028840Y014657D01*
X028830Y014647D01*
X028809Y014668D01*
X028768Y014692D01*
X028722Y014704D01*
X028580Y014704D01*
X028438Y014704D01*
X028392Y014692D01*
X028351Y014668D01*
X028330Y014647D01*
X028309Y014668D01*
X028268Y014692D01*
X028222Y014704D01*
X028080Y014704D01*
X027938Y014704D01*
X027892Y014692D01*
X027851Y014668D01*
X027818Y014635D01*
X027794Y014594D01*
X027782Y014548D01*
X027782Y014130D01*
X027782Y013713D01*
X027794Y013667D01*
X027818Y013626D01*
X027851Y013593D01*
X027892Y013569D01*
X027938Y013557D01*
X028080Y013557D01*
X028222Y013557D01*
X028268Y013569D01*
X028309Y013593D01*
X028330Y013614D01*
X028351Y013593D01*
X028392Y013569D01*
X028438Y013557D01*
X028580Y013557D01*
X028722Y013557D01*
X028768Y013569D01*
X028809Y013593D01*
X028830Y013614D01*
X028887Y013557D01*
X029273Y013557D01*
X029330Y013614D01*
X029387Y013557D01*
X029773Y013557D01*
X029830Y013614D01*
X029887Y013557D01*
X030273Y013557D01*
X030330Y013614D01*
X030387Y013557D01*
X030773Y013557D01*
X030830Y013614D01*
X030887Y013557D01*
X031273Y013557D01*
X031330Y013614D01*
X031387Y013557D01*
X031773Y013557D01*
X031830Y013614D01*
X031887Y013557D01*
X032273Y013557D01*
X032330Y013614D01*
X032387Y013557D01*
X032773Y013557D01*
X032830Y013614D01*
X032851Y013593D01*
X032892Y013569D01*
X032938Y013557D01*
X033080Y013557D01*
X033222Y013557D01*
X033268Y013569D01*
X033309Y013593D01*
X033330Y013614D01*
X033387Y013557D01*
X033773Y013557D01*
X033878Y013662D01*
X033807Y013591D02*
X035330Y013591D01*
X035101Y013432D02*
X024457Y013432D01*
X024457Y013274D02*
X034943Y013274D01*
X034840Y013115D02*
X024457Y013115D01*
X023998Y013115D02*
X023962Y013115D01*
X023962Y013162D02*
X023962Y012703D01*
X023659Y012703D01*
X023614Y012715D01*
X023573Y012739D01*
X023539Y012773D01*
X023515Y012814D01*
X023503Y012859D01*
X023503Y013162D01*
X023962Y013162D01*
X023962Y013198D02*
X023503Y013198D01*
X023503Y013501D01*
X023515Y013546D01*
X023539Y013587D01*
X023573Y013621D01*
X023614Y013645D01*
X023659Y013657D01*
X023962Y013657D01*
X023962Y013198D01*
X023962Y013274D02*
X023998Y013274D01*
X023998Y013432D02*
X023962Y013432D01*
X023962Y013591D02*
X023998Y013591D01*
X024418Y013591D02*
X027855Y013591D01*
X027782Y013749D02*
X022036Y013749D01*
X022084Y013596D02*
X021903Y013596D01*
X021857Y013584D01*
X021816Y013560D01*
X021783Y013527D01*
X021759Y013486D01*
X021747Y013440D01*
X021747Y013180D01*
X021747Y012920D01*
X021759Y012874D01*
X021783Y012833D01*
X021816Y012800D01*
X021857Y012776D01*
X021903Y012764D01*
X022084Y012764D01*
X022084Y013180D01*
X021747Y013180D01*
X022084Y013180D01*
X022084Y013180D01*
X022084Y013180D01*
X022084Y013596D01*
X022266Y013596D01*
X022311Y013584D01*
X022352Y013560D01*
X022386Y013527D01*
X022410Y013486D01*
X022422Y013440D01*
X022422Y013180D01*
X022084Y013180D01*
X022084Y013180D01*
X022084Y012764D01*
X022266Y012764D01*
X022311Y012776D01*
X022352Y012800D01*
X022386Y012833D01*
X022410Y012874D01*
X022422Y012920D01*
X022422Y013180D01*
X022084Y013180D01*
X022084Y013596D01*
X022084Y013591D02*
X022084Y013591D01*
X022084Y013432D02*
X022084Y013432D01*
X022084Y013274D02*
X022084Y013274D01*
X022084Y013180D02*
X022084Y013180D01*
X022084Y013115D02*
X022084Y013115D01*
X022084Y012957D02*
X022084Y012957D01*
X022084Y012798D02*
X022084Y012798D01*
X021819Y012798D02*
X021642Y012798D01*
X021713Y012957D02*
X021747Y012957D01*
X021747Y013115D02*
X021716Y013115D01*
X021716Y013274D02*
X021747Y013274D01*
X021747Y013432D02*
X021716Y013432D01*
X021716Y013591D02*
X021882Y013591D01*
X022287Y013591D02*
X023542Y013591D01*
X023503Y013432D02*
X022422Y013432D01*
X022422Y013274D02*
X023503Y013274D01*
X023503Y013115D02*
X022422Y013115D01*
X022422Y012957D02*
X023503Y012957D01*
X023524Y012798D02*
X022349Y012798D01*
X021109Y012798D02*
X020778Y012798D01*
X020263Y012481D02*
X020197Y012481D01*
X019763Y012481D02*
X019697Y012481D01*
X019263Y012481D02*
X019197Y012481D01*
X018763Y012481D02*
X018697Y012481D01*
X018263Y012481D02*
X018197Y012481D01*
X017763Y012481D02*
X017697Y012481D01*
X017263Y012481D02*
X017197Y012481D01*
X016763Y012481D02*
X016697Y012481D01*
X016263Y012481D02*
X016197Y012481D01*
X015763Y012481D02*
X015688Y012481D01*
X015480Y012481D02*
X015480Y012481D01*
X015480Y012457D02*
X015480Y013030D01*
X015480Y013030D01*
X015480Y012457D01*
X015480Y012640D02*
X015480Y012640D01*
X015480Y012798D02*
X015480Y012798D01*
X015480Y012957D02*
X015480Y012957D01*
X015480Y013030D02*
X014980Y013030D01*
X014980Y012457D01*
X014980Y013030D01*
X014980Y013030D01*
X014682Y013030D01*
X014980Y013030D01*
X014980Y013030D01*
X014980Y013030D01*
X015278Y013030D01*
X015480Y013030D01*
X015480Y013030D01*
X015480Y013604D01*
X015480Y013030D01*
X015480Y013030D01*
X015480Y013115D02*
X015480Y013115D01*
X015480Y013274D02*
X015480Y013274D01*
X015480Y013432D02*
X015480Y013432D01*
X015480Y013591D02*
X015480Y013591D01*
X015670Y013591D02*
X015720Y013591D01*
X015720Y013749D02*
X012946Y013749D01*
X012514Y013749D02*
X010910Y013749D01*
X010910Y013591D02*
X012080Y013591D01*
X011851Y013432D02*
X010910Y013432D01*
X010910Y013274D02*
X011693Y013274D01*
X011590Y013115D02*
X010910Y013115D01*
X010910Y012957D02*
X011498Y012957D01*
X011452Y012798D02*
X010910Y012798D01*
X010910Y012640D02*
X011409Y012640D01*
X011400Y012481D02*
X010910Y012481D01*
X010910Y012323D02*
X011400Y012323D01*
X011424Y012164D02*
X010910Y012164D01*
X010910Y012006D02*
X011467Y012006D01*
X011531Y011847D02*
X010910Y011847D01*
X010910Y011689D02*
X011622Y011689D01*
X011749Y011530D02*
X010910Y011530D01*
X010910Y011372D02*
X011908Y011372D01*
X012178Y011213D02*
X010910Y011213D01*
X010910Y011055D02*
X024487Y011055D01*
X024487Y011193D02*
X024487Y010891D01*
X024500Y010845D01*
X024523Y010804D01*
X024557Y010771D01*
X024598Y010747D01*
X024644Y010735D01*
X024946Y010735D01*
X024946Y011193D01*
X024487Y011193D01*
X024487Y010896D02*
X010910Y010896D01*
X010910Y010738D02*
X024633Y010738D01*
X024946Y010738D02*
X024983Y010738D01*
X024983Y010896D02*
X024946Y010896D01*
X024946Y011055D02*
X024983Y011055D01*
X024983Y011372D02*
X024946Y011372D01*
X024946Y011530D02*
X024983Y011530D01*
X027570Y012481D02*
X034650Y012481D01*
X034659Y012640D02*
X027570Y012640D01*
X027570Y012798D02*
X034702Y012798D01*
X034748Y012957D02*
X027528Y012957D01*
X028080Y013557D02*
X028080Y014130D01*
X028080Y013557D01*
X028080Y013591D02*
X028080Y013591D01*
X028080Y013749D02*
X028080Y013749D01*
X028080Y013908D02*
X028080Y013908D01*
X028080Y014066D02*
X028080Y014066D01*
X028080Y014130D02*
X028080Y014130D01*
X027782Y014130D01*
X028080Y014130D01*
X028080Y014130D01*
X028080Y014130D01*
X028580Y014130D01*
X028580Y013557D01*
X028580Y014130D01*
X028580Y014130D01*
X028580Y014130D01*
X028378Y014130D01*
X028080Y014130D01*
X028080Y014704D01*
X028080Y014130D01*
X028080Y014130D01*
X028080Y014225D02*
X028080Y014225D01*
X028080Y014383D02*
X028080Y014383D01*
X028080Y014542D02*
X028080Y014542D01*
X028080Y014700D02*
X028080Y014700D01*
X028237Y014700D02*
X028423Y014700D01*
X028580Y014700D02*
X028580Y014700D01*
X028580Y014704D02*
X028580Y014130D01*
X028580Y014130D01*
X028580Y014704D01*
X028737Y014700D02*
X028840Y014700D01*
X028840Y014859D02*
X020026Y014859D01*
X020185Y015017D02*
X028840Y015017D01*
X028840Y015176D02*
X020343Y015176D01*
X020502Y015334D02*
X028840Y015334D01*
X028840Y015493D02*
X020660Y015493D01*
X020819Y015651D02*
X028840Y015651D01*
X028840Y015810D02*
X020977Y015810D01*
X021109Y015968D02*
X028840Y015968D01*
X028840Y016127D02*
X021130Y016127D01*
X021130Y016285D02*
X028840Y016285D01*
X028840Y016444D02*
X021130Y016444D01*
X021130Y016602D02*
X028840Y016602D01*
X028760Y016761D02*
X021267Y016761D01*
X021347Y016919D02*
X028602Y016919D01*
X028443Y017078D02*
X021347Y017078D01*
X021347Y017236D02*
X024591Y017236D01*
X024593Y017235D02*
X025336Y017235D01*
X025441Y017340D01*
X025441Y018083D01*
X025336Y018188D01*
X024593Y018188D01*
X024487Y018083D01*
X024487Y017340D01*
X024593Y017235D01*
X024487Y017395D02*
X021347Y017395D01*
X021347Y017553D02*
X024487Y017553D01*
X024487Y017712D02*
X021130Y017712D01*
X021130Y017870D02*
X024487Y017870D01*
X024487Y018029D02*
X021130Y018029D01*
X021130Y018187D02*
X024592Y018187D01*
X025337Y018187D02*
X027790Y018187D01*
X027790Y018029D02*
X025441Y018029D01*
X025441Y017870D02*
X027790Y017870D01*
X027819Y017712D02*
X025441Y017712D01*
X025441Y017553D02*
X027968Y017553D01*
X028126Y017395D02*
X025441Y017395D01*
X025337Y017236D02*
X028285Y017236D01*
X028646Y017553D02*
X029233Y017553D01*
X029340Y017395D02*
X028805Y017395D01*
X028963Y017236D02*
X029340Y017236D01*
X029340Y017078D02*
X029122Y017078D01*
X029280Y016919D02*
X029340Y016919D01*
X029340Y016761D02*
X029320Y016761D01*
X029320Y016602D02*
X029340Y016602D01*
X029340Y016444D02*
X029320Y016444D01*
X029320Y016285D02*
X029340Y016285D01*
X029340Y016127D02*
X029320Y016127D01*
X029320Y015968D02*
X029340Y015968D01*
X029340Y015810D02*
X029320Y015810D01*
X029320Y015651D02*
X029340Y015651D01*
X029340Y015493D02*
X029320Y015493D01*
X029320Y015334D02*
X029340Y015334D01*
X029340Y015176D02*
X029320Y015176D01*
X029320Y015017D02*
X029340Y015017D01*
X029340Y014859D02*
X029320Y014859D01*
X029320Y014700D02*
X029340Y014700D01*
X029820Y014700D02*
X029840Y014700D01*
X029840Y014859D02*
X029820Y014859D01*
X029820Y015017D02*
X029840Y015017D01*
X029840Y015176D02*
X029820Y015176D01*
X029820Y015334D02*
X029840Y015334D01*
X029840Y015493D02*
X029820Y015493D01*
X029820Y015651D02*
X029840Y015651D01*
X029840Y015810D02*
X029820Y015810D01*
X029820Y015968D02*
X029840Y015968D01*
X029840Y016127D02*
X029820Y016127D01*
X029820Y016285D02*
X029840Y016285D01*
X029840Y016444D02*
X029820Y016444D01*
X029820Y016602D02*
X029840Y016602D01*
X029840Y016761D02*
X029820Y016761D01*
X029820Y016919D02*
X029840Y016919D01*
X029840Y017078D02*
X029820Y017078D01*
X029820Y017236D02*
X029840Y017236D01*
X029840Y017395D02*
X029820Y017395D01*
X029820Y017553D02*
X029840Y017553D01*
X029840Y017712D02*
X029754Y017712D01*
X029840Y017870D02*
X029595Y017870D01*
X029437Y018029D02*
X029840Y018029D01*
X029840Y018187D02*
X029291Y018187D01*
X029291Y018346D02*
X029840Y018346D01*
X029840Y018504D02*
X029291Y018504D01*
X029291Y018663D02*
X029840Y018663D01*
X029840Y018821D02*
X028270Y018821D01*
X028270Y018663D02*
X028337Y018663D01*
X028337Y018504D02*
X028270Y018504D01*
X028270Y018346D02*
X028337Y018346D01*
X028337Y018187D02*
X028270Y018187D01*
X028270Y018029D02*
X028337Y018029D01*
X028329Y017870D02*
X028407Y017870D01*
X028488Y017712D02*
X029075Y017712D01*
X027790Y018346D02*
X021130Y018346D01*
X021130Y018504D02*
X027790Y018504D01*
X027790Y018663D02*
X021130Y018663D01*
X021130Y018821D02*
X027790Y018821D01*
X027790Y018980D02*
X021130Y018980D01*
X021130Y019138D02*
X027790Y019138D01*
X027790Y019297D02*
X024445Y019297D01*
X024457Y019309D02*
X024457Y020051D01*
X024406Y020103D01*
X024406Y020987D01*
X024409Y020974D01*
X024433Y020933D01*
X024466Y020900D01*
X024507Y020876D01*
X024553Y020864D01*
X024734Y020864D01*
X024734Y021280D01*
X024734Y021696D01*
X024553Y021696D01*
X024507Y021684D01*
X024466Y021660D01*
X024433Y021627D01*
X024409Y021586D01*
X024397Y021540D01*
X024397Y021377D01*
X024363Y021458D01*
X024363Y021591D01*
X024258Y021696D01*
X024090Y021696D01*
X023964Y021823D01*
X023849Y021870D01*
X037792Y021870D01*
X037792Y001610D01*
X034695Y001610D01*
X034718Y001633D01*
X034741Y001689D01*
X034746Y001694D01*
X034746Y001701D01*
X034770Y001758D01*
X034770Y001893D01*
X034746Y001951D01*
X034746Y002158D01*
X034641Y002263D01*
X034404Y002263D01*
X034398Y002266D01*
X027471Y002266D01*
X027440Y002297D01*
X027641Y002297D01*
X027746Y002402D01*
X027746Y002866D01*
X027680Y002932D01*
X027680Y005772D01*
X027812Y005772D01*
X027917Y005877D01*
X027917Y006386D01*
X028016Y006485D01*
X028083Y006552D01*
X028120Y006641D01*
X028120Y008781D01*
X028716Y009377D01*
X028783Y009444D01*
X028820Y009532D01*
X028820Y009903D01*
X028830Y009913D01*
X028840Y009903D01*
X028840Y009329D01*
X028227Y008716D01*
X028190Y008628D01*
X028190Y004757D01*
X028053Y004757D01*
X027948Y004651D01*
X027948Y003909D01*
X028053Y003803D01*
X028184Y003803D01*
X028184Y002972D01*
X028019Y002972D01*
X027914Y002866D01*
X027914Y002402D01*
X028019Y002297D01*
X028641Y002297D01*
X028746Y002402D01*
X028746Y002866D01*
X028664Y002948D01*
X028664Y003803D01*
X028796Y003803D01*
X028901Y003909D01*
X028901Y004651D01*
X028796Y004757D01*
X028670Y004757D01*
X028670Y008481D01*
X029216Y009027D01*
X029283Y009094D01*
X029320Y009182D01*
X029320Y009903D01*
X029330Y009913D01*
X029340Y009903D01*
X029340Y006725D01*
X029037Y006725D01*
X028932Y006620D01*
X028932Y005877D01*
X029037Y005772D01*
X029169Y005772D01*
X029169Y002972D01*
X029019Y002972D01*
X028914Y002866D01*
X028914Y002402D01*
X029019Y002297D01*
X029641Y002297D01*
X029746Y002402D01*
X029746Y002866D01*
X029649Y002964D01*
X029649Y005772D01*
X029780Y005772D01*
X029840Y005832D01*
X029840Y004545D01*
X029877Y004457D01*
X029916Y004417D01*
X029916Y003909D01*
X030022Y003803D01*
X030153Y003803D01*
X030153Y002972D01*
X030019Y002972D01*
X029914Y002866D01*
X029914Y002402D01*
X030019Y002297D01*
X030641Y002297D01*
X030746Y002402D01*
X030746Y002866D01*
X030641Y002972D01*
X030633Y002972D01*
X030633Y003803D01*
X030764Y003803D01*
X030870Y003909D01*
X030870Y004651D01*
X030764Y004757D01*
X030320Y004757D01*
X030320Y009903D01*
X030330Y009913D01*
X030340Y009903D01*
X030340Y006998D01*
X030377Y006910D01*
X030444Y006842D01*
X030900Y006386D01*
X030900Y005877D01*
X031006Y005772D01*
X031137Y005772D01*
X031137Y002972D01*
X031019Y002972D01*
X030914Y002866D01*
X030914Y002402D01*
X031019Y002297D01*
X031641Y002297D01*
X031746Y002402D01*
X031746Y002866D01*
X031641Y002972D01*
X031617Y002972D01*
X031617Y005772D01*
X031749Y005772D01*
X031840Y005863D01*
X031840Y004514D01*
X031877Y004426D01*
X031885Y004417D01*
X031885Y003909D01*
X031990Y003803D01*
X032121Y003803D01*
X032121Y002972D01*
X032019Y002972D01*
X031914Y002866D01*
X031914Y002402D01*
X032019Y002297D01*
X032641Y002297D01*
X032746Y002402D01*
X032746Y002866D01*
X032641Y002972D01*
X032601Y002972D01*
X032601Y003803D01*
X032733Y003803D01*
X032838Y003909D01*
X032838Y004651D01*
X032733Y004757D01*
X032320Y004757D01*
X032320Y006935D01*
X032869Y006386D01*
X032869Y005877D01*
X032974Y005772D01*
X033106Y005772D01*
X033106Y002972D01*
X033019Y002972D01*
X032914Y002866D01*
X032914Y002402D01*
X033019Y002297D01*
X033641Y002297D01*
X033746Y002402D01*
X033746Y002866D01*
X033641Y002972D01*
X033586Y002972D01*
X033586Y005772D01*
X033717Y005772D01*
X033823Y005877D01*
X033823Y006620D01*
X033717Y006725D01*
X033208Y006725D01*
X031820Y008114D01*
X031820Y009903D01*
X031830Y009913D01*
X031840Y009903D01*
X031840Y008832D01*
X031877Y008744D01*
X031944Y008677D01*
X031820Y008677D01*
X031944Y008677D02*
X034090Y006531D01*
X034090Y004757D01*
X033959Y004757D01*
X033853Y004651D01*
X033853Y003909D01*
X033959Y003803D01*
X034090Y003803D01*
X034090Y002972D01*
X034019Y002972D01*
X033914Y002866D01*
X033914Y002402D01*
X034019Y002297D01*
X034641Y002297D01*
X034746Y002402D01*
X034746Y002866D01*
X034641Y002972D01*
X034570Y002972D01*
X034570Y003803D01*
X034701Y003803D01*
X034807Y003909D01*
X034807Y004651D01*
X034701Y004757D01*
X034570Y004757D01*
X034570Y006678D01*
X034533Y006766D01*
X032320Y008979D01*
X032320Y009903D01*
X032330Y009913D01*
X032351Y009892D01*
X032392Y009868D01*
X032438Y009856D01*
X032580Y009856D01*
X032722Y009856D01*
X032768Y009868D01*
X032809Y009892D01*
X032830Y009913D01*
X032887Y009856D01*
X033240Y009856D01*
X033240Y009095D01*
X033345Y008990D01*
X034093Y008990D01*
X034218Y009042D01*
X034314Y009137D01*
X034314Y009137D01*
X034540Y009364D01*
X034708Y009364D01*
X034813Y009469D01*
X034813Y009706D01*
X034816Y009712D01*
X034816Y009848D01*
X034813Y009854D01*
X034813Y010091D01*
X034708Y010196D01*
X034244Y010196D01*
X034138Y010091D01*
X034138Y009923D01*
X033920Y009705D01*
X033920Y010497D01*
X033878Y010598D01*
X033878Y010898D01*
X033773Y011003D01*
X033387Y011003D01*
X033330Y010946D01*
X033273Y011003D01*
X032887Y011003D01*
X032830Y010946D01*
X032809Y010967D01*
X032768Y010991D01*
X032722Y011003D01*
X032580Y011003D01*
X032438Y011003D01*
X032392Y010991D01*
X032351Y010967D01*
X032330Y010946D01*
X032273Y011003D01*
X031887Y011003D01*
X031830Y010946D01*
X031773Y011003D01*
X031387Y011003D01*
X031330Y010946D01*
X031273Y011003D01*
X030887Y011003D01*
X030830Y010946D01*
X030773Y011003D01*
X030387Y011003D01*
X030330Y010946D01*
X030273Y011003D01*
X029887Y011003D01*
X029830Y010946D01*
X029773Y011003D01*
X029387Y011003D01*
X029330Y010946D01*
X029273Y011003D01*
X028887Y011003D01*
X028830Y010946D01*
X028773Y011003D01*
X028387Y011003D01*
X028330Y010946D01*
X028309Y010967D01*
X028268Y010991D01*
X028222Y011003D01*
X028080Y011003D01*
X028080Y010430D01*
X028080Y010430D01*
X028080Y010430D01*
X027782Y010430D01*
X027782Y010012D01*
X027794Y009966D01*
X027818Y009925D01*
X027851Y009892D01*
X027892Y009868D01*
X027938Y009856D01*
X028080Y009856D01*
X028222Y009856D01*
X028268Y009868D01*
X028309Y009892D01*
X028330Y009913D01*
X028340Y009903D01*
X028340Y009679D01*
X027677Y009016D01*
X027640Y008928D01*
X027640Y006788D01*
X027578Y006725D01*
X027069Y006725D01*
X026963Y006620D01*
X026963Y005877D01*
X027069Y005772D01*
X027200Y005772D01*
X027200Y002972D01*
X027019Y002972D01*
X026914Y002866D01*
X026914Y002402D01*
X026946Y002370D01*
X024860Y002370D01*
X024860Y003212D01*
X024957Y003309D01*
X024957Y004051D01*
X024851Y004157D01*
X024109Y004157D01*
X024003Y004051D01*
X024003Y003309D01*
X024100Y003212D01*
X024100Y002404D01*
X024094Y002410D01*
X024053Y002434D01*
X024007Y002446D01*
X023826Y002446D01*
X023826Y002030D01*
X023826Y001614D01*
X024007Y001614D01*
X024053Y001626D01*
X024094Y001650D01*
X024127Y001683D01*
X024151Y001724D01*
X024163Y001770D01*
X024163Y001864D01*
X024197Y001830D01*
X024197Y001719D01*
X024302Y001614D01*
X024766Y001614D01*
X024843Y001690D01*
X026917Y001690D01*
X026997Y001610D01*
X010910Y001610D01*
X010910Y021870D01*
X013667Y021870D01*
X013564Y021766D01*
X013564Y021302D01*
X013669Y021197D01*
X013906Y021197D01*
X013912Y021194D01*
X023631Y021194D01*
X023646Y021179D01*
X023646Y020157D01*
X023609Y020157D01*
X023503Y020051D01*
X023503Y019309D01*
X023609Y019203D01*
X024351Y019203D01*
X024457Y019309D01*
X024457Y019455D02*
X027790Y019455D01*
X027790Y019614D02*
X024457Y019614D01*
X024457Y019772D02*
X027790Y019772D01*
X027353Y019931D02*
X024457Y019931D01*
X024419Y020089D02*
X027353Y020089D01*
X027353Y020248D02*
X024406Y020248D01*
X024406Y020406D02*
X027353Y020406D01*
X027353Y020565D02*
X024406Y020565D01*
X024406Y020723D02*
X027425Y020723D01*
X028235Y020723D02*
X029393Y020723D01*
X029322Y020565D02*
X028307Y020565D01*
X028307Y020406D02*
X029322Y020406D01*
X029322Y020248D02*
X028307Y020248D01*
X028307Y020089D02*
X029322Y020089D01*
X029322Y019931D02*
X028307Y019931D01*
X028270Y019772D02*
X029840Y019772D01*
X029840Y019614D02*
X028270Y019614D01*
X028270Y019455D02*
X029840Y019455D01*
X029840Y019297D02*
X028270Y019297D01*
X028270Y019138D02*
X029840Y019138D01*
X029840Y018980D02*
X028270Y018980D01*
X030320Y018980D02*
X031490Y018980D01*
X031490Y019138D02*
X030320Y019138D01*
X030320Y019297D02*
X031490Y019297D01*
X031490Y019455D02*
X030320Y019455D01*
X030320Y019614D02*
X031490Y019614D01*
X031490Y019772D02*
X030320Y019772D01*
X030320Y019931D02*
X031290Y019931D01*
X031290Y020089D02*
X030302Y020089D01*
X030275Y020248D02*
X031290Y020248D01*
X031290Y020406D02*
X030275Y020406D01*
X030275Y020565D02*
X031290Y020565D01*
X031362Y020723D02*
X030204Y020723D01*
X032172Y020723D02*
X033330Y020723D01*
X033259Y020565D02*
X032244Y020565D01*
X032244Y020406D02*
X033259Y020406D01*
X033259Y020248D02*
X032244Y020248D01*
X032244Y020089D02*
X033247Y020089D01*
X033240Y019931D02*
X032244Y019931D01*
X031970Y019772D02*
X033240Y019772D01*
X033240Y019614D02*
X031970Y019614D01*
X031970Y019455D02*
X033240Y019455D01*
X033240Y019297D02*
X031970Y019297D01*
X031970Y019138D02*
X033240Y019138D01*
X033240Y018980D02*
X031970Y018980D01*
X031970Y018821D02*
X033240Y018821D01*
X033228Y018663D02*
X033240Y018663D01*
X033228Y018504D02*
X033240Y018504D01*
X033228Y018346D02*
X033240Y018346D01*
X033228Y018187D02*
X033240Y018187D01*
X033228Y018029D02*
X033240Y018029D01*
X033240Y017870D02*
X033158Y017870D01*
X033172Y017712D02*
X032491Y017712D01*
X032332Y017553D02*
X033014Y017553D01*
X032855Y017395D02*
X032174Y017395D01*
X032015Y017236D02*
X032697Y017236D01*
X032538Y017078D02*
X031857Y017078D01*
X031820Y016919D02*
X032380Y016919D01*
X032221Y016761D02*
X031820Y016761D01*
X031820Y016602D02*
X032063Y016602D01*
X031904Y016444D02*
X031820Y016444D01*
X031820Y016285D02*
X031840Y016285D01*
X031840Y016127D02*
X031820Y016127D01*
X031820Y015968D02*
X031840Y015968D01*
X031840Y015810D02*
X031820Y015810D01*
X031820Y015651D02*
X031840Y015651D01*
X031840Y015493D02*
X031820Y015493D01*
X031820Y015334D02*
X031840Y015334D01*
X031840Y015176D02*
X031820Y015176D01*
X031820Y015017D02*
X031840Y015017D01*
X031840Y014859D02*
X031820Y014859D01*
X031820Y014700D02*
X031840Y014700D01*
X031340Y014700D02*
X031320Y014700D01*
X031320Y014859D02*
X031340Y014859D01*
X031340Y015017D02*
X031320Y015017D01*
X031320Y015176D02*
X031340Y015176D01*
X031340Y015334D02*
X031320Y015334D01*
X031320Y015493D02*
X031340Y015493D01*
X031340Y015651D02*
X031320Y015651D01*
X031320Y015810D02*
X031340Y015810D01*
X031340Y015968D02*
X031320Y015968D01*
X031320Y016127D02*
X031340Y016127D01*
X031340Y016285D02*
X031320Y016285D01*
X031320Y016444D02*
X031340Y016444D01*
X031340Y016602D02*
X031320Y016602D01*
X031320Y016761D02*
X031340Y016761D01*
X031340Y016919D02*
X031320Y016919D01*
X031320Y017078D02*
X031340Y017078D01*
X031320Y017236D02*
X031360Y017236D01*
X031320Y017395D02*
X031495Y017395D01*
X031442Y017553D02*
X031653Y017553D01*
X031601Y017712D02*
X031812Y017712D01*
X031759Y017870D02*
X031970Y017870D01*
X031918Y018029D02*
X032129Y018029D01*
X032274Y018187D02*
X031970Y018187D01*
X031970Y018346D02*
X032274Y018346D01*
X032274Y018504D02*
X031970Y018504D01*
X031970Y018663D02*
X032274Y018663D01*
X031490Y018663D02*
X031260Y018663D01*
X031260Y018504D02*
X031490Y018504D01*
X031490Y018346D02*
X031260Y018346D01*
X031260Y018187D02*
X031398Y018187D01*
X031490Y018821D02*
X030320Y018821D01*
X033720Y018821D02*
X037792Y018821D01*
X037792Y018663D02*
X035197Y018663D01*
X035197Y018504D02*
X037792Y018504D01*
X037792Y018346D02*
X035197Y018346D01*
X035197Y018187D02*
X037792Y018187D01*
X037792Y018029D02*
X035197Y018029D01*
X035127Y017870D02*
X037792Y017870D01*
X037792Y017712D02*
X034459Y017712D01*
X034301Y017553D02*
X037792Y017553D01*
X037792Y017395D02*
X034142Y017395D01*
X033984Y017236D02*
X037792Y017236D01*
X037792Y017078D02*
X033825Y017078D01*
X033667Y016919D02*
X037792Y016919D01*
X037792Y016761D02*
X033508Y016761D01*
X033350Y016602D02*
X037792Y016602D01*
X037792Y016444D02*
X033191Y016444D01*
X033033Y016285D02*
X037792Y016285D01*
X037792Y016127D02*
X032874Y016127D01*
X032820Y015968D02*
X034356Y015968D01*
X034370Y015972D02*
X034324Y015960D01*
X034283Y015936D01*
X034250Y015902D01*
X034226Y015861D01*
X034214Y015816D01*
X034214Y015634D01*
X034214Y015453D01*
X034226Y015407D01*
X034250Y015366D01*
X034283Y015333D01*
X034324Y015309D01*
X034370Y015297D01*
X034630Y015297D01*
X034890Y015297D01*
X034936Y015309D01*
X034977Y015333D01*
X035010Y015366D01*
X035034Y015407D01*
X035046Y015453D01*
X035046Y015634D01*
X034630Y015634D01*
X034630Y015297D01*
X034630Y015634D01*
X034630Y015634D01*
X034630Y015634D01*
X034214Y015634D01*
X034630Y015634D01*
X034630Y015634D01*
X035046Y015634D01*
X035046Y015816D01*
X035034Y015861D01*
X035010Y015902D01*
X034977Y015936D01*
X034936Y015960D01*
X034890Y015972D01*
X034630Y015972D01*
X034370Y015972D01*
X034214Y015810D02*
X032820Y015810D01*
X032820Y015651D02*
X034214Y015651D01*
X034214Y015493D02*
X032820Y015493D01*
X032820Y015334D02*
X034282Y015334D01*
X034630Y015334D02*
X034630Y015334D01*
X034630Y015493D02*
X034630Y015493D01*
X034630Y015634D02*
X034630Y015972D01*
X034630Y015634D01*
X034630Y015634D01*
X034630Y015651D02*
X034630Y015651D01*
X034630Y015810D02*
X034630Y015810D01*
X034630Y015968D02*
X034630Y015968D01*
X034904Y015968D02*
X037792Y015968D01*
X037792Y015810D02*
X035046Y015810D01*
X035046Y015651D02*
X037792Y015651D01*
X037792Y015493D02*
X035046Y015493D01*
X034978Y015334D02*
X037792Y015334D01*
X037792Y015176D02*
X035028Y015176D01*
X035046Y015017D02*
X037792Y015017D01*
X037792Y014859D02*
X035046Y014859D01*
X035046Y014700D02*
X037792Y014700D01*
X037792Y014542D02*
X033960Y014542D01*
X033960Y014383D02*
X037792Y014383D01*
X037792Y014225D02*
X033960Y014225D01*
X033960Y014066D02*
X037792Y014066D01*
X037792Y013908D02*
X033895Y013908D01*
X033080Y013908D02*
X033080Y013908D01*
X033080Y014066D02*
X033080Y014066D01*
X033080Y014130D02*
X033080Y013557D01*
X033080Y014130D01*
X033080Y014130D01*
X033080Y014704D01*
X033080Y014130D01*
X033080Y014130D01*
X033080Y014225D02*
X033080Y014225D01*
X033080Y014383D02*
X033080Y014383D01*
X033080Y014542D02*
X033080Y014542D01*
X033080Y014700D02*
X033080Y014700D01*
X032923Y014700D02*
X032820Y014700D01*
X032820Y014859D02*
X033200Y014859D01*
X033205Y015017D02*
X032820Y015017D01*
X032820Y015176D02*
X033251Y015176D01*
X033080Y013749D02*
X033080Y013749D01*
X033080Y013591D02*
X033080Y013591D01*
X033305Y013591D02*
X033353Y013591D01*
X032855Y013591D02*
X032807Y013591D01*
X032353Y013591D02*
X032307Y013591D01*
X031853Y013591D02*
X031807Y013591D01*
X031353Y013591D02*
X031307Y013591D01*
X030853Y013591D02*
X030807Y013591D01*
X030353Y013591D02*
X030307Y013591D01*
X029853Y013591D02*
X029807Y013591D01*
X029353Y013591D02*
X029307Y013591D01*
X028853Y013591D02*
X028805Y013591D01*
X028580Y013591D02*
X028580Y013591D01*
X028580Y013749D02*
X028580Y013749D01*
X028580Y013908D02*
X028580Y013908D01*
X028580Y014066D02*
X028580Y014066D01*
X028580Y014225D02*
X028580Y014225D01*
X028580Y014383D02*
X028580Y014383D01*
X028580Y014542D02*
X028580Y014542D01*
X027923Y014700D02*
X019868Y014700D01*
X019740Y014542D02*
X020289Y014542D01*
X020111Y014383D02*
X019740Y014383D01*
X019740Y014225D02*
X019907Y014225D01*
X019755Y014066D02*
X019740Y014066D01*
X019980Y013930D02*
X019980Y013030D01*
X019480Y013030D02*
X019480Y014680D01*
X020870Y016070D01*
X020870Y017211D01*
X020870Y020715D01*
X020980Y020826D01*
X021396Y020882D02*
X023646Y020882D01*
X023646Y021040D02*
X021396Y021040D01*
X021396Y020723D02*
X023646Y020723D01*
X023646Y020565D02*
X021367Y020565D01*
X021130Y020406D02*
X023646Y020406D01*
X023646Y020248D02*
X021130Y020248D01*
X021130Y020089D02*
X023541Y020089D01*
X023503Y019931D02*
X021130Y019931D01*
X021130Y019772D02*
X023503Y019772D01*
X023503Y019614D02*
X021130Y019614D01*
X021130Y019455D02*
X023503Y019455D01*
X023515Y019297D02*
X021130Y019297D01*
X020610Y019297D02*
X020362Y019297D01*
X020362Y019455D02*
X020610Y019455D01*
X020610Y019614D02*
X020300Y019614D01*
X020146Y019772D02*
X020610Y019772D01*
X020610Y019931D02*
X020146Y019931D01*
X020146Y020089D02*
X020610Y020089D01*
X020610Y020248D02*
X020146Y020248D01*
X020146Y020406D02*
X020610Y020406D01*
X020593Y020565D02*
X020367Y020565D01*
X020396Y020723D02*
X020564Y020723D01*
X020564Y020882D02*
X020396Y020882D01*
X020396Y021040D02*
X020564Y021040D01*
X019980Y020826D02*
X019886Y020731D01*
X019886Y019180D01*
X019730Y019024D02*
X019730Y016730D01*
X019730Y016430D01*
X018980Y015680D01*
X018980Y013030D01*
X018480Y013030D02*
X018480Y016790D01*
X018901Y017211D01*
X018901Y020747D01*
X018980Y020826D01*
X019396Y020882D02*
X019564Y020882D01*
X019564Y021040D02*
X019396Y021040D01*
X019396Y020723D02*
X019564Y020723D01*
X019593Y020565D02*
X019367Y020565D01*
X019161Y020406D02*
X019626Y020406D01*
X019626Y020248D02*
X019161Y020248D01*
X019161Y020089D02*
X019626Y020089D01*
X019626Y019931D02*
X019161Y019931D01*
X019161Y019772D02*
X019626Y019772D01*
X019471Y019614D02*
X019161Y019614D01*
X019161Y019455D02*
X019409Y019455D01*
X019409Y019297D02*
X019161Y019297D01*
X019161Y019138D02*
X019409Y019138D01*
X019409Y018980D02*
X019161Y018980D01*
X019161Y018821D02*
X019409Y018821D01*
X019470Y018663D02*
X019161Y018663D01*
X019161Y018504D02*
X019470Y018504D01*
X019470Y018346D02*
X019161Y018346D01*
X019161Y018187D02*
X019470Y018187D01*
X019470Y018029D02*
X019161Y018029D01*
X019161Y017870D02*
X019470Y017870D01*
X019470Y017712D02*
X019161Y017712D01*
X019378Y017553D02*
X019470Y017553D01*
X019470Y017395D02*
X019378Y017395D01*
X019378Y017236D02*
X019470Y017236D01*
X019470Y017078D02*
X019378Y017078D01*
X019378Y016919D02*
X019470Y016919D01*
X019470Y016761D02*
X019299Y016761D01*
X019470Y016602D02*
X018740Y016602D01*
X018740Y016444D02*
X019376Y016444D01*
X019217Y016285D02*
X018740Y016285D01*
X018740Y016127D02*
X019059Y016127D01*
X018900Y015968D02*
X018740Y015968D01*
X018740Y015810D02*
X018752Y015810D01*
X019319Y015651D02*
X020083Y015651D01*
X019925Y015493D02*
X019240Y015493D01*
X019240Y015334D02*
X019766Y015334D01*
X019608Y015176D02*
X019240Y015176D01*
X019240Y015017D02*
X019449Y015017D01*
X019291Y014859D02*
X019240Y014859D01*
X019980Y013930D02*
X020180Y014130D01*
X020526Y014130D01*
X020576Y014180D01*
X020913Y014225D02*
X020947Y014225D01*
X020947Y014383D02*
X020913Y014383D01*
X020862Y014542D02*
X020998Y014542D01*
X021284Y014180D02*
X021376Y014089D01*
X020947Y014066D02*
X020913Y014066D01*
X020913Y013908D02*
X020947Y013908D01*
X021036Y013749D02*
X020240Y013749D01*
X020240Y013591D02*
X020274Y013591D01*
X020686Y013591D02*
X021036Y013591D01*
X022232Y013908D02*
X027782Y013908D01*
X027782Y014066D02*
X022294Y014066D01*
X022310Y014225D02*
X027782Y014225D01*
X027782Y014383D02*
X022270Y014383D01*
X022050Y014542D02*
X027782Y014542D01*
X028305Y013591D02*
X028355Y013591D01*
X023998Y012957D02*
X023962Y012957D01*
X023962Y012798D02*
X023998Y012798D01*
X021810Y014542D02*
X021571Y014542D01*
X020242Y015810D02*
X019477Y015810D01*
X019636Y015968D02*
X020400Y015968D01*
X020559Y016127D02*
X019794Y016127D01*
X019951Y016285D02*
X020610Y016285D01*
X020610Y016444D02*
X019990Y016444D01*
X019990Y016602D02*
X020610Y016602D01*
X020472Y016761D02*
X019990Y016761D01*
X019990Y016919D02*
X020393Y016919D01*
X020393Y017078D02*
X019990Y017078D01*
X019990Y017236D02*
X020393Y017236D01*
X020393Y017395D02*
X019990Y017395D01*
X019990Y017553D02*
X020393Y017553D01*
X020610Y017712D02*
X019990Y017712D01*
X019990Y017870D02*
X020610Y017870D01*
X020610Y018029D02*
X019990Y018029D01*
X019990Y018187D02*
X020610Y018187D01*
X020610Y018346D02*
X019990Y018346D01*
X019990Y018504D02*
X020610Y018504D01*
X020610Y018663D02*
X019990Y018663D01*
X020362Y018821D02*
X020610Y018821D01*
X020610Y018980D02*
X020362Y018980D01*
X020362Y019138D02*
X020610Y019138D01*
X018641Y019138D02*
X018394Y019138D01*
X018394Y018980D02*
X018641Y018980D01*
X018641Y018821D02*
X018394Y018821D01*
X018641Y018663D02*
X017990Y018663D01*
X017990Y018504D02*
X018641Y018504D01*
X018641Y018346D02*
X017990Y018346D01*
X017990Y018187D02*
X018641Y018187D01*
X018641Y018029D02*
X017990Y018029D01*
X017990Y017870D02*
X018641Y017870D01*
X018641Y017712D02*
X017990Y017712D01*
X017990Y017553D02*
X018424Y017553D01*
X018424Y017395D02*
X017990Y017395D01*
X017990Y017236D02*
X018424Y017236D01*
X018400Y017078D02*
X017990Y017078D01*
X017990Y016919D02*
X018252Y016919D01*
X018220Y016761D02*
X018067Y016761D01*
X018211Y016602D02*
X018220Y016602D01*
X017980Y016480D02*
X017730Y016730D01*
X017730Y018993D01*
X017917Y019180D02*
X017917Y020763D01*
X017980Y020826D01*
X018396Y020882D02*
X018564Y020882D01*
X018564Y021040D02*
X018396Y021040D01*
X018396Y020723D02*
X018564Y020723D01*
X018593Y020565D02*
X018367Y020565D01*
X018177Y020406D02*
X018641Y020406D01*
X018641Y020248D02*
X018177Y020248D01*
X018177Y020089D02*
X018641Y020089D01*
X018641Y019931D02*
X018177Y019931D01*
X018177Y019772D02*
X018641Y019772D01*
X018641Y019614D02*
X018332Y019614D01*
X018394Y019455D02*
X018641Y019455D01*
X018641Y019297D02*
X018394Y019297D01*
X017657Y019772D02*
X017193Y019772D01*
X017193Y019614D02*
X017502Y019614D01*
X017440Y019455D02*
X017193Y019455D01*
X017193Y019297D02*
X017440Y019297D01*
X017440Y019138D02*
X017193Y019138D01*
X017193Y018980D02*
X017440Y018980D01*
X017440Y018821D02*
X017193Y018821D01*
X017193Y018663D02*
X017470Y018663D01*
X017470Y018504D02*
X017193Y018504D01*
X017193Y018346D02*
X017470Y018346D01*
X017470Y018187D02*
X017193Y018187D01*
X017193Y018029D02*
X017470Y018029D01*
X017470Y017870D02*
X017193Y017870D01*
X017193Y017712D02*
X017470Y017712D01*
X017470Y017553D02*
X017410Y017553D01*
X017410Y017395D02*
X017470Y017395D01*
X017470Y017236D02*
X017410Y017236D01*
X017410Y017078D02*
X017470Y017078D01*
X017470Y016919D02*
X017410Y016919D01*
X017470Y016761D02*
X017330Y016761D01*
X017240Y016602D02*
X017502Y016602D01*
X017649Y016444D02*
X017334Y016444D01*
X017493Y016285D02*
X017720Y016285D01*
X017720Y016127D02*
X017651Y016127D01*
X017480Y015930D02*
X016980Y016430D01*
X016980Y017164D01*
X016933Y017211D01*
X016933Y020778D01*
X016980Y020826D01*
X017396Y020882D02*
X017564Y020882D01*
X017564Y021040D02*
X017396Y021040D01*
X017396Y020723D02*
X017564Y020723D01*
X017593Y020565D02*
X017367Y020565D01*
X017193Y020406D02*
X017657Y020406D01*
X017657Y020248D02*
X017193Y020248D01*
X017193Y020089D02*
X017657Y020089D01*
X017657Y019931D02*
X017193Y019931D01*
X016673Y019931D02*
X016209Y019931D01*
X016209Y020089D02*
X016673Y020089D01*
X016673Y020248D02*
X016209Y020248D01*
X016209Y020406D02*
X016673Y020406D01*
X016593Y020565D02*
X016367Y020565D01*
X016396Y020723D02*
X016564Y020723D01*
X016564Y020882D02*
X016396Y020882D01*
X016396Y021040D02*
X016564Y021040D01*
X015980Y020826D02*
X015949Y020794D01*
X015949Y019180D01*
X015980Y019149D01*
X015980Y016680D01*
X016980Y015680D01*
X016980Y013030D01*
X016480Y013030D02*
X016480Y015180D01*
X014964Y016696D01*
X014964Y017211D01*
X014964Y020810D01*
X014980Y020826D01*
X015396Y020882D02*
X015564Y020882D01*
X015564Y021040D02*
X015396Y021040D01*
X015396Y020723D02*
X015564Y020723D01*
X015593Y020565D02*
X015367Y020565D01*
X015224Y020406D02*
X015689Y020406D01*
X015689Y020248D02*
X015224Y020248D01*
X015224Y020089D02*
X015689Y020089D01*
X015689Y019931D02*
X015224Y019931D01*
X015224Y019772D02*
X015689Y019772D01*
X015534Y019614D02*
X015224Y019614D01*
X015224Y019455D02*
X015472Y019455D01*
X015472Y019297D02*
X015224Y019297D01*
X015224Y019138D02*
X015472Y019138D01*
X015472Y018980D02*
X015224Y018980D01*
X015224Y018821D02*
X015472Y018821D01*
X015224Y018663D02*
X015720Y018663D01*
X015720Y018504D02*
X015224Y018504D01*
X015224Y018346D02*
X015720Y018346D01*
X015720Y018187D02*
X015224Y018187D01*
X015224Y018029D02*
X015720Y018029D01*
X015720Y017870D02*
X015224Y017870D01*
X015224Y017712D02*
X015720Y017712D01*
X015720Y017553D02*
X015441Y017553D01*
X015441Y017395D02*
X015720Y017395D01*
X015720Y017236D02*
X015441Y017236D01*
X015441Y017078D02*
X015720Y017078D01*
X015720Y016919D02*
X015441Y016919D01*
X015362Y016761D02*
X015720Y016761D01*
X015731Y016602D02*
X015426Y016602D01*
X015584Y016444D02*
X015849Y016444D01*
X015743Y016285D02*
X016007Y016285D01*
X015901Y016127D02*
X016166Y016127D01*
X016060Y015968D02*
X016324Y015968D01*
X016218Y015810D02*
X016483Y015810D01*
X016377Y015651D02*
X016641Y015651D01*
X016720Y015493D02*
X016535Y015493D01*
X016694Y015334D02*
X016720Y015334D01*
X016117Y015176D02*
X015602Y015176D01*
X015444Y015334D02*
X015958Y015334D01*
X015800Y015493D02*
X015285Y015493D01*
X015127Y015651D02*
X015641Y015651D01*
X015483Y015810D02*
X014968Y015810D01*
X014810Y015968D02*
X015324Y015968D01*
X015166Y016127D02*
X014651Y016127D01*
X014493Y016285D02*
X015007Y016285D01*
X014849Y016444D02*
X014334Y016444D01*
X014240Y016602D02*
X014722Y016602D01*
X014567Y016761D02*
X014240Y016761D01*
X014240Y016919D02*
X014487Y016919D01*
X014487Y017078D02*
X014240Y017078D01*
X014240Y017236D02*
X014487Y017236D01*
X014487Y017395D02*
X014240Y017395D01*
X014240Y017553D02*
X014487Y017553D01*
X014704Y017712D02*
X014240Y017712D01*
X014240Y017870D02*
X014704Y017870D01*
X014704Y018029D02*
X014240Y018029D01*
X014240Y018187D02*
X014704Y018187D01*
X014704Y018346D02*
X014240Y018346D01*
X014240Y018504D02*
X014704Y018504D01*
X014704Y018663D02*
X014240Y018663D01*
X014457Y018821D02*
X014704Y018821D01*
X014704Y018980D02*
X014457Y018980D01*
X014457Y019138D02*
X014704Y019138D01*
X014704Y019297D02*
X014457Y019297D01*
X014457Y019455D02*
X014704Y019455D01*
X014704Y019614D02*
X014395Y019614D01*
X014240Y019772D02*
X014704Y019772D01*
X014704Y019931D02*
X014240Y019931D01*
X014240Y020089D02*
X014704Y020089D01*
X014704Y020248D02*
X014240Y020248D01*
X014240Y020406D02*
X014704Y020406D01*
X014593Y020565D02*
X014367Y020565D01*
X014396Y020723D02*
X014564Y020723D01*
X014564Y020882D02*
X014396Y020882D01*
X014396Y021040D02*
X014564Y021040D01*
X013980Y020826D02*
X013980Y019180D01*
X013980Y016430D01*
X015980Y014430D01*
X015980Y013030D01*
X015290Y013591D02*
X015170Y013591D01*
X014980Y013591D02*
X014980Y013591D01*
X014980Y013604D02*
X014980Y013030D01*
X014980Y013030D01*
X014980Y013604D01*
X014980Y013432D02*
X014980Y013432D01*
X014980Y013274D02*
X014980Y013274D01*
X014980Y013115D02*
X014980Y013115D01*
X014980Y012957D02*
X014980Y012957D01*
X014980Y012798D02*
X014980Y012798D01*
X014980Y012640D02*
X014980Y012640D01*
X014980Y012481D02*
X014980Y012481D01*
X015188Y012481D02*
X015272Y012481D01*
X014772Y012481D02*
X014060Y012481D01*
X014051Y012640D02*
X014682Y012640D01*
X014682Y012798D02*
X014008Y012798D01*
X013962Y012957D02*
X014682Y012957D01*
X014682Y013115D02*
X013870Y013115D01*
X013767Y013274D02*
X014682Y013274D01*
X014682Y013432D02*
X013609Y013432D01*
X013380Y013591D02*
X014790Y013591D01*
X015720Y013908D02*
X010910Y013908D01*
X010910Y014066D02*
X015720Y014066D01*
X015720Y014225D02*
X010910Y014225D01*
X010910Y014383D02*
X015659Y014383D01*
X015501Y014542D02*
X010910Y014542D01*
X010910Y014700D02*
X015342Y014700D01*
X015184Y014859D02*
X010910Y014859D01*
X010910Y015017D02*
X015025Y015017D01*
X014867Y015176D02*
X010910Y015176D01*
X010910Y015334D02*
X014708Y015334D01*
X014550Y015493D02*
X010910Y015493D01*
X010910Y015651D02*
X014391Y015651D01*
X014233Y015810D02*
X010910Y015810D01*
X010910Y015968D02*
X014074Y015968D01*
X013916Y016127D02*
X010910Y016127D01*
X010910Y016285D02*
X013759Y016285D01*
X013720Y016444D02*
X010910Y016444D01*
X010910Y016602D02*
X013720Y016602D01*
X013720Y016761D02*
X010910Y016761D01*
X010910Y016919D02*
X013720Y016919D01*
X013720Y017078D02*
X010910Y017078D01*
X010910Y017236D02*
X013720Y017236D01*
X013720Y017395D02*
X010910Y017395D01*
X010910Y017553D02*
X013720Y017553D01*
X013720Y017712D02*
X010910Y017712D01*
X010910Y017870D02*
X013720Y017870D01*
X013720Y018029D02*
X010910Y018029D01*
X010910Y018187D02*
X013720Y018187D01*
X013720Y018346D02*
X010910Y018346D01*
X010910Y018504D02*
X013720Y018504D01*
X013720Y018663D02*
X010910Y018663D01*
X010910Y018821D02*
X013503Y018821D01*
X013503Y018980D02*
X010910Y018980D01*
X010910Y019138D02*
X013503Y019138D01*
X013503Y019297D02*
X010910Y019297D01*
X010910Y019455D02*
X013503Y019455D01*
X013565Y019614D02*
X010910Y019614D01*
X010910Y019772D02*
X013720Y019772D01*
X013720Y019931D02*
X010910Y019931D01*
X010910Y020089D02*
X013720Y020089D01*
X013720Y020248D02*
X010910Y020248D01*
X010910Y020406D02*
X013720Y020406D01*
X013593Y020565D02*
X010910Y020565D01*
X010910Y020723D02*
X013564Y020723D01*
X013564Y020882D02*
X010910Y020882D01*
X010910Y021040D02*
X013564Y021040D01*
X013668Y021199D02*
X010910Y021199D01*
X010910Y021357D02*
X013564Y021357D01*
X013564Y021516D02*
X010910Y021516D01*
X010910Y021674D02*
X013564Y021674D01*
X013630Y021833D02*
X010910Y021833D01*
X016209Y019772D02*
X016673Y019772D01*
X016673Y019614D02*
X016363Y019614D01*
X016425Y019455D02*
X016673Y019455D01*
X016673Y019297D02*
X016425Y019297D01*
X016425Y019138D02*
X016673Y019138D01*
X016673Y018980D02*
X016425Y018980D01*
X016425Y018821D02*
X016673Y018821D01*
X016673Y018663D02*
X016240Y018663D01*
X016240Y018504D02*
X016673Y018504D01*
X016673Y018346D02*
X016240Y018346D01*
X016240Y018187D02*
X016673Y018187D01*
X016673Y018029D02*
X016240Y018029D01*
X016240Y017870D02*
X016673Y017870D01*
X016673Y017712D02*
X016240Y017712D01*
X016240Y017553D02*
X016456Y017553D01*
X016456Y017395D02*
X016240Y017395D01*
X016240Y017236D02*
X016456Y017236D01*
X016456Y017078D02*
X016240Y017078D01*
X016240Y016919D02*
X016456Y016919D01*
X016535Y016761D02*
X016267Y016761D01*
X016426Y016602D02*
X016720Y016602D01*
X016720Y016444D02*
X016584Y016444D01*
X016743Y016285D02*
X016759Y016285D01*
X016901Y016127D02*
X016916Y016127D01*
X017060Y015968D02*
X017074Y015968D01*
X017127Y015900D02*
X017127Y015900D01*
X017208Y015810D02*
X017220Y015810D01*
X017480Y015930D02*
X017480Y013030D01*
X017980Y013030D02*
X017980Y016480D01*
X016220Y015017D02*
X015761Y015017D01*
X015919Y014859D02*
X016220Y014859D01*
X016220Y014700D02*
X016078Y014700D01*
X016215Y014542D02*
X016220Y014542D01*
X010910Y010579D02*
X027782Y010579D01*
X027782Y010421D02*
X010910Y010421D01*
X010910Y010262D02*
X027782Y010262D01*
X027782Y010104D02*
X010910Y010104D01*
X010910Y009945D02*
X027807Y009945D01*
X028080Y009945D02*
X028080Y009945D01*
X028080Y009856D02*
X028080Y010430D01*
X028080Y010430D01*
X028080Y009856D01*
X028080Y010104D02*
X028080Y010104D01*
X028080Y010262D02*
X028080Y010262D01*
X028080Y010421D02*
X028080Y010421D01*
X028080Y010579D02*
X028080Y010579D01*
X028080Y010738D02*
X028080Y010738D01*
X028080Y010896D02*
X028080Y010896D01*
X028340Y009787D02*
X020778Y009787D01*
X020778Y009798D02*
X020673Y009903D01*
X020287Y009903D01*
X020230Y009846D01*
X020173Y009903D01*
X019787Y009903D01*
X019730Y009846D01*
X019709Y009867D01*
X019668Y009891D01*
X019622Y009903D01*
X019480Y009903D01*
X019338Y009903D01*
X019292Y009891D01*
X019251Y009867D01*
X019230Y009846D01*
X019173Y009903D01*
X018787Y009903D01*
X018730Y009846D01*
X018673Y009903D01*
X018287Y009903D01*
X018230Y009846D01*
X018173Y009903D01*
X017787Y009903D01*
X017730Y009846D01*
X017673Y009903D01*
X017287Y009903D01*
X017230Y009846D01*
X017173Y009903D01*
X016787Y009903D01*
X016730Y009846D01*
X016673Y009903D01*
X016287Y009903D01*
X016230Y009846D01*
X016173Y009903D01*
X015787Y009903D01*
X015730Y009846D01*
X015673Y009903D01*
X015287Y009903D01*
X015230Y009846D01*
X015209Y009867D01*
X015168Y009891D01*
X015122Y009903D01*
X014980Y009903D01*
X014838Y009903D01*
X014792Y009891D01*
X014751Y009867D01*
X014718Y009834D01*
X014694Y009793D01*
X014682Y009747D01*
X014682Y009330D01*
X014980Y009330D01*
X014980Y009903D01*
X014980Y009330D01*
X014980Y009330D01*
X014980Y009330D01*
X014682Y009330D01*
X014682Y008912D01*
X014694Y008866D01*
X014718Y008825D01*
X014751Y008792D01*
X014792Y008768D01*
X014838Y008756D01*
X014980Y008756D01*
X015122Y008756D01*
X015168Y008768D01*
X015209Y008792D01*
X015220Y008803D01*
X015220Y008288D01*
X013510Y006577D01*
X013470Y006482D01*
X013470Y005625D01*
X013219Y005625D01*
X013113Y005520D01*
X013113Y004777D01*
X013219Y004672D01*
X013962Y004672D01*
X014067Y004777D01*
X014067Y005520D01*
X013990Y005597D01*
X013990Y006322D01*
X015627Y007960D01*
X015700Y008033D01*
X015720Y008080D01*
X015720Y007288D01*
X014510Y006077D01*
X014470Y005982D01*
X014470Y003657D01*
X014203Y003657D01*
X014098Y003551D01*
X014098Y002809D01*
X014203Y002703D01*
X014946Y002703D01*
X015051Y002809D01*
X015051Y003551D01*
X014990Y003613D01*
X014990Y005822D01*
X016200Y007033D01*
X016220Y007080D01*
X016220Y006788D01*
X015510Y006077D01*
X015470Y005982D01*
X015470Y005625D01*
X015187Y005625D01*
X015082Y005520D01*
X015082Y004777D01*
X015187Y004672D01*
X015930Y004672D01*
X016036Y004777D01*
X016036Y005520D01*
X015990Y005566D01*
X015990Y005822D01*
X016627Y006460D01*
X016700Y006533D01*
X016720Y006580D01*
X016720Y006288D01*
X016260Y005827D01*
X016220Y005732D01*
X016220Y003657D01*
X016172Y003657D01*
X016066Y003551D01*
X016066Y002809D01*
X016172Y002703D01*
X016914Y002703D01*
X017020Y002809D01*
X017020Y003551D01*
X016914Y003657D01*
X016740Y003657D01*
X016740Y005572D01*
X017127Y005960D01*
X017200Y006033D01*
X017220Y006080D01*
X017220Y005625D01*
X017156Y005625D01*
X017050Y005520D01*
X017050Y004777D01*
X017156Y004672D01*
X017899Y004672D01*
X018004Y004777D01*
X018004Y005520D01*
X017899Y005625D01*
X017740Y005625D01*
X017740Y007330D01*
X017760Y007283D01*
X017833Y007210D01*
X018220Y006822D01*
X018220Y003657D01*
X018140Y003657D01*
X018035Y003551D01*
X018035Y002809D01*
X018140Y002703D01*
X018883Y002703D01*
X018988Y002809D01*
X018988Y003551D01*
X018883Y003657D01*
X018740Y003657D01*
X018740Y006982D01*
X018700Y007077D01*
X018240Y007538D01*
X018240Y007580D01*
X018260Y007533D01*
X018333Y007460D01*
X019220Y006572D01*
X019220Y005625D01*
X019124Y005625D01*
X019019Y005520D01*
X019019Y004777D01*
X019124Y004672D01*
X019867Y004672D01*
X019973Y004777D01*
X019973Y005520D01*
X019867Y005625D01*
X019740Y005625D01*
X019740Y006732D01*
X019700Y006827D01*
X018740Y007788D01*
X018740Y008080D01*
X018760Y008033D01*
X018833Y007960D01*
X020220Y006572D01*
X020220Y003657D01*
X020109Y003657D01*
X020003Y003551D01*
X020003Y002809D01*
X020109Y002703D01*
X020851Y002703D01*
X020957Y002809D01*
X020957Y003551D01*
X020851Y003657D01*
X020740Y003657D01*
X020740Y006732D01*
X020700Y006827D01*
X019240Y008288D01*
X019240Y008803D01*
X019251Y008792D01*
X019292Y008768D01*
X019338Y008756D01*
X019480Y008756D01*
X019622Y008756D01*
X019668Y008768D01*
X019709Y008792D01*
X019730Y008813D01*
X019787Y008756D01*
X020173Y008756D01*
X020230Y008813D01*
X020287Y008756D01*
X020640Y008756D01*
X020640Y008295D01*
X020745Y008190D01*
X021215Y008190D01*
X021320Y008295D01*
X021320Y008389D01*
X021568Y008637D01*
X021664Y008733D01*
X021716Y008858D01*
X021716Y009248D01*
X021713Y009254D01*
X021713Y009491D01*
X021608Y009596D01*
X021144Y009596D01*
X021067Y009520D01*
X020778Y009520D01*
X020778Y009798D01*
X020778Y009628D02*
X028289Y009628D01*
X028130Y009470D02*
X022414Y009470D01*
X022410Y009486D02*
X022386Y009527D01*
X022352Y009560D01*
X022311Y009584D01*
X022266Y009596D01*
X022084Y009596D01*
X021903Y009596D01*
X021857Y009584D01*
X021816Y009560D01*
X021783Y009527D01*
X021759Y009486D01*
X021747Y009440D01*
X021747Y009180D01*
X021747Y008920D01*
X021759Y008874D01*
X021783Y008833D01*
X021816Y008800D01*
X021857Y008776D01*
X021903Y008764D01*
X022084Y008764D01*
X022084Y009180D01*
X021747Y009180D01*
X022084Y009180D01*
X022084Y009180D01*
X022084Y009180D01*
X022084Y009596D01*
X022084Y009180D01*
X022084Y009180D01*
X022084Y008764D01*
X022266Y008764D01*
X022311Y008776D01*
X022352Y008800D01*
X022386Y008833D01*
X022410Y008874D01*
X022422Y008920D01*
X022422Y009180D01*
X022422Y009440D01*
X022410Y009486D01*
X022422Y009311D02*
X027972Y009311D01*
X027813Y009153D02*
X022422Y009153D01*
X022422Y009180D02*
X022084Y009180D01*
X022422Y009180D01*
X022422Y008994D02*
X027667Y008994D01*
X027640Y008836D02*
X022387Y008836D01*
X022084Y008836D02*
X022084Y008836D01*
X022084Y008994D02*
X022084Y008994D01*
X022084Y009153D02*
X022084Y009153D01*
X022084Y009180D02*
X022084Y009180D01*
X022084Y009311D02*
X022084Y009311D01*
X022084Y009470D02*
X022084Y009470D01*
X021755Y009470D02*
X021713Y009470D01*
X021713Y009311D02*
X021747Y009311D01*
X021747Y009153D02*
X021716Y009153D01*
X021716Y008994D02*
X021747Y008994D01*
X021782Y008836D02*
X021706Y008836D01*
X021608Y008677D02*
X027640Y008677D01*
X027640Y008519D02*
X021449Y008519D01*
X021320Y008360D02*
X027640Y008360D01*
X027640Y008202D02*
X021226Y008202D01*
X020734Y008202D02*
X019326Y008202D01*
X019240Y008360D02*
X020640Y008360D01*
X020640Y008519D02*
X019240Y008519D01*
X019240Y008677D02*
X020640Y008677D01*
X019480Y008756D02*
X019480Y009330D01*
X019480Y009903D01*
X019480Y009330D01*
X019480Y009330D01*
X019480Y009330D01*
X019480Y008756D01*
X019480Y008836D02*
X019480Y008836D01*
X019480Y008994D02*
X019480Y008994D01*
X019480Y009153D02*
X019480Y009153D01*
X019480Y009311D02*
X019480Y009311D01*
X019480Y009470D02*
X019480Y009470D01*
X019480Y009628D02*
X019480Y009628D01*
X019480Y009787D02*
X019480Y009787D01*
X018980Y009330D02*
X018980Y008180D01*
X020480Y006680D01*
X020480Y003180D01*
X020957Y003130D02*
X024100Y003130D01*
X024100Y002971D02*
X020957Y002971D01*
X020957Y002813D02*
X024100Y002813D01*
X024100Y002654D02*
X010910Y002654D01*
X010910Y002496D02*
X024100Y002496D01*
X023826Y002446D02*
X023644Y002446D01*
X023599Y002434D01*
X023558Y002410D01*
X023524Y002377D01*
X023500Y002336D01*
X023488Y002290D01*
X023488Y002030D01*
X023488Y001770D01*
X023500Y001724D01*
X023524Y001683D01*
X023558Y001650D01*
X023599Y001626D01*
X023644Y001614D01*
X023826Y001614D01*
X023826Y002030D01*
X023826Y002030D01*
X023826Y002030D01*
X023826Y002446D01*
X023826Y002337D02*
X023826Y002337D01*
X023826Y002179D02*
X023826Y002179D01*
X023826Y002030D02*
X023826Y002030D01*
X023488Y002030D01*
X023826Y002030D01*
X023826Y002020D02*
X023826Y002020D01*
X023826Y001862D02*
X023826Y001862D01*
X023826Y001703D02*
X023826Y001703D01*
X024139Y001703D02*
X024213Y001703D01*
X024163Y001862D02*
X024165Y001862D01*
X023513Y001703D02*
X010910Y001703D01*
X010910Y001862D02*
X023488Y001862D01*
X023488Y002020D02*
X010910Y002020D01*
X010910Y002179D02*
X023488Y002179D01*
X023501Y002337D02*
X010910Y002337D01*
X010910Y002813D02*
X014098Y002813D01*
X014098Y002971D02*
X010910Y002971D01*
X010910Y003130D02*
X014098Y003130D01*
X014098Y003288D02*
X010910Y003288D01*
X010910Y003447D02*
X014098Y003447D01*
X014151Y003605D02*
X010910Y003605D01*
X010910Y003764D02*
X014470Y003764D01*
X014470Y003922D02*
X010910Y003922D01*
X010910Y004081D02*
X014470Y004081D01*
X014470Y004239D02*
X010910Y004239D01*
X010910Y004398D02*
X014470Y004398D01*
X014470Y004556D02*
X010910Y004556D01*
X010910Y004715D02*
X013176Y004715D01*
X013113Y004873D02*
X010910Y004873D01*
X010910Y005032D02*
X013113Y005032D01*
X013113Y005190D02*
X010910Y005190D01*
X010910Y005349D02*
X013113Y005349D01*
X013113Y005507D02*
X010910Y005507D01*
X010910Y005666D02*
X013470Y005666D01*
X013470Y005824D02*
X010910Y005824D01*
X010910Y005983D02*
X013470Y005983D01*
X013470Y006141D02*
X010910Y006141D01*
X010910Y006300D02*
X013470Y006300D01*
X013470Y006458D02*
X010910Y006458D01*
X010910Y006617D02*
X013549Y006617D01*
X013707Y006775D02*
X010910Y006775D01*
X010910Y006934D02*
X013866Y006934D01*
X014024Y007092D02*
X010910Y007092D01*
X010910Y007251D02*
X014183Y007251D01*
X014341Y007409D02*
X010910Y007409D01*
X010910Y007568D02*
X014500Y007568D01*
X014658Y007726D02*
X010910Y007726D01*
X010910Y007885D02*
X014817Y007885D01*
X014975Y008043D02*
X010910Y008043D01*
X010910Y008202D02*
X015134Y008202D01*
X015220Y008360D02*
X010910Y008360D01*
X010910Y008519D02*
X015220Y008519D01*
X015220Y008677D02*
X010910Y008677D01*
X010910Y008836D02*
X014712Y008836D01*
X014682Y008994D02*
X010910Y008994D01*
X010910Y009153D02*
X014682Y009153D01*
X014682Y009311D02*
X010910Y009311D01*
X010910Y009470D02*
X014682Y009470D01*
X014682Y009628D02*
X010910Y009628D01*
X010910Y009787D02*
X014692Y009787D01*
X014980Y009787D02*
X014980Y009787D01*
X014980Y009628D02*
X014980Y009628D01*
X014980Y009470D02*
X014980Y009470D01*
X014980Y009330D02*
X014980Y008756D01*
X014980Y009330D01*
X014980Y009330D01*
X014980Y009311D02*
X014980Y009311D01*
X014980Y009153D02*
X014980Y009153D01*
X014980Y008994D02*
X014980Y008994D01*
X014980Y008836D02*
X014980Y008836D01*
X015480Y009330D02*
X015480Y008180D01*
X013730Y006430D01*
X013730Y005288D01*
X013590Y005149D01*
X014067Y005190D02*
X014470Y005190D01*
X014470Y005032D02*
X014067Y005032D01*
X014067Y004873D02*
X014470Y004873D01*
X014470Y004715D02*
X014005Y004715D01*
X014990Y004715D02*
X015144Y004715D01*
X015082Y004873D02*
X014990Y004873D01*
X014990Y005032D02*
X015082Y005032D01*
X015082Y005190D02*
X014990Y005190D01*
X014990Y005349D02*
X015082Y005349D01*
X015082Y005507D02*
X014990Y005507D01*
X014990Y005666D02*
X015470Y005666D01*
X015470Y005824D02*
X014992Y005824D01*
X015150Y005983D02*
X015470Y005983D01*
X015573Y006141D02*
X015309Y006141D01*
X015467Y006300D02*
X015732Y006300D01*
X015626Y006458D02*
X015890Y006458D01*
X015784Y006617D02*
X016049Y006617D01*
X015943Y006775D02*
X016207Y006775D01*
X016220Y006934D02*
X016101Y006934D01*
X016480Y006680D02*
X016480Y009330D01*
X015980Y009330D02*
X015980Y007180D01*
X014730Y005930D01*
X014730Y003336D01*
X014574Y003180D01*
X015051Y003130D02*
X016066Y003130D01*
X016066Y003288D02*
X015051Y003288D01*
X015051Y003447D02*
X016066Y003447D01*
X016120Y003605D02*
X014998Y003605D01*
X014990Y003764D02*
X016220Y003764D01*
X016220Y003922D02*
X014990Y003922D01*
X014990Y004081D02*
X016220Y004081D01*
X016220Y004239D02*
X014990Y004239D01*
X014990Y004398D02*
X016220Y004398D01*
X016220Y004556D02*
X014990Y004556D01*
X015973Y004715D02*
X016220Y004715D01*
X016220Y004873D02*
X016036Y004873D01*
X016036Y005032D02*
X016220Y005032D01*
X016220Y005190D02*
X016036Y005190D01*
X016036Y005349D02*
X016220Y005349D01*
X016220Y005507D02*
X016036Y005507D01*
X015990Y005666D02*
X016220Y005666D01*
X016258Y005824D02*
X015992Y005824D01*
X016150Y005983D02*
X016415Y005983D01*
X016309Y006141D02*
X016573Y006141D01*
X016467Y006300D02*
X016720Y006300D01*
X016720Y006458D02*
X016626Y006458D01*
X016480Y006680D02*
X015730Y005930D01*
X015730Y005320D01*
X015559Y005149D01*
X016480Y005680D02*
X016980Y006180D01*
X016980Y009330D01*
X017480Y009330D02*
X017480Y005196D01*
X017527Y005149D01*
X017050Y005190D02*
X016740Y005190D01*
X016740Y005032D02*
X017050Y005032D01*
X017050Y004873D02*
X016740Y004873D01*
X016740Y004715D02*
X017113Y004715D01*
X016740Y004556D02*
X018220Y004556D01*
X018220Y004398D02*
X016740Y004398D01*
X016740Y004239D02*
X018220Y004239D01*
X018220Y004081D02*
X016740Y004081D01*
X016740Y003922D02*
X018220Y003922D01*
X018220Y003764D02*
X016740Y003764D01*
X016966Y003605D02*
X018088Y003605D01*
X018035Y003447D02*
X017020Y003447D01*
X017020Y003288D02*
X018035Y003288D01*
X018035Y003130D02*
X017020Y003130D01*
X017020Y002971D02*
X018035Y002971D01*
X018035Y002813D02*
X017020Y002813D01*
X016543Y003180D02*
X016480Y003243D01*
X016480Y005680D01*
X016740Y005507D02*
X017050Y005507D01*
X017050Y005349D02*
X016740Y005349D01*
X016833Y005666D02*
X017220Y005666D01*
X017220Y005824D02*
X016992Y005824D01*
X017150Y005983D02*
X017220Y005983D01*
X017740Y005983D02*
X018220Y005983D01*
X018220Y006141D02*
X017740Y006141D01*
X017740Y006300D02*
X018220Y006300D01*
X018220Y006458D02*
X017740Y006458D01*
X017740Y006617D02*
X018220Y006617D01*
X018220Y006775D02*
X017740Y006775D01*
X017740Y006934D02*
X018109Y006934D01*
X017950Y007092D02*
X017740Y007092D01*
X017740Y007251D02*
X017792Y007251D01*
X017980Y007430D02*
X017980Y009330D01*
X018480Y009330D02*
X018480Y007680D01*
X019480Y006680D01*
X019480Y005164D01*
X019496Y005149D01*
X019973Y005190D02*
X020220Y005190D01*
X020220Y005032D02*
X019973Y005032D01*
X019973Y004873D02*
X020220Y004873D01*
X020220Y004715D02*
X019910Y004715D01*
X020220Y004556D02*
X018740Y004556D01*
X018740Y004398D02*
X020220Y004398D01*
X020220Y004239D02*
X018740Y004239D01*
X018740Y004081D02*
X020220Y004081D01*
X020220Y003922D02*
X018740Y003922D01*
X018740Y003764D02*
X020220Y003764D01*
X020057Y003605D02*
X018935Y003605D01*
X018988Y003447D02*
X020003Y003447D01*
X020003Y003288D02*
X018988Y003288D01*
X018988Y003130D02*
X020003Y003130D01*
X020003Y002971D02*
X018988Y002971D01*
X018988Y002813D02*
X020003Y002813D01*
X020957Y003288D02*
X024024Y003288D01*
X024003Y003447D02*
X020957Y003447D01*
X020903Y003605D02*
X024003Y003605D01*
X024003Y003764D02*
X020740Y003764D01*
X020740Y003922D02*
X024003Y003922D01*
X024032Y004081D02*
X020740Y004081D01*
X020740Y004239D02*
X027200Y004239D01*
X027200Y004081D02*
X024928Y004081D01*
X024957Y003922D02*
X027200Y003922D01*
X027200Y003764D02*
X024957Y003764D01*
X024957Y003605D02*
X027200Y003605D01*
X027200Y003447D02*
X024957Y003447D01*
X024936Y003288D02*
X027200Y003288D01*
X027200Y003130D02*
X024860Y003130D01*
X024860Y002971D02*
X027018Y002971D01*
X026914Y002813D02*
X024860Y002813D01*
X024860Y002654D02*
X026914Y002654D01*
X026914Y002496D02*
X024860Y002496D01*
X027681Y002337D02*
X027979Y002337D01*
X027914Y002496D02*
X027746Y002496D01*
X027746Y002654D02*
X027914Y002654D01*
X027914Y002813D02*
X027746Y002813D01*
X027680Y002971D02*
X028018Y002971D01*
X028184Y003130D02*
X027680Y003130D01*
X027680Y003288D02*
X028184Y003288D01*
X028184Y003447D02*
X027680Y003447D01*
X027680Y003605D02*
X028184Y003605D01*
X028184Y003764D02*
X027680Y003764D01*
X027680Y003922D02*
X027948Y003922D01*
X027948Y004081D02*
X027680Y004081D01*
X027680Y004239D02*
X027948Y004239D01*
X027948Y004398D02*
X027680Y004398D01*
X027680Y004556D02*
X027948Y004556D01*
X028011Y004715D02*
X027680Y004715D01*
X027680Y004873D02*
X028190Y004873D01*
X028190Y005032D02*
X027680Y005032D01*
X027680Y005190D02*
X028190Y005190D01*
X028190Y005349D02*
X027680Y005349D01*
X027680Y005507D02*
X028190Y005507D01*
X028190Y005666D02*
X027680Y005666D01*
X027864Y005824D02*
X028190Y005824D01*
X028190Y005983D02*
X027917Y005983D01*
X027917Y006141D02*
X028190Y006141D01*
X028190Y006300D02*
X027917Y006300D01*
X027989Y006458D02*
X028190Y006458D01*
X028190Y006617D02*
X028110Y006617D01*
X028120Y006775D02*
X028190Y006775D01*
X028190Y006934D02*
X028120Y006934D01*
X028120Y007092D02*
X028190Y007092D01*
X028190Y007251D02*
X028120Y007251D01*
X028120Y007409D02*
X028190Y007409D01*
X028190Y007568D02*
X028120Y007568D01*
X028120Y007726D02*
X028190Y007726D01*
X028190Y007885D02*
X028120Y007885D01*
X028120Y008043D02*
X028190Y008043D01*
X028190Y008202D02*
X028120Y008202D01*
X028120Y008360D02*
X028190Y008360D01*
X028190Y008519D02*
X028120Y008519D01*
X028120Y008677D02*
X028210Y008677D01*
X028175Y008836D02*
X028346Y008836D01*
X028333Y008994D02*
X028505Y008994D01*
X028492Y009153D02*
X028663Y009153D01*
X028650Y009311D02*
X028822Y009311D01*
X028840Y009470D02*
X028794Y009470D01*
X028820Y009628D02*
X028840Y009628D01*
X028840Y009787D02*
X028820Y009787D01*
X029320Y009787D02*
X029340Y009787D01*
X029340Y009628D02*
X029320Y009628D01*
X029320Y009470D02*
X029340Y009470D01*
X029340Y009311D02*
X029320Y009311D01*
X029308Y009153D02*
X029340Y009153D01*
X029340Y008994D02*
X029183Y008994D01*
X029340Y008836D02*
X029025Y008836D01*
X028866Y008677D02*
X029340Y008677D01*
X029340Y008519D02*
X028708Y008519D01*
X028670Y008360D02*
X029340Y008360D01*
X029340Y008202D02*
X028670Y008202D01*
X028670Y008043D02*
X029340Y008043D01*
X029340Y007885D02*
X028670Y007885D01*
X028670Y007726D02*
X029340Y007726D01*
X029340Y007568D02*
X028670Y007568D01*
X028670Y007409D02*
X029340Y007409D01*
X029340Y007251D02*
X028670Y007251D01*
X028670Y007092D02*
X029340Y007092D01*
X029340Y006934D02*
X028670Y006934D01*
X028670Y006775D02*
X029340Y006775D01*
X028932Y006617D02*
X028670Y006617D01*
X028670Y006458D02*
X028932Y006458D01*
X028932Y006300D02*
X028670Y006300D01*
X028670Y006141D02*
X028932Y006141D01*
X028932Y005983D02*
X028670Y005983D01*
X028670Y005824D02*
X028985Y005824D01*
X029169Y005666D02*
X028670Y005666D01*
X028670Y005507D02*
X029169Y005507D01*
X029169Y005349D02*
X028670Y005349D01*
X028670Y005190D02*
X029169Y005190D01*
X029169Y005032D02*
X028670Y005032D01*
X028670Y004873D02*
X029169Y004873D01*
X029169Y004715D02*
X028838Y004715D01*
X028901Y004556D02*
X029169Y004556D01*
X029169Y004398D02*
X028901Y004398D01*
X028901Y004239D02*
X029169Y004239D01*
X029169Y004081D02*
X028901Y004081D01*
X028901Y003922D02*
X029169Y003922D01*
X029169Y003764D02*
X028664Y003764D01*
X028664Y003605D02*
X029169Y003605D01*
X029169Y003447D02*
X028664Y003447D01*
X028664Y003288D02*
X029169Y003288D01*
X029169Y003130D02*
X028664Y003130D01*
X028664Y002971D02*
X029018Y002971D01*
X028914Y002813D02*
X028746Y002813D01*
X028746Y002654D02*
X028914Y002654D01*
X028914Y002496D02*
X028746Y002496D01*
X028681Y002337D02*
X028979Y002337D01*
X029681Y002337D02*
X029979Y002337D01*
X029914Y002496D02*
X029746Y002496D01*
X029746Y002654D02*
X029914Y002654D01*
X029914Y002813D02*
X029746Y002813D01*
X029649Y002971D02*
X030018Y002971D01*
X030153Y003130D02*
X029649Y003130D01*
X029649Y003288D02*
X030153Y003288D01*
X030153Y003447D02*
X029649Y003447D01*
X029649Y003605D02*
X030153Y003605D01*
X030153Y003764D02*
X029649Y003764D01*
X029649Y003922D02*
X029916Y003922D01*
X029916Y004081D02*
X029649Y004081D01*
X029649Y004239D02*
X029916Y004239D01*
X029916Y004398D02*
X029649Y004398D01*
X029649Y004556D02*
X029840Y004556D01*
X029840Y004715D02*
X029649Y004715D01*
X029649Y004873D02*
X029840Y004873D01*
X029840Y005032D02*
X029649Y005032D01*
X029649Y005190D02*
X029840Y005190D01*
X029840Y005349D02*
X029649Y005349D01*
X029649Y005507D02*
X029840Y005507D01*
X029840Y005666D02*
X029649Y005666D01*
X029833Y005824D02*
X029840Y005824D01*
X030320Y005824D02*
X030953Y005824D01*
X030900Y005983D02*
X030320Y005983D01*
X030320Y006141D02*
X030900Y006141D01*
X030900Y006300D02*
X030320Y006300D01*
X030320Y006458D02*
X030828Y006458D01*
X030670Y006617D02*
X030320Y006617D01*
X030320Y006775D02*
X030511Y006775D01*
X030367Y006934D02*
X030320Y006934D01*
X030320Y007092D02*
X030340Y007092D01*
X030340Y007251D02*
X030320Y007251D01*
X030320Y007409D02*
X030340Y007409D01*
X030340Y007568D02*
X030320Y007568D01*
X030320Y007726D02*
X030340Y007726D01*
X030340Y007885D02*
X030320Y007885D01*
X030320Y008043D02*
X030340Y008043D01*
X030340Y008202D02*
X030320Y008202D01*
X030320Y008360D02*
X030340Y008360D01*
X030340Y008519D02*
X030320Y008519D01*
X030320Y008677D02*
X030340Y008677D01*
X030340Y008836D02*
X030320Y008836D01*
X030320Y008994D02*
X030340Y008994D01*
X030340Y009153D02*
X030320Y009153D01*
X030320Y009311D02*
X030340Y009311D01*
X030340Y009470D02*
X030320Y009470D01*
X030320Y009628D02*
X030340Y009628D01*
X030340Y009787D02*
X030320Y009787D01*
X031820Y009787D02*
X031840Y009787D01*
X031840Y009628D02*
X031820Y009628D01*
X031820Y009470D02*
X031840Y009470D01*
X031840Y009311D02*
X031820Y009311D01*
X031820Y009153D02*
X031840Y009153D01*
X031840Y008994D02*
X031820Y008994D01*
X031820Y008836D02*
X031840Y008836D01*
X032320Y008994D02*
X033341Y008994D01*
X033240Y009153D02*
X032320Y009153D01*
X032320Y009311D02*
X033240Y009311D01*
X033240Y009470D02*
X032320Y009470D01*
X032320Y009628D02*
X033240Y009628D01*
X033240Y009787D02*
X032320Y009787D01*
X032580Y009856D02*
X032580Y010430D01*
X032580Y011003D01*
X032580Y010430D01*
X032580Y010430D01*
X032580Y009856D01*
X032580Y009945D02*
X032580Y009945D01*
X032580Y010104D02*
X032580Y010104D01*
X032580Y010262D02*
X032580Y010262D01*
X032580Y010421D02*
X032580Y010421D01*
X032580Y010430D02*
X032580Y010430D01*
X032580Y010579D02*
X032580Y010579D01*
X032580Y010738D02*
X032580Y010738D01*
X032580Y010896D02*
X032580Y010896D01*
X033878Y010896D02*
X037792Y010896D01*
X037792Y010738D02*
X033878Y010738D01*
X033886Y010579D02*
X037792Y010579D01*
X037792Y010421D02*
X033920Y010421D01*
X033920Y010262D02*
X037792Y010262D01*
X037792Y010104D02*
X035499Y010104D01*
X035510Y010086D02*
X035486Y010127D01*
X035452Y010160D01*
X035411Y010184D01*
X035366Y010196D01*
X035184Y010196D01*
X035003Y010196D01*
X034957Y010184D01*
X034916Y010160D01*
X034883Y010127D01*
X034859Y010086D01*
X034847Y010040D01*
X034847Y009780D01*
X034847Y009520D01*
X034859Y009474D01*
X034883Y009433D01*
X034916Y009400D01*
X034957Y009376D01*
X035003Y009364D01*
X035184Y009364D01*
X035184Y009780D01*
X034847Y009780D01*
X035184Y009780D01*
X035184Y009780D01*
X035184Y009780D01*
X035184Y010196D01*
X035184Y009780D01*
X035184Y009780D01*
X035184Y009364D01*
X035366Y009364D01*
X035411Y009376D01*
X035452Y009400D01*
X035486Y009433D01*
X035510Y009474D01*
X035522Y009520D01*
X035522Y009780D01*
X035522Y010040D01*
X035510Y010086D01*
X035522Y009945D02*
X037792Y009945D01*
X037792Y009787D02*
X035522Y009787D01*
X035522Y009780D02*
X035184Y009780D01*
X035184Y009780D01*
X035522Y009780D01*
X035522Y009628D02*
X037792Y009628D01*
X037792Y009470D02*
X035507Y009470D01*
X035184Y009470D02*
X035184Y009470D01*
X035184Y009628D02*
X035184Y009628D01*
X035184Y009787D02*
X035184Y009787D01*
X035184Y009945D02*
X035184Y009945D01*
X035184Y010104D02*
X035184Y010104D01*
X034869Y010104D02*
X034800Y010104D01*
X034813Y009945D02*
X034847Y009945D01*
X034847Y009787D02*
X034816Y009787D01*
X034813Y009628D02*
X034847Y009628D01*
X034862Y009470D02*
X034813Y009470D01*
X034488Y009311D02*
X037792Y009311D01*
X037792Y009153D02*
X034329Y009153D01*
X034103Y008994D02*
X037792Y008994D01*
X037792Y008836D02*
X032464Y008836D01*
X032622Y008677D02*
X037792Y008677D01*
X037792Y008519D02*
X032781Y008519D01*
X032939Y008360D02*
X037792Y008360D01*
X037792Y008202D02*
X033098Y008202D01*
X033256Y008043D02*
X037792Y008043D01*
X037792Y007885D02*
X033415Y007885D01*
X033573Y007726D02*
X037792Y007726D01*
X037792Y007568D02*
X033732Y007568D01*
X033890Y007409D02*
X037792Y007409D01*
X037792Y007251D02*
X034049Y007251D01*
X034207Y007092D02*
X037792Y007092D01*
X037792Y006934D02*
X034366Y006934D01*
X034524Y006775D02*
X037792Y006775D01*
X037792Y006617D02*
X034570Y006617D01*
X034570Y006458D02*
X037792Y006458D01*
X037792Y006300D02*
X034570Y006300D01*
X034570Y006141D02*
X037792Y006141D01*
X037792Y005983D02*
X034570Y005983D01*
X034570Y005824D02*
X037792Y005824D01*
X037792Y005666D02*
X034570Y005666D01*
X034570Y005507D02*
X037792Y005507D01*
X037792Y005349D02*
X034570Y005349D01*
X034570Y005190D02*
X037792Y005190D01*
X037792Y005032D02*
X034570Y005032D01*
X034570Y004873D02*
X037792Y004873D01*
X037792Y004715D02*
X034744Y004715D01*
X034807Y004556D02*
X037792Y004556D01*
X037792Y004398D02*
X034807Y004398D01*
X034807Y004239D02*
X037792Y004239D01*
X037792Y004081D02*
X034807Y004081D01*
X034807Y003922D02*
X037792Y003922D01*
X037792Y003764D02*
X034570Y003764D01*
X034570Y003605D02*
X037792Y003605D01*
X037792Y003447D02*
X034570Y003447D01*
X034570Y003288D02*
X037792Y003288D01*
X037792Y003130D02*
X034570Y003130D01*
X034642Y002971D02*
X037792Y002971D01*
X037792Y002813D02*
X034746Y002813D01*
X034746Y002654D02*
X037792Y002654D01*
X037792Y002496D02*
X034746Y002496D01*
X034681Y002337D02*
X037792Y002337D01*
X037792Y002179D02*
X034725Y002179D01*
X034746Y002020D02*
X037792Y002020D01*
X037792Y001862D02*
X034770Y001862D01*
X034747Y001703D02*
X037792Y001703D01*
X034090Y003130D02*
X033586Y003130D01*
X033586Y003288D02*
X034090Y003288D01*
X034090Y003447D02*
X033586Y003447D01*
X033586Y003605D02*
X034090Y003605D01*
X034090Y003764D02*
X033586Y003764D01*
X033586Y003922D02*
X033853Y003922D01*
X033853Y004081D02*
X033586Y004081D01*
X033586Y004239D02*
X033853Y004239D01*
X033853Y004398D02*
X033586Y004398D01*
X033586Y004556D02*
X033853Y004556D01*
X033916Y004715D02*
X033586Y004715D01*
X033586Y004873D02*
X034090Y004873D01*
X034090Y005032D02*
X033586Y005032D01*
X033586Y005190D02*
X034090Y005190D01*
X034090Y005349D02*
X033586Y005349D01*
X033586Y005507D02*
X034090Y005507D01*
X034090Y005666D02*
X033586Y005666D01*
X033770Y005824D02*
X034090Y005824D01*
X034090Y005983D02*
X033823Y005983D01*
X033823Y006141D02*
X034090Y006141D01*
X034090Y006300D02*
X033823Y006300D01*
X033823Y006458D02*
X034090Y006458D01*
X034004Y006617D02*
X033823Y006617D01*
X033846Y006775D02*
X033159Y006775D01*
X033000Y006934D02*
X033687Y006934D01*
X033529Y007092D02*
X032842Y007092D01*
X032683Y007251D02*
X033370Y007251D01*
X033212Y007409D02*
X032525Y007409D01*
X032366Y007568D02*
X033053Y007568D01*
X032895Y007726D02*
X032208Y007726D01*
X032049Y007885D02*
X032736Y007885D01*
X032578Y008043D02*
X031891Y008043D01*
X031820Y008202D02*
X032419Y008202D01*
X032261Y008360D02*
X031820Y008360D01*
X031820Y008519D02*
X032102Y008519D01*
X033920Y009787D02*
X034001Y009787D01*
X033920Y009945D02*
X034138Y009945D01*
X034151Y010104D02*
X033920Y010104D01*
X027640Y008043D02*
X019485Y008043D01*
X019643Y007885D02*
X027640Y007885D01*
X027640Y007726D02*
X019802Y007726D01*
X019960Y007568D02*
X027640Y007568D01*
X027640Y007409D02*
X020119Y007409D01*
X020277Y007251D02*
X027640Y007251D01*
X027640Y007092D02*
X020436Y007092D01*
X020594Y006934D02*
X027640Y006934D01*
X027627Y006775D02*
X020722Y006775D01*
X020740Y006617D02*
X026963Y006617D01*
X026963Y006458D02*
X020740Y006458D01*
X020740Y006300D02*
X026963Y006300D01*
X026963Y006141D02*
X020740Y006141D01*
X020740Y005983D02*
X023019Y005983D01*
X023019Y006020D02*
X023124Y006125D01*
X023867Y006125D01*
X023973Y006020D01*
X023973Y005277D01*
X023867Y005172D01*
X023124Y005172D01*
X023019Y005277D01*
X023019Y006020D01*
X023019Y005824D02*
X020740Y005824D01*
X020740Y005666D02*
X023019Y005666D01*
X023019Y005507D02*
X020740Y005507D01*
X020740Y005349D02*
X023019Y005349D01*
X023106Y005190D02*
X020740Y005190D01*
X020740Y005032D02*
X027200Y005032D01*
X027200Y005190D02*
X023886Y005190D01*
X023973Y005349D02*
X027200Y005349D01*
X027200Y005507D02*
X023973Y005507D01*
X023973Y005666D02*
X027200Y005666D01*
X027016Y005824D02*
X023973Y005824D01*
X023973Y005983D02*
X026963Y005983D01*
X027200Y004873D02*
X020740Y004873D01*
X020740Y004715D02*
X027200Y004715D01*
X027200Y004556D02*
X020740Y004556D01*
X020740Y004398D02*
X027200Y004398D01*
X030320Y004873D02*
X031137Y004873D01*
X031137Y004715D02*
X030807Y004715D01*
X030870Y004556D02*
X031137Y004556D01*
X031137Y004398D02*
X030870Y004398D01*
X030870Y004239D02*
X031137Y004239D01*
X031137Y004081D02*
X030870Y004081D01*
X030870Y003922D02*
X031137Y003922D01*
X031137Y003764D02*
X030633Y003764D01*
X030633Y003605D02*
X031137Y003605D01*
X031137Y003447D02*
X030633Y003447D01*
X030633Y003288D02*
X031137Y003288D01*
X031137Y003130D02*
X030633Y003130D01*
X030642Y002971D02*
X031018Y002971D01*
X030914Y002813D02*
X030746Y002813D01*
X030746Y002654D02*
X030914Y002654D01*
X030914Y002496D02*
X030746Y002496D01*
X030681Y002337D02*
X030979Y002337D01*
X031681Y002337D02*
X031979Y002337D01*
X031914Y002496D02*
X031746Y002496D01*
X031746Y002654D02*
X031914Y002654D01*
X031914Y002813D02*
X031746Y002813D01*
X031642Y002971D02*
X032018Y002971D01*
X032121Y003130D02*
X031617Y003130D01*
X031617Y003288D02*
X032121Y003288D01*
X032121Y003447D02*
X031617Y003447D01*
X031617Y003605D02*
X032121Y003605D01*
X032121Y003764D02*
X031617Y003764D01*
X031617Y003922D02*
X031885Y003922D01*
X031885Y004081D02*
X031617Y004081D01*
X031617Y004239D02*
X031885Y004239D01*
X031885Y004398D02*
X031617Y004398D01*
X031617Y004556D02*
X031840Y004556D01*
X031840Y004715D02*
X031617Y004715D01*
X031617Y004873D02*
X031840Y004873D01*
X031840Y005032D02*
X031617Y005032D01*
X031617Y005190D02*
X031840Y005190D01*
X031840Y005349D02*
X031617Y005349D01*
X031617Y005507D02*
X031840Y005507D01*
X031840Y005666D02*
X031617Y005666D01*
X031801Y005824D02*
X031840Y005824D01*
X032320Y005824D02*
X032922Y005824D01*
X032869Y005983D02*
X032320Y005983D01*
X032320Y006141D02*
X032869Y006141D01*
X032869Y006300D02*
X032320Y006300D01*
X032320Y006458D02*
X032797Y006458D01*
X032638Y006617D02*
X032320Y006617D01*
X032320Y006775D02*
X032480Y006775D01*
X032321Y006934D02*
X032320Y006934D01*
X032320Y005666D02*
X033106Y005666D01*
X033106Y005507D02*
X032320Y005507D01*
X032320Y005349D02*
X033106Y005349D01*
X033106Y005190D02*
X032320Y005190D01*
X032320Y005032D02*
X033106Y005032D01*
X033106Y004873D02*
X032320Y004873D01*
X032775Y004715D02*
X033106Y004715D01*
X033106Y004556D02*
X032838Y004556D01*
X032838Y004398D02*
X033106Y004398D01*
X033106Y004239D02*
X032838Y004239D01*
X032838Y004081D02*
X033106Y004081D01*
X033106Y003922D02*
X032838Y003922D01*
X032601Y003764D02*
X033106Y003764D01*
X033106Y003605D02*
X032601Y003605D01*
X032601Y003447D02*
X033106Y003447D01*
X033106Y003288D02*
X032601Y003288D01*
X032601Y003130D02*
X033106Y003130D01*
X033018Y002971D02*
X032642Y002971D01*
X032746Y002813D02*
X032914Y002813D01*
X032914Y002654D02*
X032746Y002654D01*
X032746Y002496D02*
X032914Y002496D01*
X032979Y002337D02*
X032681Y002337D01*
X033681Y002337D02*
X033979Y002337D01*
X033914Y002496D02*
X033746Y002496D01*
X033746Y002654D02*
X033914Y002654D01*
X033914Y002813D02*
X033746Y002813D01*
X033642Y002971D02*
X034018Y002971D01*
X031137Y005032D02*
X030320Y005032D01*
X030320Y005190D02*
X031137Y005190D01*
X031137Y005349D02*
X030320Y005349D01*
X030320Y005507D02*
X031137Y005507D01*
X031137Y005666D02*
X030320Y005666D01*
X020220Y005666D02*
X019740Y005666D01*
X019740Y005824D02*
X020220Y005824D01*
X020220Y005983D02*
X019740Y005983D01*
X019740Y006141D02*
X020220Y006141D01*
X020220Y006300D02*
X019740Y006300D01*
X019740Y006458D02*
X020220Y006458D01*
X020176Y006617D02*
X019740Y006617D01*
X019722Y006775D02*
X020017Y006775D01*
X019859Y006934D02*
X019594Y006934D01*
X019700Y007092D02*
X019436Y007092D01*
X019542Y007251D02*
X019277Y007251D01*
X019383Y007409D02*
X019119Y007409D01*
X019225Y007568D02*
X018960Y007568D01*
X019066Y007726D02*
X018802Y007726D01*
X018740Y007885D02*
X018908Y007885D01*
X018755Y008043D02*
X018740Y008043D01*
X018245Y007568D02*
X018240Y007568D01*
X018369Y007409D02*
X018383Y007409D01*
X018527Y007251D02*
X018542Y007251D01*
X018686Y007092D02*
X018700Y007092D01*
X018740Y006934D02*
X018859Y006934D01*
X018740Y006775D02*
X019017Y006775D01*
X019176Y006617D02*
X018740Y006617D01*
X018740Y006458D02*
X019220Y006458D01*
X019220Y006300D02*
X018740Y006300D01*
X018740Y006141D02*
X019220Y006141D01*
X019220Y005983D02*
X018740Y005983D01*
X018740Y005824D02*
X019220Y005824D01*
X019220Y005666D02*
X018740Y005666D01*
X018740Y005507D02*
X019019Y005507D01*
X019019Y005349D02*
X018740Y005349D01*
X018740Y005190D02*
X019019Y005190D01*
X019019Y005032D02*
X018740Y005032D01*
X018740Y004873D02*
X019019Y004873D01*
X019081Y004715D02*
X018740Y004715D01*
X018220Y004715D02*
X017942Y004715D01*
X018004Y004873D02*
X018220Y004873D01*
X018220Y005032D02*
X018004Y005032D01*
X018004Y005190D02*
X018220Y005190D01*
X018220Y005349D02*
X018004Y005349D01*
X018004Y005507D02*
X018220Y005507D01*
X018220Y005666D02*
X017740Y005666D01*
X017740Y005824D02*
X018220Y005824D01*
X019973Y005507D02*
X020220Y005507D01*
X020220Y005349D02*
X019973Y005349D01*
X018480Y006930D02*
X017980Y007430D01*
X018480Y006930D02*
X018480Y003211D01*
X018511Y003180D01*
X016066Y002971D02*
X015051Y002971D01*
X015051Y002813D02*
X016066Y002813D01*
X014470Y005349D02*
X014067Y005349D01*
X014067Y005507D02*
X014470Y005507D01*
X014470Y005666D02*
X013990Y005666D01*
X013990Y005824D02*
X014470Y005824D01*
X014470Y005983D02*
X013990Y005983D01*
X013990Y006141D02*
X014573Y006141D01*
X014732Y006300D02*
X013990Y006300D01*
X014126Y006458D02*
X014890Y006458D01*
X015049Y006617D02*
X014284Y006617D01*
X014443Y006775D02*
X015207Y006775D01*
X015366Y006934D02*
X014601Y006934D01*
X014760Y007092D02*
X015524Y007092D01*
X015683Y007251D02*
X014918Y007251D01*
X015077Y007409D02*
X015720Y007409D01*
X015720Y007568D02*
X015235Y007568D01*
X015394Y007726D02*
X015720Y007726D01*
X015720Y007885D02*
X015552Y007885D01*
X015705Y008043D02*
X015720Y008043D01*
X033720Y017712D02*
X033780Y017712D01*
X033720Y017870D02*
X033939Y017870D01*
X034097Y018029D02*
X033720Y018029D01*
X033720Y018187D02*
X034243Y018187D01*
X034243Y018346D02*
X033720Y018346D01*
X033720Y018504D02*
X034243Y018504D01*
X034243Y018663D02*
X033720Y018663D01*
X033720Y018980D02*
X037792Y018980D01*
X037792Y019138D02*
X033720Y019138D01*
X033720Y019297D02*
X037792Y019297D01*
X037792Y019455D02*
X033720Y019455D01*
X033720Y019614D02*
X037792Y019614D01*
X037792Y019772D02*
X033720Y019772D01*
X034212Y019931D02*
X037792Y019931D01*
X037792Y020089D02*
X034212Y020089D01*
X034212Y020248D02*
X037792Y020248D01*
X037792Y020406D02*
X034212Y020406D01*
X034212Y020565D02*
X037792Y020565D01*
X037792Y020723D02*
X034141Y020723D01*
X037792Y020882D02*
X024971Y020882D01*
X024961Y020876D02*
X025002Y020900D01*
X025036Y020933D01*
X025060Y020974D01*
X025072Y021020D01*
X025072Y021280D01*
X025072Y021540D01*
X025060Y021586D01*
X025036Y021627D01*
X025002Y021660D01*
X024961Y021684D01*
X024916Y021696D01*
X024734Y021696D01*
X024734Y021280D01*
X024734Y021280D01*
X024734Y021280D01*
X024734Y020864D01*
X024916Y020864D01*
X024961Y020876D01*
X025072Y021040D02*
X037792Y021040D01*
X037792Y021199D02*
X025072Y021199D01*
X025072Y021280D02*
X024734Y021280D01*
X025072Y021280D01*
X025072Y021357D02*
X037792Y021357D01*
X037792Y021516D02*
X025072Y021516D01*
X024978Y021674D02*
X037792Y021674D01*
X037792Y021833D02*
X023940Y021833D01*
X024280Y021674D02*
X024490Y021674D01*
X024397Y021516D02*
X024363Y021516D01*
X024734Y021516D02*
X024734Y021516D01*
X024734Y021674D02*
X024734Y021674D01*
X024734Y021357D02*
X024734Y021357D01*
X024734Y021280D02*
X024734Y021280D01*
X024734Y021199D02*
X024734Y021199D01*
X024734Y021040D02*
X024734Y021040D01*
X024734Y020882D02*
X024734Y020882D01*
X024498Y020882D02*
X024406Y020882D01*
D18*
X033580Y014930D03*
X027230Y012680D03*
X021930Y014180D03*
X020980Y008530D03*
X033580Y009330D03*
D19*
X033580Y010430D01*
X033080Y010430D01*
X034026Y009330D02*
X034476Y009780D01*
X034026Y009330D02*
X033580Y009330D01*
X027230Y012680D02*
X026897Y012680D01*
X026230Y012013D01*
X021376Y013180D02*
X021376Y013980D01*
X021376Y014089D01*
X021376Y013180D02*
X020630Y013180D01*
X020480Y013030D01*
X020480Y009330D02*
X019980Y009330D01*
X020480Y009330D02*
X020630Y009180D01*
X021376Y009180D01*
X021376Y008926D01*
X020980Y008530D01*
X024534Y002030D02*
X027226Y002030D01*
X027330Y001926D01*
X028330Y001926D01*
X029330Y001926D01*
X030330Y001926D01*
X031330Y001926D01*
X032330Y001926D01*
X033330Y001926D01*
X034330Y001926D01*
X034430Y001826D01*
X034630Y014926D02*
X033584Y014926D01*
X033580Y014930D01*
X024026Y021280D02*
X023771Y021534D01*
X020980Y021534D01*
X019980Y021534D01*
X018980Y021534D01*
X017980Y021534D01*
X016980Y021534D01*
X015980Y021534D01*
X014980Y021534D01*
X013980Y021534D01*
D20*
X024026Y021280D02*
X024026Y019726D01*
X023980Y019680D01*
X033580Y014930D02*
X033580Y014130D01*
X021930Y014180D02*
X021730Y013980D01*
X021376Y013980D01*
X024480Y003680D02*
X024480Y002084D01*
X024534Y002030D01*
D21*
X027330Y002634D02*
X027440Y002745D01*
X027440Y006249D01*
X027880Y006688D01*
X027880Y008880D01*
X028580Y009580D01*
X028580Y010430D01*
X029080Y010430D02*
X029080Y009230D01*
X028430Y008580D01*
X028430Y004286D01*
X028424Y004280D01*
X028424Y002729D01*
X028330Y002634D01*
X029330Y002634D02*
X029409Y002713D01*
X029409Y006249D01*
X029580Y006420D01*
X029580Y010430D01*
X030080Y010430D02*
X030080Y004593D01*
X030393Y004280D01*
X030393Y002697D01*
X030330Y002634D01*
X031330Y002634D02*
X031377Y002682D01*
X031377Y006249D01*
X030580Y007046D01*
X030580Y010430D01*
X031080Y010430D02*
X031080Y008030D01*
X032080Y007030D01*
X032080Y004561D01*
X032361Y004280D01*
X032361Y002666D01*
X032330Y002634D01*
X033330Y002634D02*
X033346Y002650D01*
X033346Y006249D01*
X031580Y008014D01*
X031580Y010430D01*
X032080Y010430D02*
X032080Y008880D01*
X034330Y006630D01*
X034330Y004280D01*
X034330Y002634D01*
X032580Y014130D02*
X032580Y016172D01*
X034720Y018311D01*
X033480Y017680D02*
X032080Y016280D01*
X032080Y014130D01*
X031580Y014130D02*
X031580Y017140D01*
X032751Y018311D01*
X031730Y018180D02*
X031080Y017530D01*
X031080Y014130D01*
X030580Y014130D02*
X030580Y018109D01*
X030783Y018311D01*
X031730Y018180D02*
X031730Y020243D01*
X031767Y020280D01*
X033480Y020024D02*
X033480Y017680D01*
X029580Y017546D02*
X029580Y014130D01*
X029080Y014130D02*
X029080Y016780D01*
X028030Y017830D01*
X028030Y020080D01*
X027830Y020280D01*
X029799Y020280D02*
X030080Y019999D01*
X030080Y014130D01*
X029580Y017546D02*
X028814Y018311D01*
X033480Y020024D02*
X033736Y020280D01*
X019886Y019180D02*
X019730Y019024D01*
X017917Y019180D02*
X017730Y018993D01*
M02*
