G75*
G70*
%OFA0B0*%
%FSLAX24Y24*%
%IPPOS*%
%LPD*%
%AMOC8*
5,1,8,0,0,1.08239X$1,22.5*
%
%ADD10C,0.0000*%
%ADD11R,0.0240X0.0870*%
%ADD12R,0.0236X0.0709*%
%ADD13R,0.1299X0.0472*%
%ADD14C,0.0740*%
%ADD15R,0.0315X0.0472*%
%ADD16R,0.0594X0.0594*%
%ADD17R,0.0472X0.0315*%
%ADD18C,0.2300*%
%ADD19R,0.0354X0.0551*%
%ADD20R,0.0600X0.0600*%
%ADD21C,0.0160*%
%ADD22R,0.0356X0.0356*%
%ADD23C,0.0320*%
D10*
X002210Y001230D02*
X029880Y001230D01*
X029880Y017472D01*
X002210Y017472D01*
X002210Y001230D01*
D11*
X013180Y008650D03*
X013680Y008650D03*
X014180Y008650D03*
X014680Y008650D03*
X017180Y008650D03*
X017680Y008650D03*
X018180Y008650D03*
X018680Y008650D03*
X020830Y008650D03*
X021330Y008650D03*
X021830Y008650D03*
X022330Y008650D03*
X022330Y010710D03*
X021830Y010710D03*
X021330Y010710D03*
X020830Y010710D03*
X018680Y010710D03*
X018180Y010710D03*
X017680Y010710D03*
X017180Y010710D03*
X014680Y010710D03*
X014180Y010710D03*
X013680Y010710D03*
X013180Y010710D03*
D12*
X010130Y010680D03*
X009630Y010680D03*
X009130Y010680D03*
X008630Y010680D03*
X008130Y010680D03*
X007630Y010680D03*
X007130Y010680D03*
X007130Y008680D03*
X007630Y008680D03*
X008130Y008680D03*
X008630Y008680D03*
X009130Y008680D03*
X009630Y008680D03*
X010130Y008680D03*
D13*
X015730Y003880D03*
X013210Y002880D03*
X015730Y001880D03*
X019610Y002930D03*
X022130Y001930D03*
X022130Y003930D03*
D14*
X017630Y003930D03*
X017630Y002930D03*
X011680Y002880D03*
X011680Y003880D03*
X024630Y008230D03*
X024630Y009230D03*
X024630Y010230D03*
D15*
X026676Y006280D03*
X027384Y006280D03*
X018484Y001680D03*
X017776Y001680D03*
X012034Y001630D03*
X011326Y001630D03*
D16*
X009630Y002680D03*
X007661Y002680D03*
X006677Y004649D03*
X008646Y004649D03*
X004680Y007880D03*
X003696Y009849D03*
X008114Y014211D03*
X010083Y014211D03*
X012180Y014211D03*
X014149Y014211D03*
X016180Y014211D03*
X018149Y014211D03*
X020330Y014211D03*
X022299Y014211D03*
X023896Y015199D03*
X021314Y016180D03*
X017164Y016180D03*
X013164Y016180D03*
X009099Y016180D03*
X007130Y016180D03*
X024380Y005480D03*
X025364Y003511D03*
X028380Y007730D03*
X027396Y009699D03*
X024880Y013230D03*
D17*
X025880Y011584D03*
X025880Y010876D03*
X023630Y010876D03*
X023630Y011584D03*
X022530Y006534D03*
X022530Y005826D03*
D18*
X027980Y003730D03*
X027980Y014980D03*
X004130Y015180D03*
X004230Y003780D03*
D19*
X027697Y012230D03*
X028563Y012230D03*
D20*
X020580Y006180D03*
X019580Y006180D03*
X016630Y006180D03*
X015630Y006180D03*
X012930Y006180D03*
X011930Y006180D03*
D21*
X011930Y005430D01*
X011680Y005180D01*
X011430Y005180D01*
X010680Y004430D01*
X010680Y001930D01*
X010930Y001680D01*
X011276Y001680D01*
X011326Y001630D01*
X011663Y001618D02*
X011697Y001618D01*
X011697Y001460D02*
X011663Y001460D01*
X011663Y001410D02*
X011663Y001941D01*
X011558Y002046D01*
X011094Y002046D01*
X011013Y001965D01*
X010940Y002038D01*
X010940Y004322D01*
X011538Y004920D01*
X011732Y004920D01*
X011827Y004960D01*
X012077Y005210D01*
X012150Y005283D01*
X012190Y005378D01*
X012190Y005700D01*
X012305Y005700D01*
X012410Y005805D01*
X012410Y006555D01*
X012305Y006660D01*
X011555Y006660D01*
X011450Y006555D01*
X011450Y005805D01*
X011555Y005700D01*
X011670Y005700D01*
X011670Y005538D01*
X011572Y005440D01*
X011378Y005440D01*
X011283Y005400D01*
X011210Y005327D01*
X010460Y004577D01*
X010420Y004482D01*
X010420Y001878D01*
X010460Y001783D01*
X010533Y001710D01*
X010783Y001460D01*
X010878Y001420D01*
X010988Y001420D01*
X010988Y001410D01*
X002390Y001410D01*
X002390Y017292D01*
X029700Y017292D01*
X029700Y001410D01*
X018822Y001410D01*
X018822Y001991D01*
X018744Y002068D01*
X018744Y002670D01*
X018781Y002670D01*
X018781Y002619D01*
X018886Y002514D01*
X020334Y002514D01*
X020440Y002619D01*
X020440Y003241D01*
X020334Y003346D01*
X018886Y003346D01*
X018781Y003241D01*
X018781Y003190D01*
X018118Y003190D01*
X018096Y003242D01*
X017942Y003396D01*
X017860Y003430D01*
X017942Y003464D01*
X018096Y003618D01*
X018118Y003670D01*
X021300Y003670D01*
X021300Y003619D01*
X021406Y003514D01*
X022854Y003514D01*
X022960Y003619D01*
X022960Y004241D01*
X022854Y004346D01*
X022081Y004346D01*
X021590Y004838D01*
X021590Y008080D01*
X021635Y008035D01*
X022025Y008035D01*
X022080Y008090D01*
X022099Y008071D01*
X022141Y008047D01*
X022186Y008035D01*
X022330Y008035D01*
X022474Y008035D01*
X022519Y008047D01*
X022561Y008071D01*
X022594Y008104D01*
X022618Y008146D01*
X022630Y008191D01*
X022630Y008650D01*
X022630Y009109D01*
X022618Y009154D01*
X022594Y009196D01*
X022561Y009229D01*
X022519Y009253D01*
X022474Y009265D01*
X022330Y009265D01*
X022330Y008650D01*
X022330Y008650D01*
X022630Y008650D01*
X022330Y008650D01*
X022330Y008650D01*
X022330Y009265D01*
X022186Y009265D01*
X022141Y009253D01*
X022099Y009229D01*
X022090Y009220D01*
X022090Y009332D01*
X022050Y009427D01*
X021850Y009627D01*
X021777Y009700D01*
X021682Y009740D01*
X018428Y009740D01*
X018333Y009700D01*
X018033Y009400D01*
X017960Y009327D01*
X017940Y009280D01*
X017940Y009432D01*
X017900Y009527D01*
X017827Y009600D01*
X017577Y009850D01*
X017482Y009890D01*
X013928Y009890D01*
X013833Y009850D01*
X013760Y009777D01*
X013460Y009477D01*
X013420Y009382D01*
X013420Y009220D01*
X013375Y009265D01*
X012985Y009265D01*
X012880Y009160D01*
X012880Y008140D01*
X012920Y008100D01*
X012920Y006660D01*
X012555Y006660D01*
X012450Y006555D01*
X012450Y005805D01*
X012555Y005700D01*
X013305Y005700D01*
X013410Y005805D01*
X013410Y006306D01*
X013440Y006378D01*
X013440Y008080D01*
X013485Y008035D01*
X013875Y008035D01*
X013920Y008080D01*
X013920Y005038D01*
X013033Y004150D01*
X013022Y004140D01*
X012168Y004140D01*
X012146Y004192D01*
X011992Y004346D01*
X011789Y004430D01*
X011571Y004430D01*
X011368Y004346D01*
X011214Y004192D01*
X011130Y003989D01*
X011130Y003771D01*
X011214Y003568D01*
X011368Y003414D01*
X011450Y003380D01*
X011368Y003346D01*
X011214Y003192D01*
X011130Y002989D01*
X011130Y002771D01*
X011214Y002568D01*
X011368Y002414D01*
X011420Y002392D01*
X011420Y002328D01*
X011460Y002233D01*
X011724Y001968D01*
X011697Y001941D01*
X011697Y001410D01*
X011663Y001410D01*
X012034Y001630D02*
X012034Y002026D01*
X011680Y002380D01*
X011680Y002880D01*
X013210Y002880D01*
X014040Y002886D02*
X017080Y002886D01*
X017080Y002821D02*
X017080Y003039D01*
X017164Y003242D01*
X017318Y003396D01*
X017400Y003430D01*
X017318Y003464D01*
X017164Y003618D01*
X017080Y003821D01*
X017080Y004039D01*
X017164Y004242D01*
X017318Y004396D01*
X017521Y004480D01*
X017739Y004480D01*
X017942Y004396D01*
X018096Y004242D01*
X018118Y004190D01*
X021300Y004190D01*
X021300Y004241D01*
X021376Y004316D01*
X021183Y004510D01*
X021110Y004583D01*
X021070Y004678D01*
X021070Y008080D01*
X021025Y008035D01*
X020840Y008035D01*
X020840Y006660D01*
X020955Y006660D01*
X021060Y006555D01*
X021060Y005805D01*
X020955Y005700D01*
X020205Y005700D01*
X020100Y005805D01*
X020100Y006555D01*
X020205Y006660D01*
X020320Y006660D01*
X020320Y008452D01*
X020360Y008547D01*
X020433Y008620D01*
X020530Y008718D01*
X020530Y009160D01*
X020590Y009220D01*
X018920Y009220D01*
X018944Y009196D01*
X018968Y009154D01*
X018980Y009109D01*
X018980Y008650D01*
X018680Y008650D01*
X018680Y008650D01*
X018980Y008650D01*
X018980Y008191D01*
X018968Y008146D01*
X018944Y008104D01*
X018911Y008071D01*
X018869Y008047D01*
X018824Y008035D01*
X018680Y008035D01*
X018680Y008650D01*
X018680Y008650D01*
X018680Y008035D01*
X018536Y008035D01*
X018491Y008047D01*
X018449Y008071D01*
X018440Y008080D01*
X018440Y005978D01*
X018400Y005883D01*
X016560Y004042D01*
X016560Y003569D01*
X016454Y003464D01*
X015006Y003464D01*
X014900Y003569D01*
X014900Y003620D01*
X012168Y003620D01*
X012146Y003568D01*
X011992Y003414D01*
X011910Y003380D01*
X011992Y003346D01*
X012146Y003192D01*
X012168Y003140D01*
X012381Y003140D01*
X012381Y003191D01*
X012486Y003296D01*
X013934Y003296D01*
X014040Y003191D01*
X014040Y002569D01*
X013934Y002464D01*
X012486Y002464D01*
X012381Y002569D01*
X012146Y002569D01*
X012146Y002568D02*
X012168Y002620D01*
X012381Y002620D01*
X012381Y002569D01*
X012146Y002568D02*
X012003Y002425D01*
X012182Y002246D01*
X012255Y002173D01*
X012294Y002077D01*
X012294Y002018D01*
X012372Y001941D01*
X012372Y001410D01*
X016539Y001410D01*
X016522Y001427D01*
X016522Y001532D01*
X016454Y001464D01*
X015006Y001464D01*
X014900Y001569D01*
X014900Y002191D01*
X015006Y002296D01*
X016454Y002296D01*
X016560Y002191D01*
X016560Y001970D01*
X016627Y002038D01*
X017133Y002038D01*
X017231Y001940D01*
X017438Y001940D01*
X017438Y001991D01*
X017544Y002096D01*
X018008Y002096D01*
X018113Y001991D01*
X018113Y001410D01*
X018147Y001410D01*
X018147Y001991D01*
X018224Y002068D01*
X018224Y002670D01*
X018118Y002670D01*
X018096Y002618D01*
X017942Y002464D01*
X017739Y002380D01*
X017521Y002380D01*
X017318Y002464D01*
X017164Y002618D01*
X017080Y002821D01*
X017119Y002728D02*
X014040Y002728D01*
X014040Y002569D02*
X017213Y002569D01*
X017447Y002411D02*
X012017Y002411D01*
X012176Y002252D02*
X014962Y002252D01*
X014900Y002094D02*
X012288Y002094D01*
X012372Y001935D02*
X014900Y001935D01*
X014900Y001777D02*
X012372Y001777D01*
X012372Y001618D02*
X014900Y001618D01*
X016522Y001460D02*
X012372Y001460D01*
X011697Y001777D02*
X011663Y001777D01*
X011663Y001935D02*
X011697Y001935D01*
X011599Y002094D02*
X010940Y002094D01*
X010940Y002252D02*
X011452Y002252D01*
X011376Y002411D02*
X010940Y002411D01*
X010940Y002569D02*
X011214Y002569D01*
X011148Y002728D02*
X010940Y002728D01*
X010940Y002886D02*
X011130Y002886D01*
X011153Y003045D02*
X010940Y003045D01*
X010940Y003203D02*
X011225Y003203D01*
X011405Y003362D02*
X010940Y003362D01*
X010940Y003520D02*
X011262Y003520D01*
X011168Y003679D02*
X010940Y003679D01*
X010940Y003837D02*
X011130Y003837D01*
X011133Y003996D02*
X010940Y003996D01*
X010940Y004154D02*
X011198Y004154D01*
X011335Y004313D02*
X010940Y004313D01*
X011089Y004471D02*
X013353Y004471D01*
X013195Y004313D02*
X012025Y004313D01*
X012162Y004154D02*
X013036Y004154D01*
X013180Y003930D02*
X013180Y003880D01*
X015730Y003880D01*
X016030Y003880D01*
X018180Y006030D01*
X018180Y008650D01*
X018180Y009180D01*
X018480Y009480D01*
X021630Y009480D01*
X021830Y009280D01*
X021830Y008650D01*
X021330Y008650D02*
X021330Y004730D01*
X022130Y003930D01*
X017630Y003930D01*
X017235Y004313D02*
X016830Y004313D01*
X016989Y004471D02*
X017499Y004471D01*
X017761Y004471D02*
X021221Y004471D01*
X021090Y004630D02*
X017147Y004630D01*
X017306Y004788D02*
X021070Y004788D01*
X021070Y004947D02*
X017464Y004947D01*
X017623Y005105D02*
X021070Y005105D01*
X021070Y005264D02*
X017781Y005264D01*
X017940Y005422D02*
X021070Y005422D01*
X021070Y005581D02*
X018098Y005581D01*
X018257Y005739D02*
X019166Y005739D01*
X019205Y005700D02*
X019955Y005700D01*
X020060Y005805D01*
X020060Y006555D01*
X019955Y006660D01*
X019205Y006660D01*
X019100Y006555D01*
X019100Y005805D01*
X019205Y005700D01*
X019100Y005898D02*
X018407Y005898D01*
X018440Y006056D02*
X019100Y006056D01*
X019100Y006215D02*
X018440Y006215D01*
X018440Y006373D02*
X019100Y006373D01*
X019100Y006532D02*
X018440Y006532D01*
X018440Y006690D02*
X020320Y006690D01*
X020320Y006849D02*
X018440Y006849D01*
X018440Y007007D02*
X020320Y007007D01*
X020320Y007166D02*
X018440Y007166D01*
X018440Y007324D02*
X020320Y007324D01*
X020320Y007483D02*
X018440Y007483D01*
X018440Y007641D02*
X020320Y007641D01*
X020320Y007800D02*
X018440Y007800D01*
X018440Y007958D02*
X020320Y007958D01*
X020320Y008117D02*
X018951Y008117D01*
X018980Y008275D02*
X020320Y008275D01*
X020320Y008434D02*
X018980Y008434D01*
X018980Y008592D02*
X020404Y008592D01*
X020530Y008751D02*
X018980Y008751D01*
X018980Y008909D02*
X020530Y008909D01*
X020530Y009068D02*
X018980Y009068D01*
X018680Y008592D02*
X018680Y008592D01*
X018680Y008434D02*
X018680Y008434D01*
X018680Y008275D02*
X018680Y008275D01*
X018680Y008117D02*
X018680Y008117D01*
X017680Y008650D02*
X017680Y006980D01*
X017322Y007007D02*
X017190Y007007D01*
X017190Y006849D02*
X017322Y006849D01*
X017322Y006727D02*
X017427Y006622D01*
X017920Y006622D01*
X017920Y006138D01*
X016079Y004296D01*
X015006Y004296D01*
X014900Y004191D01*
X014900Y004140D01*
X013758Y004140D01*
X014400Y004783D01*
X014440Y004878D01*
X014440Y008080D01*
X014449Y008071D01*
X014491Y008047D01*
X014536Y008035D01*
X014680Y008035D01*
X014824Y008035D01*
X014869Y008047D01*
X014911Y008071D01*
X014944Y008104D01*
X014968Y008146D01*
X014980Y008191D01*
X014980Y008650D01*
X014980Y009109D01*
X014968Y009154D01*
X014944Y009196D01*
X014911Y009229D01*
X014869Y009253D01*
X014824Y009265D01*
X014680Y009265D01*
X014680Y008650D01*
X014680Y008650D01*
X014980Y008650D01*
X014680Y008650D01*
X014680Y008650D01*
X014680Y009265D01*
X014536Y009265D01*
X014491Y009253D01*
X014449Y009229D01*
X014430Y009210D01*
X014375Y009265D01*
X013985Y009265D01*
X013940Y009220D01*
X013940Y009222D01*
X014088Y009370D01*
X017322Y009370D01*
X017420Y009272D01*
X017420Y009220D01*
X017375Y009265D01*
X016985Y009265D01*
X016880Y009160D01*
X016880Y008718D01*
X016783Y008620D01*
X016710Y008547D01*
X016670Y008452D01*
X016670Y006660D01*
X016255Y006660D01*
X016150Y006555D01*
X016150Y005805D01*
X016255Y005700D01*
X017005Y005700D01*
X017110Y005805D01*
X017110Y006292D01*
X017150Y006333D01*
X017190Y006428D01*
X017190Y008035D01*
X017375Y008035D01*
X017420Y008080D01*
X017420Y007331D01*
X017322Y007233D01*
X017322Y006727D01*
X017359Y006690D02*
X017190Y006690D01*
X017190Y006532D02*
X017920Y006532D01*
X017920Y006373D02*
X017167Y006373D01*
X017110Y006215D02*
X017920Y006215D01*
X017838Y006056D02*
X017110Y006056D01*
X017110Y005898D02*
X017680Y005898D01*
X017521Y005739D02*
X017044Y005739D01*
X017363Y005581D02*
X014440Y005581D01*
X014440Y005739D02*
X015216Y005739D01*
X015255Y005700D02*
X015150Y005805D01*
X015150Y006555D01*
X015255Y006660D01*
X016005Y006660D01*
X016110Y006555D01*
X016110Y005805D01*
X016005Y005700D01*
X015255Y005700D01*
X015150Y005898D02*
X014440Y005898D01*
X014440Y006056D02*
X015150Y006056D01*
X015150Y006215D02*
X014440Y006215D01*
X014440Y006373D02*
X015150Y006373D01*
X015150Y006532D02*
X014440Y006532D01*
X014440Y006690D02*
X016670Y006690D01*
X016670Y006849D02*
X014440Y006849D01*
X014440Y007007D02*
X016670Y007007D01*
X016670Y007166D02*
X014440Y007166D01*
X014440Y007324D02*
X016670Y007324D01*
X016670Y007483D02*
X014440Y007483D01*
X014440Y007641D02*
X016670Y007641D01*
X016670Y007800D02*
X014440Y007800D01*
X014440Y007958D02*
X016670Y007958D01*
X016670Y008117D02*
X014951Y008117D01*
X014980Y008275D02*
X016670Y008275D01*
X016670Y008434D02*
X014980Y008434D01*
X014980Y008592D02*
X016754Y008592D01*
X016880Y008751D02*
X014980Y008751D01*
X014980Y008909D02*
X016880Y008909D01*
X016880Y009068D02*
X014980Y009068D01*
X014914Y009226D02*
X016946Y009226D01*
X017414Y009226D02*
X017420Y009226D01*
X017680Y009380D02*
X017680Y008650D01*
X017180Y008650D02*
X016930Y008400D01*
X016930Y006480D01*
X016630Y006180D01*
X016150Y006215D02*
X016110Y006215D01*
X016110Y006373D02*
X016150Y006373D01*
X016150Y006532D02*
X016110Y006532D01*
X016110Y006056D02*
X016150Y006056D01*
X016150Y005898D02*
X016110Y005898D01*
X016044Y005739D02*
X016216Y005739D01*
X017046Y005264D02*
X014440Y005264D01*
X014440Y005422D02*
X017204Y005422D01*
X016887Y005105D02*
X014440Y005105D01*
X014440Y004947D02*
X016729Y004947D01*
X016570Y004788D02*
X014403Y004788D01*
X014247Y004630D02*
X016412Y004630D01*
X016253Y004471D02*
X014089Y004471D01*
X013930Y004313D02*
X016095Y004313D01*
X016560Y003996D02*
X017080Y003996D01*
X017080Y003837D02*
X016560Y003837D01*
X016560Y003679D02*
X017139Y003679D01*
X017262Y003520D02*
X016510Y003520D01*
X017148Y003203D02*
X014028Y003203D01*
X014040Y003045D02*
X017082Y003045D01*
X017284Y003362D02*
X011955Y003362D01*
X012098Y003520D02*
X014950Y003520D01*
X014900Y004154D02*
X013772Y004154D01*
X013180Y003930D02*
X014180Y004930D01*
X014180Y008650D01*
X014680Y008650D02*
X014680Y008650D01*
X014680Y008035D01*
X014680Y008650D01*
X014680Y008592D02*
X014680Y008592D01*
X014680Y008434D02*
X014680Y008434D01*
X014680Y008275D02*
X014680Y008275D01*
X014680Y008117D02*
X014680Y008117D01*
X013920Y007958D02*
X013440Y007958D01*
X013440Y007800D02*
X013920Y007800D01*
X013920Y007641D02*
X013440Y007641D01*
X013440Y007483D02*
X013920Y007483D01*
X013920Y007324D02*
X013440Y007324D01*
X013440Y007166D02*
X013920Y007166D01*
X013920Y007007D02*
X013440Y007007D01*
X013440Y006849D02*
X013920Y006849D01*
X013920Y006690D02*
X013440Y006690D01*
X013440Y006532D02*
X013920Y006532D01*
X013920Y006373D02*
X013438Y006373D01*
X013410Y006215D02*
X013920Y006215D01*
X013920Y006056D02*
X013410Y006056D01*
X013410Y005898D02*
X013920Y005898D01*
X013920Y005739D02*
X013344Y005739D01*
X013920Y005581D02*
X012190Y005581D01*
X012190Y005422D02*
X013920Y005422D01*
X013920Y005264D02*
X012131Y005264D01*
X011973Y005105D02*
X013920Y005105D01*
X013829Y004947D02*
X011796Y004947D01*
X011406Y004788D02*
X013670Y004788D01*
X013512Y004630D02*
X011247Y004630D01*
X010829Y004947D02*
X009890Y004947D01*
X009890Y005105D02*
X010987Y005105D01*
X011146Y005264D02*
X009890Y005264D01*
X009890Y005422D02*
X011335Y005422D01*
X011670Y005581D02*
X009890Y005581D01*
X009890Y005732D02*
X009850Y005827D01*
X009777Y005900D01*
X009390Y006288D01*
X009390Y008193D01*
X009437Y008146D01*
X009823Y008146D01*
X009880Y008203D01*
X009901Y008182D01*
X009942Y008158D01*
X009988Y008146D01*
X010130Y008146D01*
X010272Y008146D01*
X010318Y008158D01*
X010359Y008182D01*
X010392Y008215D01*
X010416Y008256D01*
X010428Y008302D01*
X010428Y008680D01*
X010428Y009058D01*
X010416Y009104D01*
X010392Y009145D01*
X010359Y009178D01*
X010318Y009202D01*
X010272Y009214D01*
X010130Y009214D01*
X009988Y009214D01*
X009942Y009202D01*
X009901Y009178D01*
X009880Y009157D01*
X009823Y009214D01*
X009437Y009214D01*
X009380Y009157D01*
X009323Y009214D01*
X008937Y009214D01*
X008880Y009157D01*
X008823Y009214D01*
X008437Y009214D01*
X008380Y009157D01*
X008323Y009214D01*
X007937Y009214D01*
X007880Y009157D01*
X007823Y009214D01*
X007437Y009214D01*
X007380Y009157D01*
X007323Y009214D01*
X006937Y009214D01*
X006832Y009109D01*
X006832Y008940D01*
X005428Y008940D01*
X005333Y008900D01*
X005260Y008827D01*
X004789Y008357D01*
X004309Y008357D01*
X004203Y008251D01*
X004203Y007509D01*
X004309Y007403D01*
X005051Y007403D01*
X005157Y007509D01*
X005157Y007989D01*
X005588Y008420D01*
X006832Y008420D01*
X006832Y008251D01*
X006937Y008146D01*
X007228Y008146D01*
X006483Y007400D01*
X006410Y007327D01*
X006370Y007232D01*
X006370Y005125D01*
X006306Y005125D01*
X006200Y005020D01*
X006200Y004277D01*
X006306Y004172D01*
X007049Y004172D01*
X007154Y004277D01*
X007154Y005020D01*
X007049Y005125D01*
X006890Y005125D01*
X006890Y007072D01*
X007850Y008033D01*
X007870Y008080D01*
X007870Y007288D01*
X007483Y006900D01*
X007410Y006827D01*
X007370Y006732D01*
X007370Y003157D01*
X007290Y003157D01*
X007185Y003051D01*
X007185Y002309D01*
X007290Y002203D01*
X008033Y002203D01*
X008138Y002309D01*
X008138Y003051D01*
X008033Y003157D01*
X007890Y003157D01*
X007890Y006572D01*
X008350Y007033D01*
X008370Y007080D01*
X008370Y005125D01*
X008274Y005125D01*
X008169Y005020D01*
X008169Y004277D01*
X008274Y004172D01*
X009017Y004172D01*
X009123Y004277D01*
X009123Y005020D01*
X009017Y005125D01*
X008890Y005125D01*
X008890Y006080D01*
X008910Y006033D01*
X009370Y005572D01*
X009370Y003157D01*
X009259Y003157D01*
X009153Y003051D01*
X009153Y002309D01*
X009259Y002203D01*
X010001Y002203D01*
X010107Y002309D01*
X010107Y003051D01*
X010001Y003157D01*
X009890Y003157D01*
X009890Y005732D01*
X009887Y005739D02*
X011516Y005739D01*
X011450Y005898D02*
X009780Y005898D01*
X009622Y006056D02*
X011450Y006056D01*
X011450Y006215D02*
X009463Y006215D01*
X009390Y006373D02*
X011450Y006373D01*
X011450Y006532D02*
X009390Y006532D01*
X009390Y006690D02*
X012920Y006690D01*
X012920Y006849D02*
X009390Y006849D01*
X009390Y007007D02*
X012920Y007007D01*
X012920Y007166D02*
X009390Y007166D01*
X009390Y007324D02*
X012920Y007324D01*
X012920Y007483D02*
X009390Y007483D01*
X009390Y007641D02*
X012920Y007641D01*
X012920Y007800D02*
X009390Y007800D01*
X009390Y007958D02*
X012920Y007958D01*
X012904Y008117D02*
X009390Y008117D01*
X009130Y008680D02*
X009130Y006180D01*
X009630Y005680D01*
X009630Y002680D01*
X009153Y002728D02*
X008138Y002728D01*
X008138Y002886D02*
X009153Y002886D01*
X009153Y003045D02*
X008138Y003045D01*
X007890Y003203D02*
X009370Y003203D01*
X009370Y003362D02*
X007890Y003362D01*
X007890Y003520D02*
X009370Y003520D01*
X009370Y003679D02*
X007890Y003679D01*
X007890Y003837D02*
X009370Y003837D01*
X009370Y003996D02*
X007890Y003996D01*
X007890Y004154D02*
X009370Y004154D01*
X009370Y004313D02*
X009123Y004313D01*
X009123Y004471D02*
X009370Y004471D01*
X009370Y004630D02*
X009123Y004630D01*
X009123Y004788D02*
X009370Y004788D01*
X009370Y004947D02*
X009123Y004947D01*
X009037Y005105D02*
X009370Y005105D01*
X009370Y005264D02*
X008890Y005264D01*
X008890Y005422D02*
X009370Y005422D01*
X009362Y005581D02*
X008890Y005581D01*
X008890Y005739D02*
X009203Y005739D01*
X009045Y005898D02*
X008890Y005898D01*
X008890Y006056D02*
X008900Y006056D01*
X008370Y006056D02*
X007890Y006056D01*
X007890Y005898D02*
X008370Y005898D01*
X008370Y005739D02*
X007890Y005739D01*
X007890Y005581D02*
X008370Y005581D01*
X008370Y005422D02*
X007890Y005422D01*
X007890Y005264D02*
X008370Y005264D01*
X008254Y005105D02*
X007890Y005105D01*
X007890Y004947D02*
X008169Y004947D01*
X008169Y004788D02*
X007890Y004788D01*
X007890Y004630D02*
X008169Y004630D01*
X008169Y004471D02*
X007890Y004471D01*
X007890Y004313D02*
X008169Y004313D01*
X008630Y004664D02*
X008646Y004649D01*
X008630Y004664D02*
X008630Y008680D01*
X008130Y008680D02*
X008130Y007180D01*
X007630Y006680D01*
X007630Y002711D01*
X007661Y002680D01*
X008138Y002569D02*
X009153Y002569D01*
X009153Y002411D02*
X008138Y002411D01*
X008082Y002252D02*
X009210Y002252D01*
X010050Y002252D02*
X010420Y002252D01*
X010420Y002094D02*
X002390Y002094D01*
X002390Y002252D02*
X007241Y002252D01*
X007185Y002411D02*
X002390Y002411D01*
X002390Y002569D02*
X003667Y002569D01*
X003717Y002541D02*
X004055Y002450D01*
X004405Y002450D01*
X004743Y002541D01*
X005047Y002716D01*
X005294Y002963D01*
X005469Y003267D01*
X005560Y003605D01*
X005560Y003955D01*
X005469Y004293D01*
X005294Y004597D01*
X005047Y004844D01*
X004743Y005019D01*
X004405Y005110D01*
X004055Y005110D01*
X003717Y005019D01*
X003413Y004844D01*
X003166Y004597D01*
X002991Y004293D01*
X002900Y003955D01*
X002900Y003605D01*
X002991Y003267D01*
X003166Y002963D01*
X003413Y002716D01*
X003717Y002541D01*
X003402Y002728D02*
X002390Y002728D01*
X002390Y002886D02*
X003243Y002886D01*
X003119Y003045D02*
X002390Y003045D01*
X002390Y003203D02*
X003027Y003203D01*
X002965Y003362D02*
X002390Y003362D01*
X002390Y003520D02*
X002923Y003520D01*
X002900Y003679D02*
X002390Y003679D01*
X002390Y003837D02*
X002900Y003837D01*
X002911Y003996D02*
X002390Y003996D01*
X002390Y004154D02*
X002953Y004154D01*
X003002Y004313D02*
X002390Y004313D01*
X002390Y004471D02*
X003093Y004471D01*
X003199Y004630D02*
X002390Y004630D01*
X002390Y004788D02*
X003357Y004788D01*
X003590Y004947D02*
X002390Y004947D01*
X002390Y005105D02*
X004036Y005105D01*
X004424Y005105D02*
X006285Y005105D01*
X006200Y004947D02*
X004870Y004947D01*
X005103Y004788D02*
X006200Y004788D01*
X006200Y004630D02*
X005261Y004630D01*
X005367Y004471D02*
X006200Y004471D01*
X006200Y004313D02*
X005458Y004313D01*
X005507Y004154D02*
X007370Y004154D01*
X007370Y003996D02*
X005549Y003996D01*
X005560Y003837D02*
X007370Y003837D01*
X007370Y003679D02*
X005560Y003679D01*
X005537Y003520D02*
X007370Y003520D01*
X007370Y003362D02*
X005495Y003362D01*
X005433Y003203D02*
X007370Y003203D01*
X007185Y003045D02*
X005341Y003045D01*
X005217Y002886D02*
X007185Y002886D01*
X007185Y002728D02*
X005058Y002728D01*
X004793Y002569D02*
X007185Y002569D01*
X007154Y004313D02*
X007370Y004313D01*
X007370Y004471D02*
X007154Y004471D01*
X007154Y004630D02*
X007370Y004630D01*
X007370Y004788D02*
X007154Y004788D01*
X007154Y004947D02*
X007370Y004947D01*
X007370Y005105D02*
X007069Y005105D01*
X006890Y005264D02*
X007370Y005264D01*
X007370Y005422D02*
X006890Y005422D01*
X006890Y005581D02*
X007370Y005581D01*
X007370Y005739D02*
X006890Y005739D01*
X006890Y005898D02*
X007370Y005898D01*
X007370Y006056D02*
X006890Y006056D01*
X006890Y006215D02*
X007370Y006215D01*
X007370Y006373D02*
X006890Y006373D01*
X006890Y006532D02*
X007370Y006532D01*
X007370Y006690D02*
X006890Y006690D01*
X006890Y006849D02*
X007431Y006849D01*
X007589Y007007D02*
X006890Y007007D01*
X006983Y007166D02*
X007748Y007166D01*
X007870Y007324D02*
X007142Y007324D01*
X007300Y007483D02*
X007870Y007483D01*
X007870Y007641D02*
X007459Y007641D01*
X007617Y007800D02*
X007870Y007800D01*
X007870Y007958D02*
X007776Y007958D01*
X007630Y008180D02*
X006630Y007180D01*
X006630Y004696D01*
X006677Y004649D01*
X006370Y005264D02*
X002390Y005264D01*
X002390Y005422D02*
X006370Y005422D01*
X006370Y005581D02*
X002390Y005581D01*
X002390Y005739D02*
X006370Y005739D01*
X006370Y005898D02*
X002390Y005898D01*
X002390Y006056D02*
X006370Y006056D01*
X006370Y006215D02*
X002390Y006215D01*
X002390Y006373D02*
X006370Y006373D01*
X006370Y006532D02*
X002390Y006532D01*
X002390Y006690D02*
X006370Y006690D01*
X006370Y006849D02*
X002390Y006849D01*
X002390Y007007D02*
X006370Y007007D01*
X006370Y007166D02*
X002390Y007166D01*
X002390Y007324D02*
X006408Y007324D01*
X006565Y007483D02*
X005131Y007483D01*
X005157Y007641D02*
X006723Y007641D01*
X006882Y007800D02*
X005157Y007800D01*
X005157Y007958D02*
X007040Y007958D01*
X007199Y008117D02*
X005284Y008117D01*
X005443Y008275D02*
X006832Y008275D01*
X007130Y008680D02*
X005480Y008680D01*
X004680Y007880D01*
X004203Y007958D02*
X002390Y007958D01*
X002390Y007800D02*
X004203Y007800D01*
X004203Y007641D02*
X002390Y007641D01*
X002390Y007483D02*
X004229Y007483D01*
X004203Y008117D02*
X002390Y008117D01*
X002390Y008275D02*
X004227Y008275D01*
X004866Y008434D02*
X002390Y008434D01*
X002390Y008592D02*
X005024Y008592D01*
X005183Y008751D02*
X002390Y008751D01*
X002390Y008909D02*
X005353Y008909D01*
X004996Y009628D02*
X005069Y009701D01*
X005069Y009701D01*
X005400Y010033D01*
X005440Y010128D01*
X005440Y010822D01*
X006038Y011420D01*
X007022Y011420D01*
X007228Y011214D01*
X006937Y011214D01*
X006832Y011109D01*
X006832Y011040D01*
X006528Y011040D01*
X006433Y011000D01*
X006360Y010927D01*
X006220Y010788D01*
X006027Y010788D01*
X005922Y010683D01*
X005922Y010177D01*
X005440Y010177D01*
X005440Y010336D02*
X005922Y010336D01*
X005922Y010494D02*
X005440Y010494D01*
X005440Y010653D02*
X005922Y010653D01*
X006243Y010811D02*
X005440Y010811D01*
X005587Y010970D02*
X006402Y010970D01*
X006580Y010780D02*
X007030Y010780D01*
X007130Y010680D01*
X006832Y010520D02*
X006832Y010251D01*
X006937Y010146D01*
X007323Y010146D01*
X007380Y010203D01*
X007437Y010146D01*
X007823Y010146D01*
X007880Y010203D01*
X007937Y010146D01*
X008323Y010146D01*
X008380Y010203D01*
X008437Y010146D01*
X008823Y010146D01*
X008880Y010203D01*
X008937Y010146D01*
X009323Y010146D01*
X009380Y010203D01*
X009437Y010146D01*
X009823Y010146D01*
X009880Y010203D01*
X009937Y010146D01*
X010323Y010146D01*
X010428Y010251D01*
X010428Y011109D01*
X010323Y011214D01*
X009937Y011214D01*
X009890Y011167D01*
X009890Y013651D01*
X009974Y013735D01*
X010454Y013735D01*
X010560Y013840D01*
X010560Y014583D01*
X010454Y014688D01*
X009711Y014688D01*
X009606Y014583D01*
X009606Y014102D01*
X009410Y013906D01*
X009390Y013859D01*
X009390Y015703D01*
X009470Y015703D01*
X009575Y015809D01*
X009575Y016551D01*
X009470Y016657D01*
X008727Y016657D01*
X008622Y016551D01*
X008622Y015809D01*
X008727Y015703D01*
X008870Y015703D01*
X008870Y012780D01*
X008850Y012827D01*
X008390Y013288D01*
X008390Y013735D01*
X008486Y013735D01*
X008591Y013840D01*
X008591Y014583D01*
X008486Y014688D01*
X007743Y014688D01*
X007637Y014583D01*
X007637Y013840D01*
X007743Y013735D01*
X007870Y013735D01*
X007870Y013128D01*
X007910Y013033D01*
X007983Y012960D01*
X008370Y012572D01*
X008370Y011780D01*
X008350Y011827D01*
X007390Y012788D01*
X007390Y015703D01*
X007501Y015703D01*
X007607Y015809D01*
X007607Y016551D01*
X007501Y016657D01*
X006759Y016657D01*
X006653Y016551D01*
X006653Y015809D01*
X006759Y015703D01*
X006870Y015703D01*
X006870Y012628D01*
X006910Y012533D01*
X006983Y012460D01*
X007870Y011572D01*
X007870Y011280D01*
X007850Y011327D01*
X007350Y011827D01*
X007277Y011900D01*
X007182Y011940D01*
X005878Y011940D01*
X005783Y011900D01*
X005710Y011827D01*
X005033Y011150D01*
X004960Y011077D01*
X004920Y010982D01*
X004920Y010288D01*
X004741Y010109D01*
X004173Y010109D01*
X004173Y010220D01*
X004067Y010325D01*
X003324Y010325D01*
X003219Y010220D01*
X003219Y009477D01*
X003324Y009372D01*
X004067Y009372D01*
X004173Y009477D01*
X004173Y009589D01*
X004900Y009589D01*
X004996Y009628D01*
X005069Y009702D02*
X013684Y009702D01*
X013525Y009543D02*
X004173Y009543D01*
X004080Y009385D02*
X013421Y009385D01*
X013414Y009226D02*
X013420Y009226D01*
X013680Y009330D02*
X013980Y009630D01*
X017430Y009630D01*
X017680Y009380D01*
X017940Y009385D02*
X018017Y009385D01*
X017885Y009543D02*
X018175Y009543D01*
X018335Y009702D02*
X017726Y009702D01*
X017554Y009860D02*
X024222Y009860D01*
X024164Y009918D02*
X024318Y009764D01*
X024400Y009730D01*
X024318Y009696D01*
X024164Y009542D01*
X024080Y009339D01*
X024080Y009121D01*
X024164Y008918D01*
X024318Y008764D01*
X024400Y008730D01*
X024318Y008696D01*
X024164Y008542D01*
X024080Y008339D01*
X024080Y008121D01*
X024164Y007918D01*
X024290Y007792D01*
X024290Y007570D01*
X023158Y007570D01*
X023033Y007518D01*
X022937Y007423D01*
X022387Y006872D01*
X022219Y006872D01*
X022114Y006766D01*
X022114Y006302D01*
X022219Y006197D01*
X022456Y006197D01*
X022462Y006194D01*
X022598Y006194D01*
X022604Y006197D01*
X022841Y006197D01*
X022946Y006302D01*
X022946Y006470D01*
X023367Y006890D01*
X024340Y006890D01*
X024340Y005957D01*
X024009Y005957D01*
X023903Y005851D01*
X023903Y005109D01*
X024009Y005003D01*
X024040Y005003D01*
X024040Y004428D01*
X024092Y004303D01*
X024187Y004208D01*
X024887Y003508D01*
X024887Y003140D01*
X024993Y003035D01*
X025736Y003035D01*
X025841Y003140D01*
X025841Y003883D01*
X025736Y003988D01*
X025368Y003988D01*
X024720Y004637D01*
X024720Y005003D01*
X024751Y005003D01*
X024857Y005109D01*
X024857Y005476D01*
X024873Y005492D01*
X024968Y005587D01*
X025020Y005712D01*
X025020Y006840D01*
X025635Y006840D01*
X026338Y006137D01*
X026338Y005969D01*
X026444Y005864D01*
X026908Y005864D01*
X027013Y005969D01*
X027013Y006206D01*
X027016Y006212D01*
X027016Y006348D01*
X027013Y006354D01*
X027013Y006591D01*
X026908Y006696D01*
X026740Y006696D01*
X026064Y007373D01*
X025968Y007468D01*
X025843Y007520D01*
X024970Y007520D01*
X024970Y007792D01*
X025096Y007918D01*
X025180Y008121D01*
X025180Y008339D01*
X025096Y008542D01*
X024942Y008696D01*
X024860Y008730D01*
X024942Y008764D01*
X025096Y008918D01*
X025180Y009121D01*
X025180Y009339D01*
X025096Y009542D01*
X024942Y009696D01*
X024860Y009730D01*
X024942Y009764D01*
X025096Y009918D01*
X025180Y010121D01*
X025180Y010339D01*
X025096Y010542D01*
X025020Y010618D01*
X025020Y011248D01*
X024968Y011373D01*
X024564Y011777D01*
X024468Y011873D01*
X024343Y011924D01*
X023970Y011924D01*
X023970Y012489D01*
X024371Y012890D01*
X024403Y012890D01*
X024403Y012859D01*
X024509Y012753D01*
X025251Y012753D01*
X025357Y012859D01*
X025357Y012890D01*
X025489Y012890D01*
X025590Y012789D01*
X025590Y011922D01*
X025569Y011922D01*
X025464Y011816D01*
X025464Y011352D01*
X025569Y011247D01*
X025806Y011247D01*
X025812Y011244D01*
X025948Y011244D01*
X025954Y011247D01*
X026191Y011247D01*
X026296Y011352D01*
X026296Y011816D01*
X026270Y011843D01*
X026270Y012998D01*
X026218Y013123D01*
X025918Y013423D01*
X025823Y013518D01*
X025698Y013570D01*
X025357Y013570D01*
X025357Y013601D01*
X025251Y013707D01*
X025220Y013707D01*
X025220Y014282D01*
X025168Y014407D01*
X025073Y014502D01*
X024373Y015202D01*
X024373Y015570D01*
X024267Y015675D01*
X023524Y015675D01*
X023419Y015570D01*
X023419Y014827D01*
X023524Y014722D01*
X023892Y014722D01*
X024540Y014073D01*
X024540Y013707D01*
X024509Y013707D01*
X024403Y013601D01*
X024403Y013570D01*
X024162Y013570D01*
X024037Y013518D01*
X023942Y013423D01*
X023342Y012823D01*
X023290Y012698D01*
X023290Y011893D01*
X023214Y011816D01*
X023214Y011352D01*
X023319Y011247D01*
X023556Y011247D01*
X023562Y011244D01*
X024135Y011244D01*
X024340Y011039D01*
X024340Y010705D01*
X024318Y010696D01*
X024164Y010542D01*
X024080Y010339D01*
X024080Y010121D01*
X024164Y009918D01*
X024122Y010019D02*
X005386Y010019D01*
X005228Y009860D02*
X013856Y009860D01*
X013875Y010095D02*
X013485Y010095D01*
X013430Y010150D01*
X013375Y010095D01*
X012985Y010095D01*
X012880Y010200D01*
X012880Y011120D01*
X012838Y011120D01*
X012838Y010927D01*
X012733Y010822D01*
X012227Y010822D01*
X012122Y010927D01*
X012122Y011433D01*
X012227Y011538D01*
X012470Y011538D01*
X012533Y011600D01*
X012628Y011640D01*
X013102Y011640D01*
X012033Y012710D01*
X011960Y012783D01*
X011920Y012878D01*
X011920Y013735D01*
X011809Y013735D01*
X011703Y013840D01*
X011703Y014583D01*
X011809Y014688D01*
X012551Y014688D01*
X012657Y014583D01*
X012657Y013840D01*
X012551Y013735D01*
X012440Y013735D01*
X012440Y013038D01*
X013900Y011577D01*
X013920Y011530D01*
X013920Y011822D01*
X013033Y012710D01*
X012960Y012783D01*
X012920Y012878D01*
X012920Y015703D01*
X012793Y015703D01*
X012687Y015809D01*
X012687Y016551D01*
X012793Y016657D01*
X013536Y016657D01*
X013641Y016551D01*
X013641Y015809D01*
X013536Y015703D01*
X013440Y015703D01*
X013440Y013038D01*
X014400Y012077D01*
X014420Y012030D01*
X014420Y012822D01*
X014033Y013210D01*
X014033Y013210D01*
X013960Y013283D01*
X013920Y013378D01*
X013920Y013735D01*
X013777Y013735D01*
X013672Y013840D01*
X013672Y014583D01*
X013777Y014688D01*
X014520Y014688D01*
X014625Y014583D01*
X014625Y013840D01*
X014520Y013735D01*
X014440Y013735D01*
X014440Y013538D01*
X014900Y013077D01*
X014940Y012982D01*
X014940Y011260D01*
X014980Y011220D01*
X014980Y010200D01*
X014875Y010095D01*
X014485Y010095D01*
X014430Y010150D01*
X014375Y010095D01*
X013985Y010095D01*
X013930Y010150D01*
X013875Y010095D01*
X012903Y010177D02*
X010354Y010177D01*
X010428Y010336D02*
X012880Y010336D01*
X012880Y010494D02*
X010428Y010494D01*
X010428Y010653D02*
X012880Y010653D01*
X012880Y010811D02*
X010428Y010811D01*
X010428Y010970D02*
X012122Y010970D01*
X012122Y011128D02*
X010409Y011128D01*
X009890Y011287D02*
X012122Y011287D01*
X012134Y011445D02*
X009890Y011445D01*
X009890Y011604D02*
X012540Y011604D01*
X012680Y011380D02*
X012480Y011180D01*
X012680Y011380D02*
X013080Y011380D01*
X013180Y011280D01*
X013180Y010710D01*
X012880Y010970D02*
X012838Y010970D01*
X013680Y010710D02*
X013680Y011430D01*
X012180Y012930D01*
X012180Y014211D01*
X011703Y014140D02*
X010560Y014140D01*
X010560Y014298D02*
X011703Y014298D01*
X011703Y014457D02*
X010560Y014457D01*
X010527Y014615D02*
X011735Y014615D01*
X011703Y013981D02*
X010560Y013981D01*
X010542Y013823D02*
X011721Y013823D01*
X011920Y013664D02*
X009903Y013664D01*
X009890Y013506D02*
X011920Y013506D01*
X011920Y013347D02*
X009890Y013347D01*
X009890Y013189D02*
X011920Y013189D01*
X011920Y013030D02*
X009890Y013030D01*
X009890Y012872D02*
X011923Y012872D01*
X012029Y012713D02*
X009890Y012713D01*
X009890Y012555D02*
X012188Y012555D01*
X012346Y012396D02*
X009890Y012396D01*
X009890Y012238D02*
X012505Y012238D01*
X012663Y012079D02*
X009890Y012079D01*
X009890Y011921D02*
X012822Y011921D01*
X012980Y011762D02*
X009890Y011762D01*
X009630Y010680D02*
X009630Y013759D01*
X010083Y014211D01*
X009606Y014140D02*
X009390Y014140D01*
X009390Y014298D02*
X009606Y014298D01*
X009606Y014457D02*
X009390Y014457D01*
X009390Y014615D02*
X009638Y014615D01*
X009390Y014774D02*
X012920Y014774D01*
X012920Y014932D02*
X009390Y014932D01*
X009390Y015091D02*
X012920Y015091D01*
X012920Y015249D02*
X009390Y015249D01*
X009390Y015408D02*
X012920Y015408D01*
X012920Y015566D02*
X009390Y015566D01*
X009491Y015725D02*
X012771Y015725D01*
X012687Y015883D02*
X009575Y015883D01*
X009575Y016042D02*
X012687Y016042D01*
X012687Y016200D02*
X009575Y016200D01*
X009575Y016359D02*
X012687Y016359D01*
X012687Y016517D02*
X009575Y016517D01*
X009130Y016149D02*
X009099Y016180D01*
X009130Y016149D02*
X009130Y010680D01*
X008630Y010680D02*
X008630Y012680D01*
X008130Y013180D01*
X008130Y014196D01*
X008114Y014211D01*
X007637Y014140D02*
X007390Y014140D01*
X007390Y014298D02*
X007637Y014298D01*
X007637Y014457D02*
X007390Y014457D01*
X007390Y014615D02*
X007670Y014615D01*
X007390Y014774D02*
X008870Y014774D01*
X008870Y014932D02*
X007390Y014932D01*
X007390Y015091D02*
X008870Y015091D01*
X008870Y015249D02*
X007390Y015249D01*
X007390Y015408D02*
X008870Y015408D01*
X008870Y015566D02*
X007390Y015566D01*
X007523Y015725D02*
X008706Y015725D01*
X008622Y015883D02*
X007607Y015883D01*
X007607Y016042D02*
X008622Y016042D01*
X008622Y016200D02*
X007607Y016200D01*
X007607Y016359D02*
X008622Y016359D01*
X008622Y016517D02*
X007607Y016517D01*
X007130Y016180D02*
X007130Y012680D01*
X008130Y011680D01*
X008130Y010680D01*
X007630Y010680D02*
X007630Y011180D01*
X007130Y011680D01*
X005930Y011680D01*
X005180Y010930D01*
X005180Y010180D01*
X004849Y009849D01*
X003696Y009849D01*
X003219Y009860D02*
X002390Y009860D01*
X002390Y009702D02*
X003219Y009702D01*
X003219Y009543D02*
X002390Y009543D01*
X002390Y009385D02*
X003311Y009385D01*
X003219Y010019D02*
X002390Y010019D01*
X002390Y010177D02*
X003219Y010177D01*
X002390Y010336D02*
X004920Y010336D01*
X004920Y010494D02*
X002390Y010494D01*
X002390Y010653D02*
X004920Y010653D01*
X004920Y010811D02*
X002390Y010811D01*
X002390Y010970D02*
X004920Y010970D01*
X005010Y011128D02*
X002390Y011128D01*
X002390Y011287D02*
X005169Y011287D01*
X005033Y011150D02*
X005033Y011150D01*
X005327Y011445D02*
X002390Y011445D01*
X002390Y011604D02*
X005486Y011604D01*
X005644Y011762D02*
X002390Y011762D01*
X002390Y011921D02*
X005831Y011921D01*
X005710Y011827D02*
X005710Y011827D01*
X005904Y011287D02*
X007156Y011287D01*
X006851Y011128D02*
X005746Y011128D01*
X006280Y010480D02*
X006580Y010780D01*
X006688Y010520D02*
X006832Y010520D01*
X006832Y010494D02*
X006662Y010494D01*
X006638Y010470D02*
X006688Y010520D01*
X006638Y010470D02*
X006638Y010177D01*
X006906Y010177D01*
X006832Y010336D02*
X006638Y010336D01*
X006638Y010177D02*
X006533Y010072D01*
X006027Y010072D01*
X005922Y010177D01*
X006280Y010430D02*
X006280Y010480D01*
X007354Y010177D02*
X007406Y010177D01*
X007854Y010177D02*
X007906Y010177D01*
X008354Y010177D02*
X008406Y010177D01*
X008854Y010177D02*
X008906Y010177D01*
X009354Y010177D02*
X009406Y010177D01*
X009854Y010177D02*
X009906Y010177D01*
X010130Y009214D02*
X010130Y008680D01*
X010130Y008680D01*
X010130Y009214D01*
X010130Y009068D02*
X010130Y009068D01*
X010130Y008909D02*
X010130Y008909D01*
X010130Y008751D02*
X010130Y008751D01*
X010130Y008680D02*
X010428Y008680D01*
X010130Y008680D01*
X010130Y008680D01*
X010130Y008146D01*
X010130Y008680D01*
X010130Y008680D01*
X010130Y008592D02*
X010130Y008592D01*
X010130Y008434D02*
X010130Y008434D01*
X010130Y008275D02*
X010130Y008275D01*
X010421Y008275D02*
X012880Y008275D01*
X012880Y008434D02*
X010428Y008434D01*
X010428Y008592D02*
X012880Y008592D01*
X012880Y008751D02*
X010428Y008751D01*
X010428Y008909D02*
X012880Y008909D01*
X012880Y009068D02*
X010426Y009068D01*
X012946Y009226D02*
X002390Y009226D01*
X002390Y009068D02*
X006832Y009068D01*
X007630Y008680D02*
X007630Y008180D01*
X008325Y007007D02*
X008370Y007007D01*
X008370Y006849D02*
X008166Y006849D01*
X008008Y006690D02*
X008370Y006690D01*
X008370Y006532D02*
X007890Y006532D01*
X007890Y006373D02*
X008370Y006373D01*
X008370Y006215D02*
X007890Y006215D01*
X009890Y004788D02*
X010670Y004788D01*
X010512Y004630D02*
X009890Y004630D01*
X009890Y004471D02*
X010420Y004471D01*
X010420Y004313D02*
X009890Y004313D01*
X009890Y004154D02*
X010420Y004154D01*
X010420Y003996D02*
X009890Y003996D01*
X009890Y003837D02*
X010420Y003837D01*
X010420Y003679D02*
X009890Y003679D01*
X009890Y003520D02*
X010420Y003520D01*
X010420Y003362D02*
X009890Y003362D01*
X009890Y003203D02*
X010420Y003203D01*
X010420Y003045D02*
X010107Y003045D01*
X010107Y002886D02*
X010420Y002886D01*
X010420Y002728D02*
X010107Y002728D01*
X010107Y002569D02*
X010420Y002569D01*
X010420Y002411D02*
X010107Y002411D01*
X010420Y001935D02*
X002390Y001935D01*
X002390Y001777D02*
X010466Y001777D01*
X010624Y001618D02*
X002390Y001618D01*
X002390Y001460D02*
X010783Y001460D01*
X012135Y003203D02*
X012393Y003203D01*
X011680Y003880D02*
X013180Y003880D01*
X012516Y005739D02*
X012344Y005739D01*
X012410Y005898D02*
X012450Y005898D01*
X012450Y006056D02*
X012410Y006056D01*
X012410Y006215D02*
X012450Y006215D01*
X012450Y006373D02*
X012410Y006373D01*
X012410Y006532D02*
X012450Y006532D01*
X012930Y006180D02*
X013180Y006430D01*
X013180Y008650D01*
X013680Y008650D02*
X013680Y009330D01*
X013944Y009226D02*
X013946Y009226D01*
X014414Y009226D02*
X014446Y009226D01*
X014680Y009226D02*
X014680Y009226D01*
X014680Y009068D02*
X014680Y009068D01*
X014680Y008909D02*
X014680Y008909D01*
X014680Y008751D02*
X014680Y008751D01*
X014957Y010177D02*
X016903Y010177D01*
X016880Y010200D02*
X016985Y010095D01*
X017375Y010095D01*
X017430Y010150D01*
X017485Y010095D01*
X017875Y010095D01*
X017930Y010150D01*
X017985Y010095D01*
X018375Y010095D01*
X018430Y010150D01*
X018485Y010095D01*
X018875Y010095D01*
X018980Y010200D01*
X018980Y011220D01*
X018940Y011260D01*
X018940Y012732D01*
X018900Y012827D01*
X018440Y013288D01*
X018440Y013735D01*
X018520Y013735D01*
X018625Y013840D01*
X018625Y014583D01*
X018520Y014688D01*
X017777Y014688D01*
X017672Y014583D01*
X017672Y013840D01*
X017777Y013735D01*
X017920Y013735D01*
X017920Y013128D01*
X017960Y013033D01*
X018033Y012960D01*
X018420Y012572D01*
X018420Y012280D01*
X018400Y012327D01*
X017440Y013288D01*
X017440Y015703D01*
X017536Y015703D01*
X017641Y015809D01*
X017641Y016551D01*
X017536Y016657D01*
X016793Y016657D01*
X016687Y016551D01*
X016687Y015809D01*
X016793Y015703D01*
X016920Y015703D01*
X016920Y013128D01*
X016960Y013033D01*
X017033Y012960D01*
X017920Y012072D01*
X017920Y011780D01*
X017900Y011827D01*
X016440Y013288D01*
X016440Y013735D01*
X016551Y013735D01*
X016657Y013840D01*
X016657Y014583D01*
X016551Y014688D01*
X015809Y014688D01*
X015703Y014583D01*
X015703Y013840D01*
X015809Y013735D01*
X015920Y013735D01*
X015920Y013128D01*
X015960Y013033D01*
X016033Y012960D01*
X017420Y011572D01*
X017420Y011280D01*
X017375Y011325D01*
X017303Y011325D01*
X017150Y011477D01*
X017077Y011550D01*
X016982Y011590D01*
X016628Y011590D01*
X016533Y011550D01*
X016420Y011438D01*
X016177Y011438D01*
X016072Y011333D01*
X016072Y010827D01*
X016177Y010722D01*
X016683Y010722D01*
X016788Y010827D01*
X016788Y011070D01*
X016822Y011070D01*
X016880Y011012D01*
X016880Y010200D01*
X016880Y010336D02*
X014980Y010336D01*
X014980Y010494D02*
X016880Y010494D01*
X016880Y010653D02*
X014980Y010653D01*
X014980Y010811D02*
X016088Y010811D01*
X016072Y010970D02*
X014980Y010970D01*
X014980Y011128D02*
X016072Y011128D01*
X016072Y011287D02*
X014940Y011287D01*
X014940Y011445D02*
X016427Y011445D01*
X016680Y011330D02*
X016430Y011080D01*
X016680Y011330D02*
X016930Y011330D01*
X017180Y011080D01*
X017180Y010710D01*
X016880Y010811D02*
X016772Y010811D01*
X016788Y010970D02*
X016880Y010970D01*
X017413Y011287D02*
X017420Y011287D01*
X017420Y011445D02*
X017183Y011445D01*
X017389Y011604D02*
X014940Y011604D01*
X014940Y011762D02*
X017230Y011762D01*
X017072Y011921D02*
X014940Y011921D01*
X014940Y012079D02*
X016913Y012079D01*
X016755Y012238D02*
X014940Y012238D01*
X014940Y012396D02*
X016596Y012396D01*
X016438Y012555D02*
X014940Y012555D01*
X014940Y012713D02*
X016279Y012713D01*
X016121Y012872D02*
X014940Y012872D01*
X014920Y013030D02*
X015962Y013030D01*
X015920Y013189D02*
X014789Y013189D01*
X014631Y013347D02*
X015920Y013347D01*
X015920Y013506D02*
X014472Y013506D01*
X014440Y013664D02*
X015920Y013664D01*
X015721Y013823D02*
X014608Y013823D01*
X014625Y013981D02*
X015703Y013981D01*
X015703Y014140D02*
X014625Y014140D01*
X014625Y014298D02*
X015703Y014298D01*
X015703Y014457D02*
X014625Y014457D01*
X014593Y014615D02*
X015735Y014615D01*
X016180Y014211D02*
X016180Y013180D01*
X017680Y011680D01*
X017680Y010710D01*
X018180Y010710D02*
X018180Y012180D01*
X017180Y013180D01*
X017180Y016164D01*
X017164Y016180D01*
X016687Y016200D02*
X013641Y016200D01*
X013641Y016042D02*
X016687Y016042D01*
X016687Y015883D02*
X013641Y015883D01*
X013557Y015725D02*
X016771Y015725D01*
X016920Y015566D02*
X013440Y015566D01*
X013440Y015408D02*
X016920Y015408D01*
X016920Y015249D02*
X013440Y015249D01*
X013440Y015091D02*
X016920Y015091D01*
X016920Y014932D02*
X013440Y014932D01*
X013440Y014774D02*
X016920Y014774D01*
X016920Y014615D02*
X016625Y014615D01*
X016657Y014457D02*
X016920Y014457D01*
X016920Y014298D02*
X016657Y014298D01*
X016657Y014140D02*
X016920Y014140D01*
X016920Y013981D02*
X016657Y013981D01*
X016639Y013823D02*
X016920Y013823D01*
X016920Y013664D02*
X016440Y013664D01*
X016440Y013506D02*
X016920Y013506D01*
X016920Y013347D02*
X016440Y013347D01*
X016539Y013189D02*
X016920Y013189D01*
X016962Y013030D02*
X016698Y013030D01*
X016856Y012872D02*
X017121Y012872D01*
X017033Y012960D02*
X017033Y012960D01*
X017015Y012713D02*
X017279Y012713D01*
X017173Y012555D02*
X017438Y012555D01*
X017332Y012396D02*
X017596Y012396D01*
X017490Y012238D02*
X017755Y012238D01*
X017649Y012079D02*
X017913Y012079D01*
X017920Y011921D02*
X017807Y011921D01*
X018332Y012396D02*
X018420Y012396D01*
X018420Y012555D02*
X018173Y012555D01*
X018279Y012713D02*
X018015Y012713D01*
X018121Y012872D02*
X017856Y012872D01*
X017962Y013030D02*
X017698Y013030D01*
X017539Y013189D02*
X017920Y013189D01*
X017920Y013347D02*
X017440Y013347D01*
X017440Y013506D02*
X017920Y013506D01*
X017920Y013664D02*
X017440Y013664D01*
X017440Y013823D02*
X017689Y013823D01*
X017672Y013981D02*
X017440Y013981D01*
X017440Y014140D02*
X017672Y014140D01*
X017672Y014298D02*
X017440Y014298D01*
X017440Y014457D02*
X017672Y014457D01*
X017704Y014615D02*
X017440Y014615D01*
X017440Y014774D02*
X021170Y014774D01*
X021170Y014932D02*
X017440Y014932D01*
X017440Y015091D02*
X021170Y015091D01*
X021170Y015249D02*
X017440Y015249D01*
X017440Y015408D02*
X021170Y015408D01*
X021170Y015566D02*
X017440Y015566D01*
X017557Y015725D02*
X020921Y015725D01*
X020943Y015703D02*
X021170Y015703D01*
X021170Y013378D01*
X021210Y013283D01*
X021283Y013210D01*
X021570Y012922D01*
X021570Y011880D01*
X021550Y011927D01*
X020690Y012788D01*
X020690Y013735D01*
X020701Y013735D01*
X020807Y013840D01*
X020807Y014583D01*
X020701Y014688D01*
X019959Y014688D01*
X019853Y014583D01*
X019853Y013840D01*
X019959Y013735D01*
X020170Y013735D01*
X020170Y012628D01*
X020210Y012533D01*
X020283Y012460D01*
X021070Y011672D01*
X021070Y011330D01*
X021050Y011377D01*
X020950Y011477D01*
X020877Y011550D01*
X020782Y011590D01*
X020278Y011590D01*
X020274Y011588D01*
X019977Y011588D01*
X019872Y011483D01*
X019872Y010977D01*
X019977Y010872D01*
X020483Y010872D01*
X020530Y010919D01*
X020530Y010200D01*
X020635Y010095D01*
X021025Y010095D01*
X021080Y010150D01*
X021135Y010095D01*
X021525Y010095D01*
X021580Y010150D01*
X021635Y010095D01*
X022025Y010095D01*
X022080Y010150D01*
X022135Y010095D01*
X022525Y010095D01*
X022630Y010200D01*
X022630Y011220D01*
X022590Y011260D01*
X022590Y013735D01*
X022670Y013735D01*
X022775Y013840D01*
X022775Y014583D01*
X022670Y014688D01*
X021927Y014688D01*
X021822Y014583D01*
X021822Y013840D01*
X021927Y013735D01*
X022070Y013735D01*
X022070Y013130D01*
X022050Y013177D01*
X021690Y013538D01*
X021690Y015707D01*
X021791Y015809D01*
X021791Y016551D01*
X021686Y016657D01*
X020943Y016657D01*
X020837Y016551D01*
X020837Y015809D01*
X020943Y015703D01*
X020837Y015883D02*
X017641Y015883D01*
X017641Y016042D02*
X020837Y016042D01*
X020837Y016200D02*
X017641Y016200D01*
X017641Y016359D02*
X020837Y016359D01*
X020837Y016517D02*
X017641Y016517D01*
X016687Y016517D02*
X013641Y016517D01*
X013641Y016359D02*
X016687Y016359D01*
X018593Y014615D02*
X019885Y014615D01*
X019853Y014457D02*
X018625Y014457D01*
X018625Y014298D02*
X019853Y014298D01*
X019853Y014140D02*
X018625Y014140D01*
X018625Y013981D02*
X019853Y013981D01*
X019871Y013823D02*
X018608Y013823D01*
X018440Y013664D02*
X020170Y013664D01*
X020170Y013506D02*
X018440Y013506D01*
X018440Y013347D02*
X020170Y013347D01*
X020170Y013189D02*
X018539Y013189D01*
X018698Y013030D02*
X020170Y013030D01*
X020170Y012872D02*
X018856Y012872D01*
X018940Y012713D02*
X020170Y012713D01*
X020201Y012555D02*
X018940Y012555D01*
X018940Y012396D02*
X020346Y012396D01*
X020505Y012238D02*
X018940Y012238D01*
X018940Y012079D02*
X020663Y012079D01*
X020822Y011921D02*
X018940Y011921D01*
X018940Y011762D02*
X020980Y011762D01*
X021070Y011604D02*
X018940Y011604D01*
X018940Y011445D02*
X019872Y011445D01*
X019872Y011287D02*
X018940Y011287D01*
X018980Y011128D02*
X019872Y011128D01*
X019880Y010970D02*
X018980Y010970D01*
X018980Y010811D02*
X020530Y010811D01*
X020530Y010653D02*
X018980Y010653D01*
X018980Y010494D02*
X020530Y010494D01*
X020530Y010336D02*
X018980Y010336D01*
X018957Y010177D02*
X020553Y010177D01*
X020830Y010710D02*
X020830Y011230D01*
X020730Y011330D01*
X020330Y011330D01*
X020230Y011230D01*
X020983Y011445D02*
X021070Y011445D01*
X021330Y011780D02*
X020430Y012680D01*
X020430Y014111D01*
X020330Y014211D01*
X020807Y014140D02*
X021170Y014140D01*
X021170Y014298D02*
X020807Y014298D01*
X020807Y014457D02*
X021170Y014457D01*
X021170Y014615D02*
X020775Y014615D01*
X020807Y013981D02*
X021170Y013981D01*
X021170Y013823D02*
X020789Y013823D01*
X020690Y013664D02*
X021170Y013664D01*
X021170Y013506D02*
X020690Y013506D01*
X020690Y013347D02*
X021183Y013347D01*
X021304Y013189D02*
X020690Y013189D01*
X020690Y013030D02*
X021462Y013030D01*
X021570Y012872D02*
X020690Y012872D01*
X020765Y012713D02*
X021570Y012713D01*
X021570Y012555D02*
X020923Y012555D01*
X021082Y012396D02*
X021570Y012396D01*
X021570Y012238D02*
X021240Y012238D01*
X021399Y012079D02*
X021570Y012079D01*
X021553Y011921D02*
X021570Y011921D01*
X021330Y011780D02*
X021330Y010710D01*
X021830Y010710D02*
X021830Y013030D01*
X021430Y013430D01*
X021430Y016064D01*
X021314Y016180D01*
X021791Y016200D02*
X027433Y016200D01*
X027467Y016219D02*
X027163Y016044D01*
X026916Y015797D01*
X026741Y015493D01*
X026650Y015155D01*
X026650Y014805D01*
X026741Y014467D01*
X026916Y014163D01*
X027163Y013916D01*
X027467Y013741D01*
X027805Y013650D01*
X028155Y013650D01*
X028190Y013659D01*
X028190Y012195D01*
X028206Y012157D01*
X028206Y011880D01*
X028311Y011774D01*
X028815Y011774D01*
X028920Y011880D01*
X028920Y012580D01*
X028870Y012630D01*
X028870Y013898D01*
X028843Y013962D01*
X029044Y014163D01*
X029219Y014467D01*
X029310Y014805D01*
X029310Y015155D01*
X029219Y015493D01*
X029044Y015797D01*
X028797Y016044D01*
X028493Y016219D01*
X028155Y016310D01*
X027805Y016310D01*
X027467Y016219D01*
X027161Y016042D02*
X021791Y016042D01*
X021791Y015883D02*
X027002Y015883D01*
X026874Y015725D02*
X021707Y015725D01*
X021690Y015566D02*
X023419Y015566D01*
X023419Y015408D02*
X021690Y015408D01*
X021690Y015249D02*
X023419Y015249D01*
X023419Y015091D02*
X021690Y015091D01*
X021690Y014932D02*
X023419Y014932D01*
X023472Y014774D02*
X021690Y014774D01*
X021690Y014615D02*
X021854Y014615D01*
X021822Y014457D02*
X021690Y014457D01*
X021690Y014298D02*
X021822Y014298D01*
X021822Y014140D02*
X021690Y014140D01*
X021690Y013981D02*
X021822Y013981D01*
X021839Y013823D02*
X021690Y013823D01*
X021690Y013664D02*
X022070Y013664D01*
X022070Y013506D02*
X021722Y013506D01*
X021881Y013347D02*
X022070Y013347D01*
X022070Y013189D02*
X022039Y013189D01*
X022590Y013189D02*
X023708Y013189D01*
X023866Y013347D02*
X022590Y013347D01*
X022590Y013506D02*
X024025Y013506D01*
X024466Y013664D02*
X022590Y013664D01*
X022758Y013823D02*
X024540Y013823D01*
X024540Y013981D02*
X022775Y013981D01*
X022775Y014140D02*
X024474Y014140D01*
X024315Y014298D02*
X022775Y014298D01*
X022775Y014457D02*
X024157Y014457D01*
X023998Y014615D02*
X022743Y014615D01*
X022330Y014180D02*
X022299Y014211D01*
X022330Y014180D02*
X022330Y010710D01*
X022630Y010653D02*
X023225Y010653D01*
X023226Y010649D02*
X023250Y010608D01*
X023283Y010574D01*
X023324Y010550D01*
X023370Y010538D01*
X023630Y010538D01*
X023890Y010538D01*
X023936Y010550D01*
X023977Y010574D01*
X024010Y010608D01*
X024034Y010649D01*
X024046Y010694D01*
X024046Y010876D01*
X024046Y011057D01*
X024034Y011103D01*
X024010Y011144D01*
X023977Y011177D01*
X023936Y011201D01*
X023890Y011213D01*
X023630Y011213D01*
X023370Y011213D01*
X023324Y011201D01*
X023283Y011177D01*
X023250Y011144D01*
X023226Y011103D01*
X023214Y011057D01*
X023214Y010876D01*
X023630Y010876D01*
X023630Y011213D01*
X023630Y010876D01*
X023630Y010876D01*
X024046Y010876D01*
X023630Y010876D01*
X023630Y010876D01*
X023630Y010876D01*
X023214Y010876D01*
X023214Y010694D01*
X023226Y010649D01*
X023214Y010811D02*
X022630Y010811D01*
X022630Y010970D02*
X023214Y010970D01*
X023241Y011128D02*
X022630Y011128D01*
X022590Y011287D02*
X023280Y011287D01*
X023214Y011445D02*
X022590Y011445D01*
X022590Y011604D02*
X023214Y011604D01*
X023214Y011762D02*
X022590Y011762D01*
X022590Y011921D02*
X023290Y011921D01*
X023290Y012079D02*
X022590Y012079D01*
X022590Y012238D02*
X023290Y012238D01*
X023290Y012396D02*
X022590Y012396D01*
X022590Y012555D02*
X023290Y012555D01*
X023296Y012713D02*
X022590Y012713D01*
X022590Y012872D02*
X023391Y012872D01*
X023549Y013030D02*
X022590Y013030D01*
X023970Y012396D02*
X025590Y012396D01*
X025590Y012238D02*
X023970Y012238D01*
X023970Y012079D02*
X025590Y012079D01*
X025568Y011921D02*
X024352Y011921D01*
X024579Y011762D02*
X025464Y011762D01*
X025464Y011604D02*
X024737Y011604D01*
X024896Y011445D02*
X025464Y011445D01*
X025530Y011287D02*
X025004Y011287D01*
X025020Y011128D02*
X025491Y011128D01*
X025500Y011144D02*
X025476Y011103D01*
X025464Y011057D01*
X025464Y010876D01*
X025880Y010876D01*
X025880Y011213D01*
X025620Y011213D01*
X025574Y011201D01*
X025533Y011177D01*
X025500Y011144D01*
X025464Y010970D02*
X025020Y010970D01*
X025020Y010811D02*
X025464Y010811D01*
X025464Y010876D02*
X025464Y010694D01*
X025476Y010649D01*
X025500Y010608D01*
X025533Y010574D01*
X025574Y010550D01*
X025620Y010538D01*
X025880Y010538D01*
X026140Y010538D01*
X026186Y010550D01*
X026227Y010574D01*
X026260Y010608D01*
X026284Y010649D01*
X026296Y010694D01*
X026296Y010876D01*
X026296Y011057D01*
X026284Y011103D01*
X026260Y011144D01*
X026227Y011177D01*
X026186Y011201D01*
X026140Y011213D01*
X025880Y011213D01*
X025880Y010876D01*
X025880Y010876D01*
X026296Y010876D01*
X025880Y010876D01*
X025880Y010876D01*
X025880Y010876D01*
X025464Y010876D01*
X025880Y010876D02*
X025880Y010876D01*
X025880Y010538D01*
X025880Y010876D01*
X025880Y010811D02*
X025880Y010811D01*
X025880Y010653D02*
X025880Y010653D01*
X026285Y010653D02*
X029700Y010653D01*
X029700Y010811D02*
X026296Y010811D01*
X026296Y010970D02*
X029700Y010970D01*
X029700Y011128D02*
X026269Y011128D01*
X026230Y011287D02*
X029700Y011287D01*
X029700Y011445D02*
X026296Y011445D01*
X026296Y011604D02*
X029700Y011604D01*
X029700Y011762D02*
X026296Y011762D01*
X026270Y011921D02*
X027342Y011921D01*
X027340Y011931D02*
X027352Y011885D01*
X027376Y011844D01*
X027409Y011810D01*
X027450Y011787D01*
X027496Y011774D01*
X027688Y011774D01*
X027688Y012221D01*
X027706Y012221D01*
X027706Y012239D01*
X028054Y012239D01*
X028054Y012529D01*
X028042Y012575D01*
X028018Y012616D01*
X027985Y012650D01*
X027944Y012673D01*
X027898Y012686D01*
X027706Y012686D01*
X027706Y012239D01*
X027688Y012239D01*
X027688Y012686D01*
X027496Y012686D01*
X027450Y012673D01*
X027409Y012650D01*
X027376Y012616D01*
X027352Y012575D01*
X027340Y012529D01*
X027340Y012239D01*
X027688Y012239D01*
X027688Y012221D01*
X027340Y012221D01*
X027340Y011931D01*
X027340Y012079D02*
X026270Y012079D01*
X026270Y012238D02*
X027688Y012238D01*
X027706Y012238D02*
X028190Y012238D01*
X028054Y012221D02*
X027706Y012221D01*
X027706Y011774D01*
X027898Y011774D01*
X027944Y011787D01*
X027985Y011810D01*
X028018Y011844D01*
X028042Y011885D01*
X028054Y011931D01*
X028054Y012221D01*
X028054Y012079D02*
X028206Y012079D01*
X028206Y011921D02*
X028051Y011921D01*
X027706Y011921D02*
X027688Y011921D01*
X027688Y012079D02*
X027706Y012079D01*
X027688Y012396D02*
X027706Y012396D01*
X027706Y012555D02*
X027688Y012555D01*
X027347Y012555D02*
X026270Y012555D01*
X026270Y012713D02*
X028190Y012713D01*
X028190Y012555D02*
X028047Y012555D01*
X028054Y012396D02*
X028190Y012396D01*
X028190Y012872D02*
X026270Y012872D01*
X026257Y013030D02*
X028190Y013030D01*
X028190Y013189D02*
X026152Y013189D01*
X025994Y013347D02*
X028190Y013347D01*
X028190Y013506D02*
X025835Y013506D01*
X025294Y013664D02*
X027753Y013664D01*
X027325Y013823D02*
X025220Y013823D01*
X025220Y013981D02*
X027098Y013981D01*
X026940Y014140D02*
X025220Y014140D01*
X025213Y014298D02*
X026838Y014298D01*
X026746Y014457D02*
X025119Y014457D01*
X024960Y014615D02*
X026701Y014615D01*
X026658Y014774D02*
X024802Y014774D01*
X024643Y014932D02*
X026650Y014932D01*
X026650Y015091D02*
X024485Y015091D01*
X024373Y015249D02*
X026675Y015249D01*
X026718Y015408D02*
X024373Y015408D01*
X024373Y015566D02*
X026783Y015566D01*
X028527Y016200D02*
X029700Y016200D01*
X029700Y016042D02*
X028799Y016042D01*
X028958Y015883D02*
X029700Y015883D01*
X029700Y015725D02*
X029086Y015725D01*
X029177Y015566D02*
X029700Y015566D01*
X029700Y015408D02*
X029242Y015408D01*
X029285Y015249D02*
X029700Y015249D01*
X029700Y015091D02*
X029310Y015091D01*
X029310Y014932D02*
X029700Y014932D01*
X029700Y014774D02*
X029302Y014774D01*
X029259Y014615D02*
X029700Y014615D01*
X029700Y014457D02*
X029214Y014457D01*
X029122Y014298D02*
X029700Y014298D01*
X029700Y014140D02*
X029020Y014140D01*
X028862Y013981D02*
X029700Y013981D01*
X029700Y013823D02*
X028870Y013823D01*
X028870Y013664D02*
X029700Y013664D01*
X029700Y013506D02*
X028870Y013506D01*
X028870Y013347D02*
X029700Y013347D01*
X029700Y013189D02*
X028870Y013189D01*
X028870Y013030D02*
X029700Y013030D01*
X029700Y012872D02*
X028870Y012872D01*
X028870Y012713D02*
X029700Y012713D01*
X029700Y012555D02*
X028920Y012555D01*
X028920Y012396D02*
X029700Y012396D01*
X029700Y012238D02*
X028920Y012238D01*
X028920Y012079D02*
X029700Y012079D01*
X029700Y011921D02*
X028920Y011921D01*
X027340Y012396D02*
X026270Y012396D01*
X025590Y012555D02*
X024035Y012555D01*
X024194Y012713D02*
X025590Y012713D01*
X025508Y012872D02*
X025357Y012872D01*
X024403Y012872D02*
X024352Y012872D01*
X024251Y011128D02*
X024019Y011128D01*
X024046Y010970D02*
X024340Y010970D01*
X024340Y010811D02*
X024046Y010811D01*
X024035Y010653D02*
X024275Y010653D01*
X024144Y010494D02*
X022630Y010494D01*
X022630Y010336D02*
X024080Y010336D01*
X024080Y010177D02*
X022607Y010177D01*
X021935Y009543D02*
X024165Y009543D01*
X024099Y009385D02*
X022068Y009385D01*
X022090Y009226D02*
X022096Y009226D01*
X022330Y009226D02*
X022330Y009226D01*
X022330Y009068D02*
X022330Y009068D01*
X022330Y008909D02*
X022330Y008909D01*
X022330Y008751D02*
X022330Y008751D01*
X022330Y008650D02*
X022330Y008035D01*
X022330Y008650D01*
X022330Y008650D01*
X022330Y008592D02*
X022330Y008592D01*
X022330Y008434D02*
X022330Y008434D01*
X022330Y008275D02*
X022330Y008275D01*
X022330Y008117D02*
X022330Y008117D01*
X022601Y008117D02*
X024082Y008117D01*
X024080Y008275D02*
X022630Y008275D01*
X022630Y008434D02*
X024119Y008434D01*
X024214Y008592D02*
X022630Y008592D01*
X022630Y008751D02*
X024350Y008751D01*
X024173Y008909D02*
X022630Y008909D01*
X022630Y009068D02*
X024102Y009068D01*
X024080Y009226D02*
X022564Y009226D01*
X021775Y009702D02*
X024331Y009702D01*
X024929Y009702D02*
X027377Y009702D01*
X027377Y009717D02*
X027377Y009680D01*
X026919Y009680D01*
X026919Y009378D01*
X026931Y009332D01*
X026955Y009291D01*
X026988Y009258D01*
X027029Y009234D01*
X027075Y009222D01*
X027377Y009222D01*
X027377Y009680D01*
X027414Y009680D01*
X027414Y009222D01*
X027716Y009222D01*
X027762Y009234D01*
X027803Y009258D01*
X027837Y009291D01*
X027860Y009332D01*
X027873Y009378D01*
X027873Y009680D01*
X027414Y009680D01*
X027414Y009717D01*
X027377Y009717D01*
X026919Y009717D01*
X026919Y010019D01*
X026931Y010065D01*
X026955Y010106D01*
X026988Y010139D01*
X027029Y010163D01*
X027075Y010175D01*
X027377Y010175D01*
X027377Y009717D01*
X027414Y009717D02*
X027414Y010175D01*
X027716Y010175D01*
X027762Y010163D01*
X027803Y010139D01*
X027837Y010106D01*
X027860Y010065D01*
X027873Y010019D01*
X027873Y009717D01*
X027414Y009717D01*
X027414Y009702D02*
X029700Y009702D01*
X029700Y009860D02*
X027873Y009860D01*
X027873Y010019D02*
X029700Y010019D01*
X029700Y010177D02*
X025180Y010177D01*
X025180Y010336D02*
X029700Y010336D01*
X029700Y010494D02*
X025116Y010494D01*
X025020Y010653D02*
X025475Y010653D01*
X025880Y010970D02*
X025880Y010970D01*
X025880Y011128D02*
X025880Y011128D01*
X025138Y010019D02*
X026919Y010019D01*
X026919Y009860D02*
X025038Y009860D01*
X025095Y009543D02*
X026919Y009543D01*
X026919Y009385D02*
X025161Y009385D01*
X025180Y009226D02*
X027059Y009226D01*
X027377Y009226D02*
X027414Y009226D01*
X027414Y009385D02*
X027377Y009385D01*
X027377Y009543D02*
X027414Y009543D01*
X027414Y009860D02*
X027377Y009860D01*
X027377Y010019D02*
X027414Y010019D01*
X027873Y009543D02*
X029700Y009543D01*
X029700Y009385D02*
X027873Y009385D01*
X027733Y009226D02*
X029700Y009226D01*
X029700Y009068D02*
X025158Y009068D01*
X025087Y008909D02*
X029700Y008909D01*
X029700Y008751D02*
X024910Y008751D01*
X025046Y008592D02*
X029700Y008592D01*
X029700Y008434D02*
X025141Y008434D01*
X025180Y008275D02*
X029700Y008275D01*
X029700Y008117D02*
X028833Y008117D01*
X028821Y008137D02*
X028845Y008096D01*
X028857Y008051D01*
X028857Y007748D01*
X028398Y007748D01*
X028362Y007748D01*
X028362Y007712D01*
X027903Y007712D01*
X027903Y007409D01*
X027915Y007364D01*
X027939Y007323D01*
X027973Y007289D01*
X028014Y007265D01*
X028059Y007253D01*
X028362Y007253D01*
X028362Y007712D01*
X028398Y007712D01*
X028398Y007748D01*
X028398Y008207D01*
X028701Y008207D01*
X028746Y008195D01*
X028787Y008171D01*
X028821Y008137D01*
X028857Y007958D02*
X029700Y007958D01*
X029700Y007800D02*
X028857Y007800D01*
X028857Y007712D02*
X028398Y007712D01*
X028398Y007253D01*
X028701Y007253D01*
X028746Y007265D01*
X028787Y007289D01*
X028821Y007323D01*
X028845Y007364D01*
X028857Y007409D01*
X028857Y007712D01*
X028857Y007641D02*
X029700Y007641D01*
X029700Y007483D02*
X028857Y007483D01*
X028822Y007324D02*
X029700Y007324D01*
X029700Y007166D02*
X026271Y007166D01*
X026112Y007324D02*
X027938Y007324D01*
X027903Y007483D02*
X025934Y007483D01*
X025113Y007958D02*
X027903Y007958D01*
X027903Y008051D02*
X027903Y007748D01*
X028362Y007748D01*
X028362Y008207D01*
X028059Y008207D01*
X028014Y008195D01*
X027973Y008171D01*
X027939Y008137D01*
X027915Y008096D01*
X027903Y008051D01*
X027927Y008117D02*
X025178Y008117D01*
X024977Y007800D02*
X027903Y007800D01*
X027903Y007641D02*
X024970Y007641D01*
X024290Y007641D02*
X021590Y007641D01*
X021590Y007483D02*
X022997Y007483D01*
X022839Y007324D02*
X021590Y007324D01*
X021590Y007166D02*
X022680Y007166D01*
X022522Y007007D02*
X021590Y007007D01*
X021590Y006849D02*
X022196Y006849D01*
X022114Y006690D02*
X021590Y006690D01*
X021590Y006532D02*
X022114Y006532D01*
X022114Y006373D02*
X021590Y006373D01*
X021590Y006215D02*
X022202Y006215D01*
X022224Y006151D02*
X022183Y006127D01*
X022150Y006094D01*
X022126Y006053D01*
X022114Y006007D01*
X022114Y005826D01*
X022530Y005826D01*
X022530Y006163D01*
X022270Y006163D01*
X022224Y006151D01*
X022128Y006056D02*
X021590Y006056D01*
X021590Y005898D02*
X022114Y005898D01*
X022114Y005826D02*
X022114Y005644D01*
X022126Y005599D01*
X022150Y005558D01*
X022183Y005524D01*
X022224Y005500D01*
X022270Y005488D01*
X022530Y005488D01*
X022530Y005826D01*
X022530Y005826D01*
X022530Y006163D01*
X022790Y006163D01*
X022836Y006151D01*
X022877Y006127D01*
X022910Y006094D01*
X022934Y006053D01*
X022946Y006007D01*
X022946Y005826D01*
X022530Y005826D01*
X022530Y005826D01*
X022530Y005826D01*
X022946Y005826D01*
X022946Y005644D01*
X022934Y005599D01*
X022910Y005558D01*
X022877Y005524D01*
X022836Y005500D01*
X022790Y005488D01*
X022530Y005488D01*
X022530Y005826D01*
X022114Y005826D01*
X022114Y005739D02*
X021590Y005739D01*
X021590Y005581D02*
X022137Y005581D01*
X022530Y005581D02*
X022530Y005581D01*
X022530Y005739D02*
X022530Y005739D01*
X022530Y005826D02*
X022530Y005826D01*
X022530Y005898D02*
X022530Y005898D01*
X022530Y006056D02*
X022530Y006056D01*
X022858Y006215D02*
X024340Y006215D01*
X024340Y006373D02*
X022946Y006373D01*
X023008Y006532D02*
X024340Y006532D01*
X024340Y006690D02*
X023167Y006690D01*
X023325Y006849D02*
X024340Y006849D01*
X025020Y006690D02*
X025785Y006690D01*
X025943Y006532D02*
X025020Y006532D01*
X025020Y006373D02*
X026102Y006373D01*
X026260Y006215D02*
X025020Y006215D01*
X025020Y006056D02*
X026338Y006056D01*
X026410Y005898D02*
X025020Y005898D01*
X025020Y005739D02*
X029700Y005739D01*
X029700Y005581D02*
X024961Y005581D01*
X024857Y005422D02*
X029700Y005422D01*
X029700Y005264D02*
X024857Y005264D01*
X024853Y005105D02*
X029700Y005105D01*
X029700Y004947D02*
X028533Y004947D01*
X028493Y004969D02*
X028155Y005060D01*
X027805Y005060D01*
X027467Y004969D01*
X027163Y004794D01*
X026916Y004547D01*
X026741Y004243D01*
X026650Y003905D01*
X026650Y003555D01*
X026741Y003217D01*
X026916Y002913D01*
X027163Y002666D01*
X027467Y002491D01*
X027805Y002400D01*
X028155Y002400D01*
X028493Y002491D01*
X028797Y002666D01*
X029044Y002913D01*
X029219Y003217D01*
X029310Y003555D01*
X029310Y003905D01*
X029219Y004243D01*
X029044Y004547D01*
X028797Y004794D01*
X028493Y004969D01*
X028803Y004788D02*
X029700Y004788D01*
X029700Y004630D02*
X028961Y004630D01*
X029088Y004471D02*
X029700Y004471D01*
X029700Y004313D02*
X029179Y004313D01*
X029243Y004154D02*
X029700Y004154D01*
X029700Y003996D02*
X029286Y003996D01*
X029310Y003837D02*
X029700Y003837D01*
X029700Y003679D02*
X029310Y003679D01*
X029301Y003520D02*
X029700Y003520D01*
X029700Y003362D02*
X029258Y003362D01*
X029211Y003203D02*
X029700Y003203D01*
X029700Y003045D02*
X029120Y003045D01*
X029017Y002886D02*
X029700Y002886D01*
X029700Y002728D02*
X028858Y002728D01*
X028629Y002569D02*
X029700Y002569D01*
X029700Y002411D02*
X028194Y002411D01*
X027766Y002411D02*
X018744Y002411D01*
X018744Y002569D02*
X018831Y002569D01*
X018744Y002252D02*
X021312Y002252D01*
X021300Y002241D02*
X021300Y001619D01*
X021406Y001514D01*
X022854Y001514D01*
X022960Y001619D01*
X022960Y002241D01*
X022854Y002346D01*
X021406Y002346D01*
X021300Y002241D01*
X021300Y002094D02*
X018744Y002094D01*
X018822Y001935D02*
X021300Y001935D01*
X021300Y001777D02*
X018822Y001777D01*
X018822Y001618D02*
X021302Y001618D01*
X020390Y002569D02*
X027331Y002569D01*
X027102Y002728D02*
X020440Y002728D01*
X020440Y002886D02*
X026943Y002886D01*
X026840Y003045D02*
X025746Y003045D01*
X025841Y003203D02*
X026749Y003203D01*
X026702Y003362D02*
X025841Y003362D01*
X025841Y003520D02*
X026659Y003520D01*
X026650Y003679D02*
X025841Y003679D01*
X025841Y003837D02*
X026650Y003837D01*
X026674Y003996D02*
X025361Y003996D01*
X025203Y004154D02*
X026717Y004154D01*
X026781Y004313D02*
X025044Y004313D01*
X024886Y004471D02*
X026872Y004471D01*
X026999Y004630D02*
X024727Y004630D01*
X024720Y004788D02*
X027157Y004788D01*
X027427Y004947D02*
X024720Y004947D01*
X024040Y004947D02*
X021590Y004947D01*
X021590Y005105D02*
X023907Y005105D01*
X023903Y005264D02*
X021590Y005264D01*
X021590Y005422D02*
X023903Y005422D01*
X023903Y005581D02*
X022923Y005581D01*
X022946Y005739D02*
X023903Y005739D01*
X023949Y005898D02*
X022946Y005898D01*
X022932Y006056D02*
X024340Y006056D01*
X024040Y004788D02*
X021640Y004788D01*
X021798Y004630D02*
X024040Y004630D01*
X024040Y004471D02*
X021957Y004471D01*
X021372Y004313D02*
X018025Y004313D01*
X017127Y004154D02*
X016672Y004154D01*
X017998Y003520D02*
X021400Y003520D01*
X020440Y003203D02*
X024887Y003203D01*
X024887Y003362D02*
X017976Y003362D01*
X018112Y003203D02*
X018781Y003203D01*
X018484Y002876D02*
X018430Y002930D01*
X019610Y002930D01*
X020440Y003045D02*
X024983Y003045D01*
X024875Y003520D02*
X022860Y003520D01*
X022960Y003679D02*
X024716Y003679D01*
X024558Y003837D02*
X022960Y003837D01*
X022960Y003996D02*
X024399Y003996D01*
X024241Y004154D02*
X022960Y004154D01*
X022888Y004313D02*
X024088Y004313D01*
X026941Y005898D02*
X027120Y005898D01*
X027116Y005900D02*
X027157Y005876D01*
X027203Y005864D01*
X027384Y005864D01*
X027384Y006280D01*
X027047Y006280D01*
X027047Y006020D01*
X027059Y005974D01*
X027083Y005933D01*
X027116Y005900D01*
X027047Y006056D02*
X027013Y006056D01*
X027016Y006215D02*
X027047Y006215D01*
X027047Y006280D02*
X027384Y006280D01*
X027384Y006280D01*
X027384Y006696D01*
X027203Y006696D01*
X027157Y006684D01*
X027116Y006660D01*
X027083Y006627D01*
X027059Y006586D01*
X027047Y006540D01*
X027047Y006280D01*
X027047Y006373D02*
X027013Y006373D01*
X027013Y006532D02*
X027047Y006532D01*
X026914Y006690D02*
X027180Y006690D01*
X027384Y006690D02*
X027384Y006690D01*
X027384Y006696D02*
X027384Y006280D01*
X027384Y006280D01*
X027384Y006280D01*
X027384Y005864D01*
X027566Y005864D01*
X027611Y005876D01*
X027652Y005900D01*
X027686Y005933D01*
X027710Y005974D01*
X027722Y006020D01*
X027722Y006280D01*
X027722Y006540D01*
X027710Y006586D01*
X027686Y006627D01*
X027652Y006660D01*
X027611Y006684D01*
X027566Y006696D01*
X027384Y006696D01*
X027384Y006532D02*
X027384Y006532D01*
X027384Y006373D02*
X027384Y006373D01*
X027384Y006280D02*
X027722Y006280D01*
X027384Y006280D01*
X027384Y006280D01*
X027384Y006215D02*
X027384Y006215D01*
X027384Y006056D02*
X027384Y006056D01*
X027384Y005898D02*
X027384Y005898D01*
X027648Y005898D02*
X029700Y005898D01*
X029700Y006056D02*
X027722Y006056D01*
X027722Y006215D02*
X029700Y006215D01*
X029700Y006373D02*
X027722Y006373D01*
X027722Y006532D02*
X029700Y006532D01*
X029700Y006690D02*
X027589Y006690D01*
X028362Y007324D02*
X028398Y007324D01*
X028398Y007483D02*
X028362Y007483D01*
X028362Y007641D02*
X028398Y007641D01*
X028398Y007800D02*
X028362Y007800D01*
X028362Y007958D02*
X028398Y007958D01*
X028398Y008117D02*
X028362Y008117D01*
X029700Y007007D02*
X026429Y007007D01*
X026588Y006849D02*
X029700Y006849D01*
X024283Y007800D02*
X021590Y007800D01*
X021590Y007958D02*
X024147Y007958D01*
X021070Y007958D02*
X020840Y007958D01*
X020840Y007800D02*
X021070Y007800D01*
X021070Y007641D02*
X020840Y007641D01*
X020840Y007483D02*
X021070Y007483D01*
X021070Y007324D02*
X020840Y007324D01*
X020840Y007166D02*
X021070Y007166D01*
X021070Y007007D02*
X020840Y007007D01*
X020840Y006849D02*
X021070Y006849D01*
X021070Y006690D02*
X020840Y006690D01*
X021060Y006532D02*
X021070Y006532D01*
X021060Y006373D02*
X021070Y006373D01*
X021060Y006215D02*
X021070Y006215D01*
X021060Y006056D02*
X021070Y006056D01*
X021060Y005898D02*
X021070Y005898D01*
X021070Y005739D02*
X020994Y005739D01*
X020580Y006180D02*
X020580Y008400D01*
X020830Y008650D01*
X023630Y010538D02*
X023630Y010876D01*
X023630Y010538D01*
X023630Y010653D02*
X023630Y010653D01*
X023630Y010811D02*
X023630Y010811D01*
X023630Y010876D02*
X023630Y010876D01*
X023630Y010970D02*
X023630Y010970D01*
X023630Y011128D02*
X023630Y011128D01*
X018680Y010710D02*
X018680Y012680D01*
X018180Y013180D01*
X018180Y014180D01*
X018149Y014211D01*
X014680Y012930D02*
X014180Y013430D01*
X014180Y014180D01*
X014149Y014211D01*
X013672Y014140D02*
X013440Y014140D01*
X013440Y014298D02*
X013672Y014298D01*
X013672Y014457D02*
X013440Y014457D01*
X013440Y014615D02*
X013704Y014615D01*
X012920Y014615D02*
X012625Y014615D01*
X012657Y014457D02*
X012920Y014457D01*
X012920Y014298D02*
X012657Y014298D01*
X012657Y014140D02*
X012920Y014140D01*
X012920Y013981D02*
X012657Y013981D01*
X012639Y013823D02*
X012920Y013823D01*
X012920Y013664D02*
X012440Y013664D01*
X012440Y013506D02*
X012920Y013506D01*
X012920Y013347D02*
X012440Y013347D01*
X012440Y013189D02*
X012920Y013189D01*
X012920Y013030D02*
X012448Y013030D01*
X012606Y012872D02*
X012923Y012872D01*
X013029Y012713D02*
X012765Y012713D01*
X012923Y012555D02*
X013188Y012555D01*
X013082Y012396D02*
X013346Y012396D01*
X013240Y012238D02*
X013505Y012238D01*
X013399Y012079D02*
X013663Y012079D01*
X013557Y011921D02*
X013822Y011921D01*
X013920Y011762D02*
X013716Y011762D01*
X013874Y011604D02*
X013920Y011604D01*
X014180Y011930D02*
X013180Y012930D01*
X013180Y016164D01*
X013164Y016180D01*
X013440Y013981D02*
X013672Y013981D01*
X013689Y013823D02*
X013440Y013823D01*
X013440Y013664D02*
X013920Y013664D01*
X013920Y013506D02*
X013440Y013506D01*
X013440Y013347D02*
X013933Y013347D01*
X014054Y013189D02*
X013440Y013189D01*
X013448Y013030D02*
X014212Y013030D01*
X014371Y012872D02*
X013606Y012872D01*
X013765Y012713D02*
X014420Y012713D01*
X014420Y012555D02*
X013923Y012555D01*
X014082Y012396D02*
X014420Y012396D01*
X014420Y012238D02*
X014240Y012238D01*
X014399Y012079D02*
X014420Y012079D01*
X014180Y011930D02*
X014180Y010710D01*
X014680Y010710D02*
X014680Y012930D01*
X009485Y013981D02*
X009390Y013981D01*
X008870Y013981D02*
X008591Y013981D01*
X008591Y014140D02*
X008870Y014140D01*
X008870Y014298D02*
X008591Y014298D01*
X008591Y014457D02*
X008870Y014457D01*
X008870Y014615D02*
X008559Y014615D01*
X007637Y013981D02*
X007390Y013981D01*
X007390Y013823D02*
X007655Y013823D01*
X007870Y013664D02*
X007390Y013664D01*
X007390Y013506D02*
X007870Y013506D01*
X007870Y013347D02*
X007390Y013347D01*
X007390Y013189D02*
X007870Y013189D01*
X007912Y013030D02*
X007390Y013030D01*
X007390Y012872D02*
X008071Y012872D01*
X008229Y012713D02*
X007465Y012713D01*
X007623Y012555D02*
X008370Y012555D01*
X008370Y012396D02*
X007782Y012396D01*
X007940Y012238D02*
X008370Y012238D01*
X008370Y012079D02*
X008099Y012079D01*
X008257Y011921D02*
X008370Y011921D01*
X007839Y011604D02*
X007574Y011604D01*
X007680Y011762D02*
X007416Y011762D01*
X007522Y011921D02*
X007229Y011921D01*
X007363Y012079D02*
X002390Y012079D01*
X002390Y012238D02*
X007205Y012238D01*
X007046Y012396D02*
X002390Y012396D01*
X002390Y012555D02*
X006901Y012555D01*
X006870Y012713D02*
X002390Y012713D01*
X002390Y012872D02*
X006870Y012872D01*
X006870Y013030D02*
X002390Y013030D01*
X002390Y013189D02*
X006870Y013189D01*
X006870Y013347D02*
X002390Y013347D01*
X002390Y013506D02*
X006870Y013506D01*
X006870Y013664D02*
X002390Y013664D01*
X002390Y013823D02*
X006870Y013823D01*
X006870Y013981D02*
X004713Y013981D01*
X004643Y013941D02*
X004947Y014116D01*
X005194Y014363D01*
X005369Y014667D01*
X005460Y015005D01*
X005460Y015355D01*
X005369Y015693D01*
X005194Y015997D01*
X004947Y016244D01*
X004643Y016419D01*
X004305Y016510D01*
X003955Y016510D01*
X003617Y016419D01*
X003313Y016244D01*
X003066Y015997D01*
X002891Y015693D01*
X002800Y015355D01*
X002800Y015005D01*
X002891Y014667D01*
X003066Y014363D01*
X003313Y014116D01*
X003617Y013941D01*
X003955Y013850D01*
X004305Y013850D01*
X004643Y013941D01*
X004970Y014140D02*
X006870Y014140D01*
X006870Y014298D02*
X005129Y014298D01*
X005248Y014457D02*
X006870Y014457D01*
X006870Y014615D02*
X005340Y014615D01*
X005398Y014774D02*
X006870Y014774D01*
X006870Y014932D02*
X005440Y014932D01*
X005460Y015091D02*
X006870Y015091D01*
X006870Y015249D02*
X005460Y015249D01*
X005446Y015408D02*
X006870Y015408D01*
X006870Y015566D02*
X005403Y015566D01*
X005351Y015725D02*
X006737Y015725D01*
X006653Y015883D02*
X005260Y015883D01*
X005149Y016042D02*
X006653Y016042D01*
X006653Y016200D02*
X004991Y016200D01*
X004749Y016359D02*
X006653Y016359D01*
X006653Y016517D02*
X002390Y016517D01*
X002390Y016359D02*
X003511Y016359D01*
X003269Y016200D02*
X002390Y016200D01*
X002390Y016042D02*
X003111Y016042D01*
X003000Y015883D02*
X002390Y015883D01*
X002390Y015725D02*
X002909Y015725D01*
X002857Y015566D02*
X002390Y015566D01*
X002390Y015408D02*
X002814Y015408D01*
X002800Y015249D02*
X002390Y015249D01*
X002390Y015091D02*
X002800Y015091D01*
X002820Y014932D02*
X002390Y014932D01*
X002390Y014774D02*
X002862Y014774D01*
X002920Y014615D02*
X002390Y014615D01*
X002390Y014457D02*
X003012Y014457D01*
X003131Y014298D02*
X002390Y014298D01*
X002390Y014140D02*
X003290Y014140D01*
X003547Y013981D02*
X002390Y013981D01*
X002390Y016676D02*
X029700Y016676D01*
X029700Y016834D02*
X002390Y016834D01*
X002390Y016993D02*
X029700Y016993D01*
X029700Y017151D02*
X002390Y017151D01*
X008390Y013664D02*
X008870Y013664D01*
X008870Y013506D02*
X008390Y013506D01*
X008390Y013347D02*
X008870Y013347D01*
X008870Y013189D02*
X008489Y013189D01*
X008648Y013030D02*
X008870Y013030D01*
X008870Y012872D02*
X008806Y012872D01*
X008870Y013823D02*
X008574Y013823D01*
X007870Y011445D02*
X007733Y011445D01*
X007867Y011287D02*
X007870Y011287D01*
X004809Y010177D02*
X004173Y010177D01*
X017190Y007958D02*
X017420Y007958D01*
X017420Y007800D02*
X017190Y007800D01*
X017190Y007641D02*
X017420Y007641D01*
X017420Y007483D02*
X017190Y007483D01*
X017190Y007324D02*
X017413Y007324D01*
X017322Y007166D02*
X017190Y007166D01*
X020060Y006532D02*
X020100Y006532D01*
X020100Y006373D02*
X020060Y006373D01*
X020060Y006215D02*
X020100Y006215D01*
X020100Y006056D02*
X020060Y006056D01*
X020060Y005898D02*
X020100Y005898D01*
X020166Y005739D02*
X019994Y005739D01*
X018430Y002930D02*
X017630Y002930D01*
X018047Y002569D02*
X018224Y002569D01*
X018224Y002411D02*
X017813Y002411D01*
X018010Y002094D02*
X018224Y002094D01*
X018224Y002252D02*
X016498Y002252D01*
X016560Y002094D02*
X017541Y002094D01*
X017776Y001680D02*
X016880Y001680D01*
X018113Y001618D02*
X018147Y001618D01*
X018147Y001460D02*
X018113Y001460D01*
X018484Y001680D02*
X018484Y002876D01*
X018147Y001935D02*
X018113Y001935D01*
X018113Y001777D02*
X018147Y001777D01*
X018822Y001460D02*
X029700Y001460D01*
X029700Y001618D02*
X022958Y001618D01*
X022960Y001777D02*
X029700Y001777D01*
X029700Y001935D02*
X022960Y001935D01*
X022960Y002094D02*
X029700Y002094D01*
X029700Y002252D02*
X022948Y002252D01*
X021791Y016359D02*
X029700Y016359D01*
X029700Y016517D02*
X021791Y016517D01*
D22*
X020230Y011230D03*
X016430Y011080D03*
X012480Y011180D03*
X015330Y008480D03*
X017680Y006980D03*
X018780Y007730D03*
X016880Y001680D03*
X006280Y010430D03*
D23*
X022530Y006534D02*
X023226Y007230D01*
X024630Y007230D01*
X024630Y008230D01*
X024630Y007380D01*
X024630Y007230D02*
X024680Y007180D01*
X025776Y007180D01*
X026676Y006280D01*
X024680Y005780D02*
X024680Y007180D01*
X024680Y005780D02*
X024380Y005480D01*
X024384Y005480D01*
X024380Y005480D02*
X024380Y004496D01*
X025364Y003511D01*
X024630Y010230D02*
X024680Y010280D01*
X024680Y011180D01*
X024276Y011584D01*
X023630Y011584D01*
X023630Y012630D01*
X024230Y013230D01*
X024880Y013230D01*
X025630Y013230D01*
X025930Y012930D01*
X025930Y011634D01*
X025880Y011584D01*
X028530Y012263D02*
X028530Y013830D01*
X027980Y014380D01*
X027980Y014980D01*
X024880Y014214D02*
X024880Y013230D01*
X024880Y014214D02*
X023896Y015199D01*
X028530Y012263D02*
X028563Y012230D01*
M02*
