%
M48
M72
T01C0.0394
T02C0.0400
T03C0.0472
T04C0.1260
%
T01
X6504Y19004
X7291Y19004
X8079Y19004
X8866Y19004
X9654Y19004
X10441Y19004
X11229Y19004
X12016Y19004
X12016Y18216
X11229Y18216
X10441Y18216
X9654Y18216
X8866Y18216
X8079Y18216
X7291Y18216
X6504Y18216
X5729Y13550
X3760Y12566
X5729Y11581
X3760Y10597
X5729Y9613
X3760Y8629
X5729Y7644
X3760Y6660
X12991Y6020
X14960Y7004
X12991Y7989
X14960Y8973
X12991Y9957
X14960Y10941
X12991Y11926
X14960Y12910
T02
X8560Y5760
X10010Y5760
X10010Y6760
X8560Y6760
X8560Y7760
X10010Y7760
X10010Y8760
X8560Y8760
X8560Y9760
X10010Y9760
X10010Y10760
X8560Y10760
X8560Y11760
X10010Y11760
X10010Y12760
X8560Y12760
T03
X5874Y19555
X12646Y19555
T04
X9310Y15110
M30
