G75*
G70*
%OFA0B0*%
%FSLAX24Y24*%
%IPPOS*%
%LPD*%
%AMOC8*
5,1,8,0,0,1.08239X$1,22.5*
%
%ADD10C,0.0000*%
%ADD11OC8,0.0594*%
%ADD12R,0.0594X0.0594*%
%ADD13C,0.2300*%
%ADD14R,0.0740X0.0740*%
%ADD15C,0.0740*%
%ADD16C,0.0120*%
D10*
X002560Y004860D02*
X002560Y023080D01*
X016252Y023080D01*
X016252Y004860D01*
X002560Y004860D01*
X005638Y019555D02*
X005640Y019585D01*
X005646Y019615D01*
X005655Y019644D01*
X005668Y019671D01*
X005685Y019696D01*
X005704Y019719D01*
X005727Y019740D01*
X005752Y019757D01*
X005778Y019771D01*
X005807Y019781D01*
X005836Y019788D01*
X005866Y019791D01*
X005897Y019790D01*
X005927Y019785D01*
X005956Y019776D01*
X005983Y019764D01*
X006009Y019749D01*
X006033Y019730D01*
X006054Y019708D01*
X006072Y019684D01*
X006087Y019657D01*
X006098Y019629D01*
X006106Y019600D01*
X006110Y019570D01*
X006110Y019540D01*
X006106Y019510D01*
X006098Y019481D01*
X006087Y019453D01*
X006072Y019426D01*
X006054Y019402D01*
X006033Y019380D01*
X006009Y019361D01*
X005983Y019346D01*
X005956Y019334D01*
X005927Y019325D01*
X005897Y019320D01*
X005866Y019319D01*
X005836Y019322D01*
X005807Y019329D01*
X005778Y019339D01*
X005752Y019353D01*
X005727Y019370D01*
X005704Y019391D01*
X005685Y019414D01*
X005668Y019439D01*
X005655Y019466D01*
X005646Y019495D01*
X005640Y019525D01*
X005638Y019555D01*
X012410Y019555D02*
X012412Y019585D01*
X012418Y019615D01*
X012427Y019644D01*
X012440Y019671D01*
X012457Y019696D01*
X012476Y019719D01*
X012499Y019740D01*
X012524Y019757D01*
X012550Y019771D01*
X012579Y019781D01*
X012608Y019788D01*
X012638Y019791D01*
X012669Y019790D01*
X012699Y019785D01*
X012728Y019776D01*
X012755Y019764D01*
X012781Y019749D01*
X012805Y019730D01*
X012826Y019708D01*
X012844Y019684D01*
X012859Y019657D01*
X012870Y019629D01*
X012878Y019600D01*
X012882Y019570D01*
X012882Y019540D01*
X012878Y019510D01*
X012870Y019481D01*
X012859Y019453D01*
X012844Y019426D01*
X012826Y019402D01*
X012805Y019380D01*
X012781Y019361D01*
X012755Y019346D01*
X012728Y019334D01*
X012699Y019325D01*
X012669Y019320D01*
X012638Y019319D01*
X012608Y019322D01*
X012579Y019329D01*
X012550Y019339D01*
X012524Y019353D01*
X012499Y019370D01*
X012476Y019391D01*
X012457Y019414D01*
X012440Y019439D01*
X012427Y019466D01*
X012418Y019495D01*
X012412Y019525D01*
X012410Y019555D01*
D11*
X012016Y019004D03*
X011229Y019004D03*
X010441Y019004D03*
X009654Y019004D03*
X008866Y019004D03*
X008079Y019004D03*
X007291Y019004D03*
X006504Y019004D03*
X006504Y018216D03*
X007291Y018216D03*
X008079Y018216D03*
X008866Y018216D03*
X009654Y018216D03*
X010441Y018216D03*
X011229Y018216D03*
X012016Y018216D03*
D12*
X005729Y013550D03*
X003760Y012566D03*
X005729Y011581D03*
X003760Y010597D03*
X005729Y009613D03*
X003760Y008629D03*
X005729Y007644D03*
X003760Y006660D03*
X012991Y006020D03*
X014960Y007004D03*
X012991Y007989D03*
X014960Y008973D03*
X012991Y009957D03*
X014960Y010941D03*
X012991Y011926D03*
X014960Y012910D03*
D13*
X009310Y015110D03*
D14*
X008560Y012760D03*
X010010Y005760D03*
D15*
X008560Y005760D03*
X008560Y006760D03*
X010010Y006760D03*
X010010Y007760D03*
X008560Y007760D03*
X008560Y008760D03*
X010010Y008760D03*
X010010Y009760D03*
X008560Y009760D03*
X008560Y010760D03*
X010010Y010760D03*
X010010Y011760D03*
X008560Y011760D03*
X010010Y012760D03*
D16*
X010160Y012910D01*
X014960Y012910D01*
X014360Y013510D01*
X014360Y017760D01*
X013410Y018710D01*
X012810Y018710D01*
X012560Y018960D01*
X012060Y018960D01*
X012016Y019004D01*
X012360Y019250D02*
X012391Y019250D01*
X012421Y019219D02*
X012567Y019159D01*
X012725Y019159D01*
X012870Y019219D01*
X012982Y019330D01*
X013042Y019476D01*
X013042Y019634D01*
X012982Y019779D01*
X012870Y019891D01*
X012725Y019951D01*
X012567Y019951D01*
X012421Y019891D01*
X012310Y019779D01*
X012250Y019634D01*
X012250Y019476D01*
X012310Y019330D01*
X012421Y019219D01*
X012433Y019176D02*
X012189Y019421D01*
X011843Y019421D01*
X011622Y019200D01*
X011401Y019421D01*
X011056Y019421D01*
X010835Y019200D01*
X010694Y019340D01*
X010835Y019480D01*
X011235Y019480D01*
X011340Y019585D01*
X011735Y019980D01*
X013985Y019980D01*
X014580Y019385D01*
X014580Y017485D01*
X014685Y017380D01*
X015480Y016585D01*
X015480Y011716D01*
X015122Y011358D01*
X014613Y011358D01*
X014543Y011288D01*
X014543Y011121D01*
X010341Y011121D01*
X010288Y011175D01*
X010107Y011250D01*
X009913Y011250D01*
X009732Y011175D01*
X009595Y011038D01*
X009520Y010857D01*
X009520Y010663D01*
X009595Y010482D01*
X009732Y010345D01*
X009913Y010270D01*
X010107Y010270D01*
X010288Y010345D01*
X010425Y010482D01*
X010500Y010663D01*
X010500Y010761D01*
X014543Y010761D01*
X014543Y010595D01*
X014613Y010525D01*
X015307Y010525D01*
X015377Y010595D01*
X015377Y011104D01*
X015735Y011461D01*
X015780Y011507D01*
X015780Y009335D01*
X015598Y009153D01*
X015377Y009153D01*
X015377Y009320D01*
X015307Y009390D01*
X014613Y009390D01*
X014543Y009320D01*
X014543Y008940D01*
X010466Y008940D01*
X010425Y009038D01*
X010288Y009175D01*
X010107Y009250D01*
X009913Y009250D01*
X009732Y009175D01*
X009595Y009038D01*
X009520Y008857D01*
X009520Y008663D01*
X009595Y008482D01*
X009732Y008345D01*
X009913Y008270D01*
X010107Y008270D01*
X010288Y008345D01*
X010425Y008482D01*
X010466Y008580D01*
X014590Y008580D01*
X014613Y008556D01*
X015307Y008556D01*
X015377Y008626D01*
X015377Y008793D01*
X015748Y008793D01*
X016035Y009080D01*
X016092Y009138D01*
X016092Y005020D01*
X002720Y005020D01*
X002720Y022920D01*
X016092Y022920D01*
X016092Y016982D01*
X015240Y017835D01*
X015240Y020135D01*
X013640Y021735D01*
X013535Y021840D01*
X009085Y021840D01*
X008792Y021546D01*
X008686Y021441D01*
X008686Y019413D01*
X008473Y019200D01*
X008252Y019421D01*
X007906Y019421D01*
X007685Y019200D01*
X007464Y019421D01*
X007119Y019421D01*
X006898Y019200D01*
X006677Y019421D01*
X006331Y019421D01*
X006087Y019176D01*
X006087Y018831D01*
X006308Y018610D01*
X006087Y018389D01*
X006087Y018044D01*
X006291Y017840D01*
X003785Y017840D01*
X002885Y016940D01*
X002780Y016835D01*
X002780Y011885D01*
X003180Y011485D01*
X003285Y011380D01*
X005312Y011380D01*
X005312Y011235D01*
X005382Y011164D01*
X006075Y011164D01*
X006145Y011235D01*
X006145Y011401D01*
X006864Y011401D01*
X007580Y010685D01*
X007685Y010580D01*
X008104Y010580D01*
X008145Y010482D01*
X008282Y010345D01*
X008463Y010270D01*
X008657Y010270D01*
X008838Y010345D01*
X008975Y010482D01*
X009050Y010663D01*
X009050Y010857D01*
X008975Y011038D01*
X008838Y011175D01*
X008657Y011250D01*
X008463Y011250D01*
X008282Y011175D01*
X008145Y011038D01*
X008104Y010940D01*
X007835Y010940D01*
X007013Y011761D01*
X006145Y011761D01*
X006145Y011928D01*
X006075Y011998D01*
X005382Y011998D01*
X005312Y011928D01*
X005312Y011740D01*
X003435Y011740D01*
X003140Y012035D01*
X003140Y016685D01*
X003935Y017480D01*
X004225Y017480D01*
X003585Y016840D01*
X003480Y016735D01*
X003480Y012982D01*
X003413Y012982D01*
X003343Y012912D01*
X003343Y012219D01*
X003413Y012149D01*
X004107Y012149D01*
X004177Y012219D01*
X004177Y012386D01*
X006980Y012386D01*
X007680Y011685D01*
X007785Y011580D01*
X008104Y011580D01*
X008145Y011482D01*
X008282Y011345D01*
X008463Y011270D01*
X008657Y011270D01*
X008838Y011345D01*
X008975Y011482D01*
X009050Y011663D01*
X009050Y011857D01*
X008975Y012038D01*
X008838Y012175D01*
X008657Y012250D01*
X008463Y012250D01*
X008282Y012175D01*
X008145Y012038D01*
X008104Y011940D01*
X007935Y011940D01*
X007129Y012746D01*
X004177Y012746D01*
X004177Y012912D01*
X004107Y012982D01*
X003840Y012982D01*
X003840Y016585D01*
X004435Y017180D01*
X006025Y017180D01*
X005785Y016940D01*
X005680Y016835D01*
X005680Y013967D01*
X005382Y013967D01*
X005312Y013896D01*
X005312Y013203D01*
X005382Y013133D01*
X006075Y013133D01*
X006145Y013203D01*
X006145Y013501D01*
X007564Y013501D01*
X008070Y012995D01*
X008070Y012340D01*
X008140Y012270D01*
X008980Y012270D01*
X009050Y012340D01*
X009050Y013180D01*
X008980Y013250D01*
X008325Y013250D01*
X007713Y013861D01*
X006145Y013861D01*
X006145Y013896D01*
X006075Y013967D01*
X006040Y013967D01*
X006040Y016685D01*
X006235Y016880D01*
X011335Y016880D01*
X011440Y016985D01*
X012196Y017741D01*
X012196Y017807D01*
X012433Y018044D01*
X012433Y018389D01*
X012212Y018610D01*
X012382Y018780D01*
X012485Y018780D01*
X012735Y018530D01*
X013335Y018530D01*
X014180Y017685D01*
X014180Y013435D01*
X014285Y013330D01*
X014525Y013090D01*
X010373Y013090D01*
X010288Y013175D01*
X010107Y013250D01*
X009913Y013250D01*
X009732Y013175D01*
X009595Y013038D01*
X009520Y012857D01*
X009520Y012663D01*
X009595Y012482D01*
X009732Y012345D01*
X009913Y012270D01*
X010107Y012270D01*
X010288Y012345D01*
X010425Y012482D01*
X010500Y012663D01*
X010500Y012730D01*
X014543Y012730D01*
X014543Y012563D01*
X014613Y012493D01*
X015307Y012493D01*
X015377Y012563D01*
X015377Y013257D01*
X015307Y013327D01*
X014798Y013327D01*
X014540Y013585D01*
X014540Y017835D01*
X013485Y018890D01*
X012885Y018890D01*
X012635Y019140D01*
X012433Y019140D01*
X012433Y019176D01*
X012644Y019131D02*
X014580Y019131D01*
X014580Y019013D02*
X012762Y019013D01*
X012881Y018894D02*
X014580Y018894D01*
X014580Y018776D02*
X013599Y018776D01*
X013718Y018657D02*
X014580Y018657D01*
X014580Y018539D02*
X013836Y018539D01*
X013955Y018420D02*
X014580Y018420D01*
X014580Y018302D02*
X014073Y018302D01*
X014192Y018183D02*
X014580Y018183D01*
X014580Y018065D02*
X014310Y018065D01*
X014429Y017946D02*
X014580Y017946D01*
X014580Y017828D02*
X014540Y017828D01*
X014540Y017709D02*
X014580Y017709D01*
X014580Y017591D02*
X014540Y017591D01*
X014540Y017472D02*
X014593Y017472D01*
X014540Y017354D02*
X014712Y017354D01*
X014830Y017235D02*
X014540Y017235D01*
X014540Y017117D02*
X014949Y017117D01*
X015067Y016998D02*
X014540Y016998D01*
X014540Y016880D02*
X015186Y016880D01*
X015304Y016761D02*
X014540Y016761D01*
X014540Y016643D02*
X015423Y016643D01*
X015480Y016524D02*
X014540Y016524D01*
X014540Y016406D02*
X015480Y016406D01*
X015480Y016287D02*
X014540Y016287D01*
X014540Y016169D02*
X015480Y016169D01*
X015480Y016050D02*
X014540Y016050D01*
X014540Y015932D02*
X015480Y015932D01*
X015480Y015813D02*
X014540Y015813D01*
X014540Y015695D02*
X015480Y015695D01*
X015480Y015576D02*
X014540Y015576D01*
X014540Y015458D02*
X015480Y015458D01*
X015480Y015339D02*
X014540Y015339D01*
X014540Y015221D02*
X015480Y015221D01*
X015480Y015102D02*
X014540Y015102D01*
X014540Y014984D02*
X015480Y014984D01*
X015480Y014865D02*
X014540Y014865D01*
X014540Y014747D02*
X015480Y014747D01*
X015480Y014628D02*
X014540Y014628D01*
X014540Y014510D02*
X015480Y014510D01*
X015480Y014391D02*
X014540Y014391D01*
X014540Y014273D02*
X015480Y014273D01*
X015480Y014154D02*
X014540Y014154D01*
X014540Y014036D02*
X015480Y014036D01*
X015480Y013917D02*
X014540Y013917D01*
X014540Y013799D02*
X015480Y013799D01*
X015480Y013680D02*
X014540Y013680D01*
X014563Y013562D02*
X015480Y013562D01*
X015480Y013443D02*
X014682Y013443D01*
X014409Y013206D02*
X010214Y013206D01*
X009806Y013206D02*
X009024Y013206D01*
X009050Y013088D02*
X009645Y013088D01*
X009566Y012969D02*
X009050Y012969D01*
X009050Y012851D02*
X009520Y012851D01*
X009520Y012732D02*
X009050Y012732D01*
X009050Y012614D02*
X009540Y012614D01*
X009589Y012495D02*
X009050Y012495D01*
X009050Y012377D02*
X009701Y012377D01*
X009732Y012175D02*
X009595Y012038D01*
X009520Y011857D01*
X009520Y011663D01*
X009595Y011482D01*
X009732Y011345D01*
X009913Y011270D01*
X010107Y011270D01*
X010288Y011345D01*
X010425Y011482D01*
X010466Y011580D01*
X012575Y011580D01*
X012575Y011579D01*
X012645Y011509D01*
X013338Y011509D01*
X013408Y011579D01*
X013408Y012272D01*
X013338Y012343D01*
X012645Y012343D01*
X012575Y012272D01*
X012575Y011940D01*
X010466Y011940D01*
X010425Y012038D01*
X010288Y012175D01*
X010107Y012250D01*
X009913Y012250D01*
X009732Y012175D01*
X009697Y012140D02*
X008873Y012140D01*
X008982Y012021D02*
X009588Y012021D01*
X009539Y011903D02*
X009031Y011903D01*
X009050Y011784D02*
X009520Y011784D01*
X009520Y011666D02*
X009050Y011666D01*
X009002Y011547D02*
X009568Y011547D01*
X009649Y011429D02*
X008921Y011429D01*
X008754Y011310D02*
X009816Y011310D01*
X009771Y011192D02*
X008799Y011192D01*
X008940Y011073D02*
X009630Y011073D01*
X009560Y010955D02*
X009010Y010955D01*
X009050Y010836D02*
X009520Y010836D01*
X009520Y010718D02*
X009050Y010718D01*
X009024Y010599D02*
X009546Y010599D01*
X009597Y010481D02*
X008973Y010481D01*
X008855Y010362D02*
X009715Y010362D01*
X009732Y010175D02*
X009913Y010250D01*
X010107Y010250D01*
X010288Y010175D01*
X010425Y010038D01*
X010466Y009940D01*
X012575Y009940D01*
X012575Y010304D01*
X012645Y010374D01*
X013338Y010374D01*
X013408Y010304D01*
X013408Y009611D01*
X013338Y009540D01*
X012645Y009540D01*
X012605Y009580D01*
X010466Y009580D01*
X010425Y009482D01*
X010288Y009345D01*
X010107Y009270D01*
X009913Y009270D01*
X009732Y009345D01*
X009595Y009482D01*
X009520Y009663D01*
X009520Y009857D01*
X009595Y010038D01*
X009732Y010175D01*
X009682Y010125D02*
X008888Y010125D01*
X008838Y010175D02*
X008975Y010038D01*
X009050Y009857D01*
X009050Y009663D01*
X008975Y009482D01*
X008838Y009345D01*
X008657Y009270D01*
X008463Y009270D01*
X008282Y009345D01*
X008145Y009482D01*
X008083Y009630D01*
X007535Y009630D01*
X007430Y009735D01*
X006748Y010417D01*
X004177Y010417D01*
X004177Y010250D01*
X004107Y010180D01*
X003413Y010180D01*
X003343Y010250D01*
X003343Y010944D01*
X003413Y011014D01*
X004107Y011014D01*
X004177Y010944D01*
X004177Y010777D01*
X006898Y010777D01*
X007685Y009990D01*
X008125Y009990D01*
X008145Y010038D01*
X008282Y010175D01*
X008463Y010250D01*
X008657Y010250D01*
X008838Y010175D01*
X008673Y010244D02*
X009897Y010244D01*
X010123Y010244D02*
X012575Y010244D01*
X012575Y010125D02*
X010338Y010125D01*
X010438Y010007D02*
X012575Y010007D01*
X012794Y009760D02*
X010010Y009760D01*
X009520Y009770D02*
X009050Y009770D01*
X009037Y009888D02*
X009533Y009888D01*
X009582Y010007D02*
X008988Y010007D01*
X008560Y009760D02*
X008510Y009810D01*
X007610Y009810D01*
X006823Y010597D01*
X003760Y010597D01*
X003343Y010599D02*
X002720Y010599D01*
X002720Y010481D02*
X003343Y010481D01*
X003343Y010362D02*
X002720Y010362D01*
X002720Y010244D02*
X003350Y010244D01*
X002720Y010125D02*
X007040Y010125D01*
X006922Y010244D02*
X004170Y010244D01*
X004177Y010362D02*
X006803Y010362D01*
X007076Y010599D02*
X007666Y010599D01*
X007548Y010718D02*
X006957Y010718D01*
X007194Y010481D02*
X008147Y010481D01*
X008265Y010362D02*
X007313Y010362D01*
X007431Y010244D02*
X008447Y010244D01*
X008232Y010125D02*
X007550Y010125D01*
X007668Y010007D02*
X008132Y010007D01*
X008124Y009533D02*
X007342Y009533D01*
X007224Y009651D02*
X007514Y009651D01*
X007396Y009770D02*
X007105Y009770D01*
X007082Y009793D02*
X006145Y009793D01*
X006145Y009959D01*
X006075Y010030D01*
X005382Y010030D01*
X005312Y009959D01*
X005312Y009266D01*
X005382Y009196D01*
X006075Y009196D01*
X006145Y009266D01*
X006145Y009433D01*
X006933Y009433D01*
X007680Y008685D01*
X007785Y008580D01*
X008104Y008580D01*
X008145Y008482D01*
X008282Y008345D01*
X008463Y008270D01*
X008657Y008270D01*
X008838Y008345D01*
X008975Y008482D01*
X009050Y008663D01*
X009050Y008857D01*
X008975Y009038D01*
X008838Y009175D01*
X008657Y009250D01*
X008463Y009250D01*
X008282Y009175D01*
X008145Y009038D01*
X008104Y008940D01*
X007935Y008940D01*
X007082Y009793D01*
X007007Y009613D02*
X007860Y008760D01*
X008560Y008760D01*
X008104Y008940D02*
X007935Y008940D01*
X007816Y009059D02*
X008166Y009059D01*
X008286Y009177D02*
X007698Y009177D01*
X007579Y009296D02*
X008401Y009296D01*
X008213Y009414D02*
X007461Y009414D01*
X007188Y009177D02*
X002720Y009177D01*
X002720Y009059D02*
X007307Y009059D01*
X007425Y008940D02*
X004177Y008940D01*
X004177Y008975D02*
X004107Y009045D01*
X003413Y009045D01*
X003343Y008975D01*
X003343Y008282D01*
X003413Y008212D01*
X004107Y008212D01*
X004177Y008282D01*
X004177Y008380D01*
X006785Y008380D01*
X007585Y007580D01*
X008104Y007580D01*
X008145Y007482D01*
X008282Y007345D01*
X008463Y007270D01*
X008657Y007270D01*
X008838Y007345D01*
X008975Y007482D01*
X009050Y007663D01*
X009050Y007857D01*
X008975Y008038D01*
X008838Y008175D01*
X008657Y008250D01*
X008463Y008250D01*
X008282Y008175D01*
X008145Y008038D01*
X008104Y007940D01*
X007735Y007940D01*
X007040Y008635D01*
X006935Y008740D01*
X004177Y008740D01*
X004177Y008975D01*
X004177Y008822D02*
X007544Y008822D01*
X007662Y008703D02*
X006972Y008703D01*
X007090Y008585D02*
X007781Y008585D01*
X008161Y008466D02*
X007209Y008466D01*
X007327Y008348D02*
X008280Y008348D01*
X008412Y008229D02*
X007446Y008229D01*
X007564Y008111D02*
X008218Y008111D01*
X008126Y007992D02*
X007683Y007992D01*
X007660Y007760D02*
X006860Y008560D01*
X003829Y008560D01*
X003760Y008629D01*
X003343Y008585D02*
X002720Y008585D01*
X002720Y008703D02*
X003343Y008703D01*
X003343Y008822D02*
X002720Y008822D01*
X002720Y008940D02*
X003343Y008940D01*
X003343Y008466D02*
X002720Y008466D01*
X002720Y008348D02*
X003343Y008348D01*
X003396Y008229D02*
X002720Y008229D01*
X002720Y008111D02*
X007055Y008111D01*
X006936Y008229D02*
X004124Y008229D01*
X004177Y008348D02*
X006818Y008348D01*
X007173Y007992D02*
X006144Y007992D01*
X006145Y007991D02*
X006075Y008061D01*
X005382Y008061D01*
X005312Y007991D01*
X005312Y007298D01*
X005382Y007227D01*
X006075Y007227D01*
X006145Y007298D01*
X006145Y007480D01*
X006585Y007480D01*
X007485Y006580D01*
X008104Y006580D01*
X008145Y006482D01*
X008282Y006345D01*
X008463Y006270D01*
X008657Y006270D01*
X008838Y006345D01*
X008975Y006482D01*
X009050Y006663D01*
X009050Y006857D01*
X008975Y007038D01*
X008838Y007175D01*
X008657Y007250D01*
X008463Y007250D01*
X008282Y007175D01*
X008145Y007038D01*
X008104Y006940D01*
X007635Y006940D01*
X006840Y007735D01*
X006735Y007840D01*
X006145Y007840D01*
X006145Y007991D01*
X006145Y007874D02*
X007292Y007874D01*
X007410Y007755D02*
X006820Y007755D01*
X006938Y007637D02*
X007529Y007637D01*
X007660Y007760D02*
X008560Y007760D01*
X009050Y007755D02*
X009520Y007755D01*
X009520Y007663D02*
X009520Y007857D01*
X009595Y008038D01*
X009732Y008175D01*
X009913Y008250D01*
X010107Y008250D01*
X010288Y008175D01*
X010425Y008038D01*
X010466Y007940D01*
X012575Y007940D01*
X012575Y008335D01*
X012645Y008406D01*
X013338Y008406D01*
X013408Y008335D01*
X013408Y007642D01*
X013338Y007572D01*
X012645Y007572D01*
X012637Y007580D01*
X010466Y007580D01*
X010425Y007482D01*
X010288Y007345D01*
X010107Y007270D01*
X009913Y007270D01*
X009732Y007345D01*
X009595Y007482D01*
X009520Y007663D01*
X009531Y007637D02*
X009039Y007637D01*
X008990Y007518D02*
X009580Y007518D01*
X009678Y007400D02*
X008892Y007400D01*
X008684Y007281D02*
X009886Y007281D01*
X009913Y007250D02*
X009732Y007175D01*
X009595Y007038D01*
X009520Y006857D01*
X009520Y006663D01*
X009595Y006482D01*
X009732Y006345D01*
X009913Y006270D01*
X010107Y006270D01*
X010288Y006345D01*
X010425Y006482D01*
X010466Y006580D01*
X014641Y006580D01*
X014790Y006580D01*
X014798Y006588D01*
X015307Y006588D01*
X015377Y006658D01*
X015377Y007351D01*
X015307Y007421D01*
X014613Y007421D01*
X014543Y007351D01*
X014543Y006940D01*
X010466Y006940D01*
X010425Y007038D01*
X010288Y007175D01*
X010107Y007250D01*
X009913Y007250D01*
X009720Y007163D02*
X008850Y007163D01*
X008969Y007044D02*
X009601Y007044D01*
X009548Y006926D02*
X009022Y006926D01*
X009050Y006807D02*
X009520Y006807D01*
X009520Y006689D02*
X009050Y006689D01*
X009012Y006570D02*
X009558Y006570D01*
X009626Y006452D02*
X008944Y006452D01*
X008810Y006333D02*
X009760Y006333D01*
X009590Y006250D02*
X009520Y006180D01*
X009520Y005340D01*
X009590Y005270D01*
X010430Y005270D01*
X010500Y005340D01*
X010500Y005580D01*
X012806Y005580D01*
X012829Y005603D01*
X013338Y005603D01*
X013408Y005674D01*
X013408Y006367D01*
X013338Y006437D01*
X012645Y006437D01*
X012575Y006367D01*
X012575Y005940D01*
X010500Y005940D01*
X010500Y006180D01*
X010430Y006250D01*
X009590Y006250D01*
X009555Y006215D02*
X008743Y006215D01*
X008657Y006250D02*
X008463Y006250D01*
X008282Y006175D01*
X008145Y006038D01*
X008104Y005940D01*
X005635Y005940D01*
X004840Y006735D01*
X004735Y006840D01*
X004177Y006840D01*
X004177Y007007D01*
X004107Y007077D01*
X003413Y007077D01*
X003343Y007007D01*
X003343Y006313D01*
X003413Y006243D01*
X004107Y006243D01*
X004177Y006313D01*
X004177Y006480D01*
X004585Y006480D01*
X005485Y005580D01*
X008104Y005580D01*
X008145Y005482D01*
X008282Y005345D01*
X008463Y005270D01*
X008657Y005270D01*
X008838Y005345D01*
X008975Y005482D01*
X009050Y005663D01*
X009050Y005857D01*
X008975Y006038D01*
X008838Y006175D01*
X008657Y006250D01*
X008377Y006215D02*
X005360Y006215D01*
X005242Y006333D02*
X008310Y006333D01*
X008176Y006452D02*
X005123Y006452D01*
X005005Y006570D02*
X008108Y006570D01*
X008560Y006760D02*
X007560Y006760D01*
X006660Y007660D01*
X005744Y007660D01*
X005729Y007644D01*
X005312Y007637D02*
X002720Y007637D01*
X002720Y007755D02*
X005312Y007755D01*
X005312Y007874D02*
X002720Y007874D01*
X002720Y007992D02*
X005313Y007992D01*
X005312Y007518D02*
X002720Y007518D01*
X002720Y007400D02*
X005312Y007400D01*
X005328Y007281D02*
X002720Y007281D01*
X002720Y007163D02*
X006903Y007163D01*
X006784Y007281D02*
X006129Y007281D01*
X006145Y007400D02*
X006666Y007400D01*
X007057Y007518D02*
X008130Y007518D01*
X008228Y007400D02*
X007175Y007400D01*
X007294Y007281D02*
X008436Y007281D01*
X008270Y007163D02*
X007412Y007163D01*
X007531Y007044D02*
X008151Y007044D01*
X007377Y006689D02*
X004886Y006689D01*
X004768Y006807D02*
X007258Y006807D01*
X007140Y006926D02*
X004177Y006926D01*
X004139Y007044D02*
X007021Y007044D01*
X008203Y006096D02*
X005479Y006096D01*
X005597Y005978D02*
X008120Y005978D01*
X008560Y005760D02*
X005560Y005760D01*
X004660Y006660D01*
X003760Y006660D01*
X003343Y006689D02*
X002720Y006689D01*
X002720Y006807D02*
X003343Y006807D01*
X003343Y006926D02*
X002720Y006926D01*
X002720Y007044D02*
X003381Y007044D01*
X003343Y006570D02*
X002720Y006570D01*
X002720Y006452D02*
X003343Y006452D01*
X003343Y006333D02*
X002720Y006333D01*
X002720Y006215D02*
X004851Y006215D01*
X004732Y006333D02*
X004177Y006333D01*
X004177Y006452D02*
X004614Y006452D01*
X004969Y006096D02*
X002720Y006096D01*
X002720Y005978D02*
X005088Y005978D01*
X005206Y005859D02*
X002720Y005859D01*
X002720Y005741D02*
X005325Y005741D01*
X005443Y005622D02*
X002720Y005622D01*
X002720Y005504D02*
X008136Y005504D01*
X008242Y005385D02*
X002720Y005385D01*
X002720Y005267D02*
X016092Y005267D01*
X016092Y005385D02*
X010500Y005385D01*
X010500Y005504D02*
X016092Y005504D01*
X016092Y005622D02*
X013357Y005622D01*
X013408Y005741D02*
X016092Y005741D01*
X016092Y005859D02*
X013408Y005859D01*
X013408Y005978D02*
X016092Y005978D01*
X016092Y006096D02*
X013408Y006096D01*
X013408Y006215D02*
X016092Y006215D01*
X016092Y006333D02*
X013408Y006333D01*
X012991Y006020D02*
X012731Y005760D01*
X010010Y005760D01*
X009520Y005741D02*
X009050Y005741D01*
X009049Y005859D02*
X009520Y005859D01*
X009520Y005978D02*
X009000Y005978D01*
X008917Y006096D02*
X009520Y006096D01*
X009520Y005622D02*
X009033Y005622D01*
X008984Y005504D02*
X009520Y005504D01*
X009520Y005385D02*
X008878Y005385D01*
X010260Y006333D02*
X012575Y006333D01*
X012575Y006215D02*
X010465Y006215D01*
X010500Y006096D02*
X012575Y006096D01*
X012575Y005978D02*
X010500Y005978D01*
X010394Y006452D02*
X016092Y006452D01*
X016092Y006570D02*
X010462Y006570D01*
X010419Y007044D02*
X014543Y007044D01*
X014543Y007163D02*
X010300Y007163D01*
X010134Y007281D02*
X014543Y007281D01*
X014592Y007400D02*
X010342Y007400D01*
X010440Y007518D02*
X016092Y007518D01*
X016092Y007400D02*
X015328Y007400D01*
X015377Y007281D02*
X016092Y007281D01*
X016092Y007163D02*
X015377Y007163D01*
X015377Y007044D02*
X016092Y007044D01*
X016092Y006926D02*
X015377Y006926D01*
X015377Y006807D02*
X016092Y006807D01*
X016092Y006689D02*
X015377Y006689D01*
X014960Y007004D02*
X014716Y006760D01*
X010010Y006760D01*
X010010Y007760D02*
X012763Y007760D01*
X012991Y007989D01*
X012575Y007992D02*
X010444Y007992D01*
X010352Y008111D02*
X012575Y008111D01*
X012575Y008229D02*
X010158Y008229D01*
X010290Y008348D02*
X012587Y008348D01*
X013396Y008348D02*
X016092Y008348D01*
X016092Y008466D02*
X010409Y008466D01*
X010466Y008940D02*
X014543Y008940D01*
X014543Y009059D02*
X010404Y009059D01*
X010284Y009177D02*
X014543Y009177D01*
X014543Y009296D02*
X010169Y009296D01*
X010357Y009414D02*
X015780Y009414D01*
X015780Y009533D02*
X010446Y009533D01*
X009851Y009296D02*
X008719Y009296D01*
X008834Y009177D02*
X009736Y009177D01*
X009616Y009059D02*
X008954Y009059D01*
X009016Y008940D02*
X009554Y008940D01*
X009520Y008822D02*
X009050Y008822D01*
X009050Y008703D02*
X009520Y008703D01*
X009552Y008585D02*
X009018Y008585D01*
X008959Y008466D02*
X009611Y008466D01*
X009730Y008348D02*
X008840Y008348D01*
X008708Y008229D02*
X009862Y008229D01*
X009668Y008111D02*
X008902Y008111D01*
X008994Y007992D02*
X009576Y007992D01*
X009527Y007874D02*
X009043Y007874D01*
X010010Y008760D02*
X014747Y008760D01*
X014960Y008973D01*
X015673Y008973D01*
X015960Y009260D01*
X015960Y016860D01*
X015060Y017760D01*
X015060Y020060D01*
X013460Y021660D01*
X009160Y021660D01*
X008866Y021366D01*
X008866Y019004D01*
X008523Y019250D02*
X008423Y019250D01*
X008304Y019368D02*
X008641Y019368D01*
X008686Y019487D02*
X006270Y019487D01*
X006270Y019476D02*
X006210Y019330D01*
X006099Y019219D01*
X005953Y019159D01*
X005795Y019159D01*
X005650Y019219D01*
X005538Y019330D01*
X005478Y019476D01*
X005478Y019634D01*
X005538Y019779D01*
X005650Y019891D01*
X005795Y019951D01*
X005953Y019951D01*
X006099Y019891D01*
X006210Y019779D01*
X006270Y019634D01*
X006270Y019476D01*
X006279Y019368D02*
X006226Y019368D01*
X006160Y019250D02*
X006129Y019250D01*
X006087Y019131D02*
X002720Y019131D01*
X002720Y019013D02*
X006087Y019013D01*
X006087Y018894D02*
X002720Y018894D01*
X002720Y018776D02*
X006143Y018776D01*
X006261Y018657D02*
X002720Y018657D01*
X002720Y018539D02*
X006237Y018539D01*
X006118Y018420D02*
X002720Y018420D01*
X002720Y018302D02*
X006087Y018302D01*
X006087Y018183D02*
X002720Y018183D01*
X002720Y018065D02*
X006087Y018065D01*
X006185Y017946D02*
X002720Y017946D01*
X002720Y017828D02*
X003773Y017828D01*
X003654Y017709D02*
X002720Y017709D01*
X002720Y017591D02*
X003536Y017591D01*
X003417Y017472D02*
X002720Y017472D01*
X002720Y017354D02*
X003299Y017354D01*
X003180Y017235D02*
X002720Y017235D01*
X002720Y017117D02*
X003062Y017117D01*
X002943Y016998D02*
X002720Y016998D01*
X002720Y016880D02*
X002825Y016880D01*
X002780Y016761D02*
X002720Y016761D01*
X002720Y016643D02*
X002780Y016643D01*
X002780Y016524D02*
X002720Y016524D01*
X002720Y016406D02*
X002780Y016406D01*
X002780Y016287D02*
X002720Y016287D01*
X002720Y016169D02*
X002780Y016169D01*
X002780Y016050D02*
X002720Y016050D01*
X002720Y015932D02*
X002780Y015932D01*
X002780Y015813D02*
X002720Y015813D01*
X002720Y015695D02*
X002780Y015695D01*
X002780Y015576D02*
X002720Y015576D01*
X002720Y015458D02*
X002780Y015458D01*
X002780Y015339D02*
X002720Y015339D01*
X002720Y015221D02*
X002780Y015221D01*
X002780Y015102D02*
X002720Y015102D01*
X002720Y014984D02*
X002780Y014984D01*
X002780Y014865D02*
X002720Y014865D01*
X002720Y014747D02*
X002780Y014747D01*
X002780Y014628D02*
X002720Y014628D01*
X002720Y014510D02*
X002780Y014510D01*
X002780Y014391D02*
X002720Y014391D01*
X002720Y014273D02*
X002780Y014273D01*
X002780Y014154D02*
X002720Y014154D01*
X002720Y014036D02*
X002780Y014036D01*
X002780Y013917D02*
X002720Y013917D01*
X002720Y013799D02*
X002780Y013799D01*
X002780Y013680D02*
X002720Y013680D01*
X002720Y013562D02*
X002780Y013562D01*
X002780Y013443D02*
X002720Y013443D01*
X002720Y013325D02*
X002780Y013325D01*
X002780Y013206D02*
X002720Y013206D01*
X002720Y013088D02*
X002780Y013088D01*
X002780Y012969D02*
X002720Y012969D01*
X002720Y012851D02*
X002780Y012851D01*
X002780Y012732D02*
X002720Y012732D01*
X002720Y012614D02*
X002780Y012614D01*
X002780Y012495D02*
X002720Y012495D01*
X002720Y012377D02*
X002780Y012377D01*
X002780Y012258D02*
X002720Y012258D01*
X002720Y012140D02*
X002780Y012140D01*
X002780Y012021D02*
X002720Y012021D01*
X002720Y011903D02*
X002780Y011903D01*
X002720Y011784D02*
X002881Y011784D01*
X003000Y011666D02*
X002720Y011666D01*
X002720Y011547D02*
X003118Y011547D01*
X003237Y011429D02*
X002720Y011429D01*
X002720Y011310D02*
X005312Y011310D01*
X005355Y011192D02*
X002720Y011192D01*
X002720Y011073D02*
X007192Y011073D01*
X007074Y011192D02*
X006102Y011192D01*
X006145Y011310D02*
X006955Y011310D01*
X006939Y011581D02*
X007760Y010760D01*
X008560Y010760D01*
X008110Y010955D02*
X007820Y010955D01*
X007702Y011073D02*
X008180Y011073D01*
X008321Y011192D02*
X007583Y011192D01*
X007465Y011310D02*
X008366Y011310D01*
X008199Y011429D02*
X007346Y011429D01*
X007228Y011547D02*
X008118Y011547D01*
X007860Y011760D02*
X008560Y011760D01*
X008138Y012021D02*
X007854Y012021D01*
X007735Y012140D02*
X008247Y012140D01*
X008070Y012377D02*
X007498Y012377D01*
X007380Y012495D02*
X008070Y012495D01*
X008070Y012614D02*
X007261Y012614D01*
X007143Y012732D02*
X008070Y012732D01*
X008070Y012851D02*
X004177Y012851D01*
X004120Y012969D02*
X008070Y012969D01*
X007978Y013088D02*
X003840Y013088D01*
X003840Y013206D02*
X005312Y013206D01*
X005312Y013325D02*
X003840Y013325D01*
X003840Y013443D02*
X005312Y013443D01*
X005312Y013562D02*
X003840Y013562D01*
X003840Y013680D02*
X005312Y013680D01*
X005312Y013799D02*
X003840Y013799D01*
X003840Y013917D02*
X005332Y013917D01*
X005680Y014036D02*
X003840Y014036D01*
X003840Y014154D02*
X005680Y014154D01*
X005680Y014273D02*
X003840Y014273D01*
X003840Y014391D02*
X005680Y014391D01*
X005680Y014510D02*
X003840Y014510D01*
X003840Y014628D02*
X005680Y014628D01*
X005680Y014747D02*
X003840Y014747D01*
X003840Y014865D02*
X005680Y014865D01*
X005680Y014984D02*
X003840Y014984D01*
X003840Y015102D02*
X005680Y015102D01*
X005680Y015221D02*
X003840Y015221D01*
X003840Y015339D02*
X005680Y015339D01*
X005680Y015458D02*
X003840Y015458D01*
X003840Y015576D02*
X005680Y015576D01*
X005680Y015695D02*
X003840Y015695D01*
X003840Y015813D02*
X005680Y015813D01*
X005680Y015932D02*
X003840Y015932D01*
X003840Y016050D02*
X005680Y016050D01*
X005680Y016169D02*
X003840Y016169D01*
X003840Y016287D02*
X005680Y016287D01*
X005680Y016406D02*
X003840Y016406D01*
X003840Y016524D02*
X005680Y016524D01*
X005680Y016643D02*
X003897Y016643D01*
X004016Y016761D02*
X005680Y016761D01*
X005725Y016880D02*
X004134Y016880D01*
X004253Y016998D02*
X005843Y016998D01*
X005962Y017117D02*
X004371Y017117D01*
X004360Y017360D02*
X003660Y016660D01*
X003660Y012666D01*
X003760Y012566D01*
X007054Y012566D01*
X007860Y011760D01*
X007700Y011666D02*
X007109Y011666D01*
X006939Y011581D02*
X005729Y011581D01*
X005707Y011560D01*
X003360Y011560D01*
X002960Y011960D01*
X002960Y016760D01*
X003860Y017660D01*
X010160Y017660D01*
X010441Y017941D01*
X010441Y018216D01*
X011229Y018216D02*
X011229Y018129D01*
X010460Y017360D01*
X004360Y017360D01*
X004217Y017472D02*
X003927Y017472D01*
X003808Y017354D02*
X004099Y017354D01*
X003980Y017235D02*
X003690Y017235D01*
X003571Y017117D02*
X003862Y017117D01*
X003743Y016998D02*
X003453Y016998D01*
X003334Y016880D02*
X003625Y016880D01*
X003506Y016761D02*
X003216Y016761D01*
X003140Y016643D02*
X003480Y016643D01*
X003480Y016524D02*
X003140Y016524D01*
X003140Y016406D02*
X003480Y016406D01*
X003480Y016287D02*
X003140Y016287D01*
X003140Y016169D02*
X003480Y016169D01*
X003480Y016050D02*
X003140Y016050D01*
X003140Y015932D02*
X003480Y015932D01*
X003480Y015813D02*
X003140Y015813D01*
X003140Y015695D02*
X003480Y015695D01*
X003480Y015576D02*
X003140Y015576D01*
X003140Y015458D02*
X003480Y015458D01*
X003480Y015339D02*
X003140Y015339D01*
X003140Y015221D02*
X003480Y015221D01*
X003480Y015102D02*
X003140Y015102D01*
X003140Y014984D02*
X003480Y014984D01*
X003480Y014865D02*
X003140Y014865D01*
X003140Y014747D02*
X003480Y014747D01*
X003480Y014628D02*
X003140Y014628D01*
X003140Y014510D02*
X003480Y014510D01*
X003480Y014391D02*
X003140Y014391D01*
X003140Y014273D02*
X003480Y014273D01*
X003480Y014154D02*
X003140Y014154D01*
X003140Y014036D02*
X003480Y014036D01*
X003480Y013917D02*
X003140Y013917D01*
X003140Y013799D02*
X003480Y013799D01*
X003480Y013680D02*
X003140Y013680D01*
X003140Y013562D02*
X003480Y013562D01*
X003480Y013443D02*
X003140Y013443D01*
X003140Y013325D02*
X003480Y013325D01*
X003480Y013206D02*
X003140Y013206D01*
X003140Y013088D02*
X003480Y013088D01*
X003400Y012969D02*
X003140Y012969D01*
X003140Y012851D02*
X003343Y012851D01*
X003343Y012732D02*
X003140Y012732D01*
X003140Y012614D02*
X003343Y012614D01*
X003343Y012495D02*
X003140Y012495D01*
X003140Y012377D02*
X003343Y012377D01*
X003343Y012258D02*
X003140Y012258D01*
X003140Y012140D02*
X007226Y012140D01*
X007107Y012258D02*
X004177Y012258D01*
X004177Y012377D02*
X006989Y012377D01*
X007617Y012258D02*
X012575Y012258D01*
X012575Y012140D02*
X010323Y012140D01*
X010432Y012021D02*
X012575Y012021D01*
X012826Y011760D02*
X010010Y011760D01*
X010371Y011429D02*
X015192Y011429D01*
X015311Y011547D02*
X013376Y011547D01*
X013408Y011666D02*
X015429Y011666D01*
X015480Y011784D02*
X013408Y011784D01*
X013408Y011903D02*
X015480Y011903D01*
X015480Y012021D02*
X013408Y012021D01*
X013408Y012140D02*
X015480Y012140D01*
X015480Y012258D02*
X013408Y012258D01*
X012991Y011926D02*
X012826Y011760D01*
X012607Y011547D02*
X010452Y011547D01*
X010204Y011310D02*
X014565Y011310D01*
X014543Y011192D02*
X010249Y011192D01*
X010191Y010941D02*
X014960Y010941D01*
X015660Y011641D01*
X015660Y016660D01*
X014760Y017560D01*
X014760Y019460D01*
X014060Y020160D01*
X011660Y020160D01*
X011160Y019660D01*
X010760Y019660D01*
X010441Y019341D01*
X010441Y019004D01*
X010785Y019250D02*
X010885Y019250D01*
X011003Y019368D02*
X010723Y019368D01*
X011241Y019487D02*
X012250Y019487D01*
X012250Y019605D02*
X011360Y019605D01*
X011478Y019724D02*
X012287Y019724D01*
X012373Y019842D02*
X011597Y019842D01*
X011715Y019961D02*
X014005Y019961D01*
X014123Y019842D02*
X012919Y019842D01*
X013005Y019724D02*
X014242Y019724D01*
X014360Y019605D02*
X013042Y019605D01*
X013042Y019487D02*
X014479Y019487D01*
X014580Y019368D02*
X012997Y019368D01*
X012901Y019250D02*
X014580Y019250D01*
X015240Y019250D02*
X016092Y019250D01*
X016092Y019368D02*
X015240Y019368D01*
X015240Y019487D02*
X016092Y019487D01*
X016092Y019605D02*
X015240Y019605D01*
X015240Y019724D02*
X016092Y019724D01*
X016092Y019842D02*
X015240Y019842D01*
X015240Y019961D02*
X016092Y019961D01*
X016092Y020079D02*
X015240Y020079D01*
X015177Y020198D02*
X016092Y020198D01*
X016092Y020316D02*
X015059Y020316D01*
X014940Y020435D02*
X016092Y020435D01*
X016092Y020553D02*
X014822Y020553D01*
X014703Y020672D02*
X016092Y020672D01*
X016092Y020790D02*
X014585Y020790D01*
X014466Y020909D02*
X016092Y020909D01*
X016092Y021027D02*
X014348Y021027D01*
X014229Y021146D02*
X016092Y021146D01*
X016092Y021264D02*
X014111Y021264D01*
X013992Y021383D02*
X016092Y021383D01*
X016092Y021501D02*
X013874Y021501D01*
X013755Y021620D02*
X016092Y021620D01*
X016092Y021738D02*
X013637Y021738D01*
X016092Y021857D02*
X002720Y021857D01*
X002720Y021975D02*
X016092Y021975D01*
X016092Y022094D02*
X002720Y022094D01*
X002720Y022212D02*
X016092Y022212D01*
X016092Y022331D02*
X002720Y022331D01*
X002720Y022449D02*
X016092Y022449D01*
X016092Y022568D02*
X002720Y022568D01*
X002720Y022686D02*
X016092Y022686D01*
X016092Y022805D02*
X002720Y022805D01*
X002720Y021738D02*
X008983Y021738D01*
X008865Y021620D02*
X002720Y021620D01*
X002720Y021501D02*
X008746Y021501D01*
X008686Y021383D02*
X002720Y021383D01*
X002720Y021264D02*
X008686Y021264D01*
X008686Y021146D02*
X002720Y021146D01*
X002720Y021027D02*
X008686Y021027D01*
X008686Y020909D02*
X002720Y020909D01*
X002720Y020790D02*
X008686Y020790D01*
X008686Y020672D02*
X002720Y020672D01*
X002720Y020553D02*
X008686Y020553D01*
X008686Y020435D02*
X002720Y020435D01*
X002720Y020316D02*
X008686Y020316D01*
X008686Y020198D02*
X002720Y020198D01*
X002720Y020079D02*
X008686Y020079D01*
X008686Y019961D02*
X002720Y019961D01*
X002720Y019842D02*
X005601Y019842D01*
X005515Y019724D02*
X002720Y019724D01*
X002720Y019605D02*
X005478Y019605D01*
X005478Y019487D02*
X002720Y019487D01*
X002720Y019368D02*
X005523Y019368D01*
X005619Y019250D02*
X002720Y019250D01*
X006147Y019842D02*
X008686Y019842D01*
X008686Y019724D02*
X006233Y019724D01*
X006270Y019605D02*
X008686Y019605D01*
X007854Y019368D02*
X007517Y019368D01*
X007635Y019250D02*
X007735Y019250D01*
X007066Y019368D02*
X006729Y019368D01*
X006848Y019250D02*
X006948Y019250D01*
X006160Y017060D02*
X005860Y016760D01*
X005860Y013681D01*
X007639Y013681D01*
X008560Y012760D01*
X007859Y013206D02*
X006145Y013206D01*
X006145Y013325D02*
X007741Y013325D01*
X007622Y013443D02*
X006145Y013443D01*
X005860Y013681D02*
X005729Y013550D01*
X006125Y013917D02*
X008767Y013917D01*
X008749Y013924D02*
X008868Y013875D01*
X008991Y013838D01*
X009118Y013813D01*
X009246Y013800D01*
X009250Y013800D01*
X009250Y015050D01*
X009370Y015050D01*
X009370Y015170D01*
X010620Y015170D01*
X010620Y015174D01*
X010607Y015302D01*
X010582Y015429D01*
X010545Y015552D01*
X010496Y015671D01*
X010435Y015784D01*
X010363Y015891D01*
X010282Y015991D01*
X010191Y016082D01*
X010091Y016163D01*
X009984Y016235D01*
X009871Y016296D01*
X009752Y016345D01*
X009629Y016382D01*
X009502Y016407D01*
X009374Y016420D01*
X009370Y016420D01*
X009370Y015170D01*
X009250Y015170D01*
X009250Y016420D01*
X009246Y016420D01*
X009118Y016407D01*
X008991Y016382D01*
X008868Y016345D01*
X008749Y016296D01*
X008636Y016235D01*
X008529Y016163D01*
X008429Y016082D01*
X008338Y015991D01*
X008257Y015891D01*
X008185Y015784D01*
X008124Y015671D01*
X008075Y015552D01*
X008038Y015429D01*
X008013Y015302D01*
X008000Y015174D01*
X008000Y015170D01*
X009250Y015170D01*
X009250Y015050D01*
X008000Y015050D01*
X008000Y015046D01*
X008013Y014918D01*
X008038Y014791D01*
X008075Y014668D01*
X008124Y014549D01*
X008185Y014436D01*
X008257Y014329D01*
X008338Y014229D01*
X008429Y014138D01*
X008529Y014057D01*
X008636Y013985D01*
X008749Y013924D01*
X008560Y014036D02*
X006040Y014036D01*
X006040Y014154D02*
X008413Y014154D01*
X008303Y014273D02*
X006040Y014273D01*
X006040Y014391D02*
X008215Y014391D01*
X008146Y014510D02*
X006040Y014510D01*
X006040Y014628D02*
X008092Y014628D01*
X008051Y014747D02*
X006040Y014747D01*
X006040Y014865D02*
X008023Y014865D01*
X008006Y014984D02*
X006040Y014984D01*
X006040Y015102D02*
X009250Y015102D01*
X009250Y014984D02*
X009370Y014984D01*
X009370Y015050D02*
X009370Y013800D01*
X009374Y013800D01*
X009502Y013813D01*
X009629Y013838D01*
X009752Y013875D01*
X009871Y013924D01*
X009984Y013985D01*
X010091Y014057D01*
X010191Y014138D01*
X010282Y014229D01*
X010363Y014329D01*
X010435Y014436D01*
X010496Y014549D01*
X010545Y014668D01*
X010582Y014791D01*
X010607Y014918D01*
X010620Y015046D01*
X010620Y015050D01*
X009370Y015050D01*
X009370Y015102D02*
X014180Y015102D01*
X014180Y014984D02*
X010614Y014984D01*
X010597Y014865D02*
X014180Y014865D01*
X014180Y014747D02*
X010569Y014747D01*
X010528Y014628D02*
X014180Y014628D01*
X014180Y014510D02*
X010474Y014510D01*
X010405Y014391D02*
X014180Y014391D01*
X014180Y014273D02*
X010317Y014273D01*
X010207Y014154D02*
X014180Y014154D01*
X014180Y014036D02*
X010060Y014036D01*
X009853Y013917D02*
X014180Y013917D01*
X014180Y013799D02*
X007776Y013799D01*
X007895Y013680D02*
X014180Y013680D01*
X014180Y013562D02*
X008013Y013562D01*
X008132Y013443D02*
X014180Y013443D01*
X014291Y013325D02*
X008250Y013325D01*
X009250Y013917D02*
X009370Y013917D01*
X009370Y014036D02*
X009250Y014036D01*
X009250Y014154D02*
X009370Y014154D01*
X009370Y014273D02*
X009250Y014273D01*
X009250Y014391D02*
X009370Y014391D01*
X009370Y014510D02*
X009250Y014510D01*
X009250Y014628D02*
X009370Y014628D01*
X009370Y014747D02*
X009250Y014747D01*
X009250Y014865D02*
X009370Y014865D01*
X009370Y015221D02*
X009250Y015221D01*
X009250Y015339D02*
X009370Y015339D01*
X009370Y015458D02*
X009250Y015458D01*
X009250Y015576D02*
X009370Y015576D01*
X009370Y015695D02*
X009250Y015695D01*
X009250Y015813D02*
X009370Y015813D01*
X009370Y015932D02*
X009250Y015932D01*
X009250Y016050D02*
X009370Y016050D01*
X009370Y016169D02*
X009250Y016169D01*
X009250Y016287D02*
X009370Y016287D01*
X009370Y016406D02*
X009250Y016406D01*
X009108Y016406D02*
X006040Y016406D01*
X006040Y016524D02*
X014180Y016524D01*
X014180Y016406D02*
X009512Y016406D01*
X009887Y016287D02*
X014180Y016287D01*
X014180Y016169D02*
X010084Y016169D01*
X010223Y016050D02*
X014180Y016050D01*
X014180Y015932D02*
X010330Y015932D01*
X010416Y015813D02*
X014180Y015813D01*
X014180Y015695D02*
X010483Y015695D01*
X010535Y015576D02*
X014180Y015576D01*
X014180Y015458D02*
X010574Y015458D01*
X010600Y015339D02*
X014180Y015339D01*
X014180Y015221D02*
X010615Y015221D01*
X008733Y016287D02*
X006040Y016287D01*
X006040Y016169D02*
X008536Y016169D01*
X008397Y016050D02*
X006040Y016050D01*
X006040Y015932D02*
X008290Y015932D01*
X008204Y015813D02*
X006040Y015813D01*
X006040Y015695D02*
X008137Y015695D01*
X008085Y015576D02*
X006040Y015576D01*
X006040Y015458D02*
X008046Y015458D01*
X008020Y015339D02*
X006040Y015339D01*
X006040Y015221D02*
X008005Y015221D01*
X006040Y016643D02*
X014180Y016643D01*
X014180Y016761D02*
X006116Y016761D01*
X006234Y016880D02*
X014180Y016880D01*
X014180Y016998D02*
X011453Y016998D01*
X011571Y017117D02*
X014180Y017117D01*
X014180Y017235D02*
X011690Y017235D01*
X011808Y017354D02*
X014180Y017354D01*
X014180Y017472D02*
X011927Y017472D01*
X012045Y017591D02*
X014180Y017591D01*
X014156Y017709D02*
X012164Y017709D01*
X012217Y017828D02*
X014038Y017828D01*
X013919Y017946D02*
X012335Y017946D01*
X012433Y018065D02*
X013801Y018065D01*
X013682Y018183D02*
X012433Y018183D01*
X012433Y018302D02*
X013564Y018302D01*
X013445Y018420D02*
X012402Y018420D01*
X012283Y018539D02*
X012727Y018539D01*
X012608Y018657D02*
X012259Y018657D01*
X012377Y018776D02*
X012490Y018776D01*
X012016Y018216D02*
X012016Y017816D01*
X011260Y017060D01*
X006160Y017060D01*
X011454Y019368D02*
X011791Y019368D01*
X011672Y019250D02*
X011572Y019250D01*
X012241Y019368D02*
X012294Y019368D01*
X015240Y019131D02*
X016092Y019131D01*
X016092Y019013D02*
X015240Y019013D01*
X015240Y018894D02*
X016092Y018894D01*
X016092Y018776D02*
X015240Y018776D01*
X015240Y018657D02*
X016092Y018657D01*
X016092Y018539D02*
X015240Y018539D01*
X015240Y018420D02*
X016092Y018420D01*
X016092Y018302D02*
X015240Y018302D01*
X015240Y018183D02*
X016092Y018183D01*
X016092Y018065D02*
X015240Y018065D01*
X015240Y017946D02*
X016092Y017946D01*
X016092Y017828D02*
X015247Y017828D01*
X015366Y017709D02*
X016092Y017709D01*
X016092Y017591D02*
X015484Y017591D01*
X015603Y017472D02*
X016092Y017472D01*
X016092Y017354D02*
X015721Y017354D01*
X015840Y017235D02*
X016092Y017235D01*
X016092Y017117D02*
X015958Y017117D01*
X016077Y016998D02*
X016092Y016998D01*
X015480Y013325D02*
X015309Y013325D01*
X015377Y013206D02*
X015480Y013206D01*
X015480Y013088D02*
X015377Y013088D01*
X015377Y012969D02*
X015480Y012969D01*
X015480Y012851D02*
X015377Y012851D01*
X015377Y012732D02*
X015480Y012732D01*
X015480Y012614D02*
X015377Y012614D01*
X015308Y012495D02*
X015480Y012495D01*
X015480Y012377D02*
X010319Y012377D01*
X010431Y012495D02*
X014612Y012495D01*
X014543Y012614D02*
X010480Y012614D01*
X010191Y010941D02*
X010010Y010760D01*
X010474Y010599D02*
X014543Y010599D01*
X014543Y010718D02*
X010500Y010718D01*
X010423Y010481D02*
X015780Y010481D01*
X015780Y010599D02*
X015377Y010599D01*
X015377Y010718D02*
X015780Y010718D01*
X015780Y010836D02*
X015377Y010836D01*
X015377Y010955D02*
X015780Y010955D01*
X015780Y011073D02*
X015377Y011073D01*
X015465Y011192D02*
X015780Y011192D01*
X015780Y011310D02*
X015583Y011310D01*
X015702Y011429D02*
X015780Y011429D01*
X015780Y010362D02*
X013350Y010362D01*
X013408Y010244D02*
X015780Y010244D01*
X015780Y010125D02*
X013408Y010125D01*
X013408Y010007D02*
X015780Y010007D01*
X015780Y009888D02*
X013408Y009888D01*
X013408Y009770D02*
X015780Y009770D01*
X015780Y009651D02*
X013408Y009651D01*
X012991Y009957D02*
X012794Y009760D01*
X012633Y010362D02*
X010305Y010362D01*
X009525Y009651D02*
X009045Y009651D01*
X008996Y009533D02*
X009574Y009533D01*
X009663Y009414D02*
X008907Y009414D01*
X007277Y009888D02*
X006145Y009888D01*
X006098Y010007D02*
X007159Y010007D01*
X007007Y009613D02*
X005729Y009613D01*
X005312Y009651D02*
X002720Y009651D01*
X002720Y009533D02*
X005312Y009533D01*
X005312Y009414D02*
X002720Y009414D01*
X002720Y009296D02*
X005312Y009296D01*
X005312Y009770D02*
X002720Y009770D01*
X002720Y009888D02*
X005312Y009888D01*
X005359Y010007D02*
X002720Y010007D01*
X002720Y010718D02*
X003343Y010718D01*
X003343Y010836D02*
X002720Y010836D01*
X002720Y010955D02*
X003354Y010955D01*
X004166Y010955D02*
X007311Y010955D01*
X007429Y010836D02*
X004177Y010836D01*
X003391Y011784D02*
X005312Y011784D01*
X005312Y011903D02*
X003272Y011903D01*
X003154Y012021D02*
X007344Y012021D01*
X007463Y011903D02*
X006145Y011903D01*
X006145Y011784D02*
X007581Y011784D01*
X006951Y009414D02*
X006145Y009414D01*
X006145Y009296D02*
X007070Y009296D01*
X003766Y012560D02*
X003760Y012566D01*
X013408Y008229D02*
X016092Y008229D01*
X016092Y008111D02*
X013408Y008111D01*
X013408Y007992D02*
X016092Y007992D01*
X016092Y007874D02*
X013408Y007874D01*
X013408Y007755D02*
X016092Y007755D01*
X016092Y007637D02*
X013403Y007637D01*
X015335Y008585D02*
X016092Y008585D01*
X016092Y008703D02*
X015377Y008703D01*
X015776Y008822D02*
X016092Y008822D01*
X016092Y008940D02*
X015895Y008940D01*
X016013Y009059D02*
X016092Y009059D01*
X015741Y009296D02*
X015377Y009296D01*
X015377Y009177D02*
X015622Y009177D01*
X016092Y005148D02*
X002720Y005148D01*
X002720Y005030D02*
X016092Y005030D01*
M02*
