%
M48
M72
T01C0.0200
T02C0.0394
T03C0.1260
%
T01
X7860Y8260
X8060Y9860
X7860Y10710
X9560Y10360
X10310Y9710
X9560Y7560
X11210Y5110
X10210Y12510
X9310Y12760
X8060Y13460
X7310Y14010
X9310Y15510
X10210Y15210
X11110Y14360
X8110Y16310
X7510Y16160
X10210Y18110
X10960Y17460
T02
X4156Y13697
X6125Y13697
X7109Y11729
X5141Y11729
X5929Y8744
X3960Y7760
X12547Y16698
X14515Y17682
X15465Y13695
X13496Y12710
X15464Y10022
X15464Y8054
X13496Y9038
X13496Y7069
T03
X14860Y4310
X4910Y16710
M30
