<?xml version="1.0" encoding="utf-8"?>
<!DOCTYPE eagle SYSTEM "eagle.dtd">
<eagle version="6.4">
<drawing>
<settings>
<setting alwaysvectorfont="yes"/>
<setting verticaltext="up"/>
</settings>
<grid distance="0.1" unitdist="inch" unit="inch" style="lines" multiple="1" display="no" altdistance="0.01" altunitdist="inch" altunit="inch"/>
<layers>
<layer number="1" name="Top" color="4" fill="1" visible="no" active="no"/>
<layer number="2" name="Route2" color="1" fill="3" visible="no" active="no"/>
<layer number="3" name="Route3" color="4" fill="3" visible="no" active="no"/>
<layer number="14" name="Route14" color="1" fill="6" visible="no" active="no"/>
<layer number="15" name="Route15" color="4" fill="6" visible="no" active="no"/>
<layer number="16" name="Bottom" color="1" fill="1" visible="no" active="no"/>
<layer number="17" name="Pads" color="2" fill="1" visible="no" active="no"/>
<layer number="18" name="Vias" color="2" fill="1" visible="no" active="no"/>
<layer number="19" name="Unrouted" color="6" fill="1" visible="no" active="no"/>
<layer number="20" name="Dimension" color="15" fill="1" visible="no" active="no"/>
<layer number="21" name="tPlace" color="7" fill="1" visible="no" active="no"/>
<layer number="22" name="bPlace" color="7" fill="1" visible="no" active="no"/>
<layer number="23" name="tOrigins" color="15" fill="1" visible="no" active="no"/>
<layer number="24" name="bOrigins" color="15" fill="1" visible="no" active="no"/>
<layer number="25" name="tNames" color="7" fill="1" visible="no" active="no"/>
<layer number="26" name="bNames" color="7" fill="1" visible="no" active="no"/>
<layer number="27" name="tValues" color="7" fill="1" visible="no" active="no"/>
<layer number="28" name="bValues" color="7" fill="1" visible="no" active="no"/>
<layer number="29" name="tStop" color="7" fill="3" visible="no" active="no"/>
<layer number="30" name="bStop" color="7" fill="6" visible="no" active="no"/>
<layer number="31" name="tCream" color="7" fill="4" visible="no" active="no"/>
<layer number="32" name="bCream" color="7" fill="5" visible="no" active="no"/>
<layer number="33" name="tFinish" color="6" fill="3" visible="no" active="no"/>
<layer number="34" name="bFinish" color="6" fill="6" visible="no" active="no"/>
<layer number="35" name="tGlue" color="7" fill="4" visible="no" active="no"/>
<layer number="36" name="bGlue" color="7" fill="5" visible="no" active="no"/>
<layer number="37" name="tTest" color="7" fill="1" visible="no" active="no"/>
<layer number="38" name="bTest" color="7" fill="1" visible="no" active="no"/>
<layer number="39" name="tKeepout" color="4" fill="11" visible="no" active="no"/>
<layer number="40" name="bKeepout" color="1" fill="11" visible="no" active="no"/>
<layer number="41" name="tRestrict" color="4" fill="10" visible="no" active="no"/>
<layer number="42" name="bRestrict" color="3" fill="10" visible="no" active="no"/>
<layer number="43" name="vRestrict" color="2" fill="10" visible="no" active="no"/>
<layer number="44" name="Drills" color="7" fill="1" visible="no" active="no"/>
<layer number="45" name="Holes" color="7" fill="1" visible="no" active="no"/>
<layer number="46" name="Milling" color="3" fill="1" visible="no" active="no"/>
<layer number="47" name="Measures" color="7" fill="1" visible="no" active="no"/>
<layer number="48" name="Document" color="7" fill="1" visible="no" active="no"/>
<layer number="49" name="Reference" color="7" fill="1" visible="no" active="no"/>
<layer number="50" name="dxf" color="7" fill="1" visible="no" active="no"/>
<layer number="51" name="tDocu" color="7" fill="1" visible="no" active="no"/>
<layer number="52" name="bDocu" color="7" fill="1" visible="no" active="no"/>
<layer number="53" name="tGND_GNDA" color="7" fill="9" visible="no" active="no"/>
<layer number="54" name="bGND_GNDA" color="1" fill="9" visible="no" active="no"/>
<layer number="56" name="wert" color="7" fill="1" visible="no" active="no"/>
<layer number="57" name="tCAD" color="7" fill="1" visible="no" active="no"/>
<layer number="91" name="Nets" color="2" fill="1" visible="yes" active="yes"/>
<layer number="92" name="Busses" color="1" fill="1" visible="yes" active="yes"/>
<layer number="93" name="Pins" color="2" fill="1" visible="no" active="yes"/>
<layer number="94" name="Symbols" color="4" fill="1" visible="yes" active="yes"/>
<layer number="95" name="Names" color="7" fill="1" visible="yes" active="yes"/>
<layer number="96" name="Values" color="7" fill="1" visible="yes" active="yes"/>
<layer number="97" name="Info" color="7" fill="1" visible="yes" active="yes"/>
<layer number="98" name="Guide" color="6" fill="1" visible="yes" active="yes"/>
<layer number="99" name="SpiceOrder" color="7" fill="1" visible="yes" active="yes"/>
<layer number="100" name="Image" color="15" fill="10" visible="yes" active="yes"/>
<layer number="101" name="Patch_Top" color="12" fill="4" visible="yes" active="yes"/>
<layer number="102" name="Vscore" color="7" fill="1" visible="yes" active="yes"/>
<layer number="103" name="tMap" color="7" fill="1" visible="yes" active="yes"/>
<layer number="104" name="Name" color="16" fill="1" visible="yes" active="yes"/>
<layer number="105" name="tPlate" color="7" fill="1" visible="yes" active="yes"/>
<layer number="106" name="bPlate" color="7" fill="1" visible="yes" active="yes"/>
<layer number="107" name="Crop" color="7" fill="1" visible="yes" active="yes"/>
<layer number="108" name="tplace-old" color="10" fill="1" visible="yes" active="yes"/>
<layer number="109" name="ref-old" color="11" fill="1" visible="yes" active="yes"/>
<layer number="110" name="fp0" color="7" fill="1" visible="no" active="yes"/>
<layer number="111" name="LPC17xx" color="7" fill="1" visible="yes" active="yes"/>
<layer number="112" name="tSilk" color="7" fill="1" visible="yes" active="yes"/>
<layer number="113" name="IDFDebug" color="4" fill="1" visible="yes" active="yes"/>
<layer number="116" name="Patch_BOT" color="9" fill="4" visible="yes" active="yes"/>
<layer number="121" name="_tsilk" color="7" fill="1" visible="yes" active="yes"/>
<layer number="122" name="_bsilk" color="7" fill="1" visible="yes" active="yes"/>
<layer number="123" name="tTestmark" color="7" fill="1" visible="no" active="yes"/>
<layer number="124" name="bTestmark" color="7" fill="1" visible="no" active="yes"/>
<layer number="125" name="_tNames" color="7" fill="1" visible="yes" active="yes"/>
<layer number="126" name="_bNames" color="7" fill="1" visible="yes" active="yes"/>
<layer number="127" name="_tValues" color="7" fill="1" visible="yes" active="yes"/>
<layer number="128" name="128bmp" color="1" fill="10" visible="yes" active="yes"/>
<layer number="129" name="129bmp" color="2" fill="4" visible="yes" active="yes"/>
<layer number="130" name="130bmp" color="2" fill="1" visible="yes" active="yes"/>
<layer number="131" name="tAdjust" color="7" fill="1" visible="no" active="yes"/>
<layer number="132" name="bAdjust" color="7" fill="1" visible="no" active="yes"/>
<layer number="144" name="Drill_legend" color="7" fill="1" visible="yes" active="yes"/>
<layer number="150" name="Notes" color="7" fill="1" visible="no" active="yes"/>
<layer number="151" name="HeatSink" color="7" fill="1" visible="yes" active="yes"/>
<layer number="152" name="_bDocu" color="7" fill="1" visible="yes" active="yes"/>
<layer number="153" name="FabDoc1" color="6" fill="1" visible="no" active="no"/>
<layer number="154" name="FabDoc2" color="2" fill="1" visible="no" active="no"/>
<layer number="155" name="FabDoc3" color="7" fill="15" visible="no" active="no"/>
<layer number="199" name="Contour" color="7" fill="1" visible="yes" active="yes"/>
<layer number="200" name="200bmp" color="1" fill="10" visible="yes" active="yes"/>
<layer number="201" name="201bmp" color="2" fill="1" visible="yes" active="yes"/>
<layer number="202" name="202bmp" color="3" fill="10" visible="yes" active="yes"/>
<layer number="203" name="203bmp" color="4" fill="10" visible="yes" active="yes"/>
<layer number="204" name="204bmp" color="5" fill="10" visible="yes" active="yes"/>
<layer number="205" name="205bmp" color="6" fill="10" visible="yes" active="yes"/>
<layer number="206" name="206bmp" color="7" fill="10" visible="yes" active="yes"/>
<layer number="207" name="207bmp" color="8" fill="10" visible="yes" active="yes"/>
<layer number="208" name="208bmp" color="9" fill="10" visible="yes" active="yes"/>
<layer number="209" name="209bmp" color="7" fill="1" visible="yes" active="yes"/>
<layer number="210" name="210bmp" color="7" fill="1" visible="yes" active="yes"/>
<layer number="211" name="211bmp" color="7" fill="1" visible="yes" active="yes"/>
<layer number="212" name="212bmp" color="7" fill="1" visible="yes" active="yes"/>
<layer number="213" name="213bmp" color="7" fill="1" visible="yes" active="yes"/>
<layer number="214" name="214bmp" color="7" fill="1" visible="yes" active="yes"/>
<layer number="215" name="215bmp" color="7" fill="1" visible="yes" active="yes"/>
<layer number="216" name="216bmp" color="7" fill="1" visible="yes" active="yes"/>
<layer number="217" name="217bmp" color="18" fill="1" visible="no" active="no"/>
<layer number="218" name="218bmp" color="19" fill="1" visible="no" active="no"/>
<layer number="219" name="219bmp" color="20" fill="1" visible="no" active="no"/>
<layer number="220" name="220bmp" color="21" fill="1" visible="no" active="no"/>
<layer number="221" name="221bmp" color="22" fill="1" visible="no" active="no"/>
<layer number="222" name="222bmp" color="23" fill="1" visible="no" active="no"/>
<layer number="223" name="223bmp" color="24" fill="1" visible="no" active="no"/>
<layer number="224" name="224bmp" color="25" fill="1" visible="no" active="no"/>
<layer number="248" name="Housing" color="7" fill="1" visible="yes" active="yes"/>
<layer number="249" name="Edge" color="7" fill="1" visible="yes" active="yes"/>
<layer number="250" name="Descript" color="3" fill="1" visible="no" active="no"/>
<layer number="251" name="SMDround" color="12" fill="11" visible="no" active="no"/>
<layer number="254" name="cooling" color="7" fill="1" visible="yes" active="yes"/>
</layers>
<schematic xreflabel="%F%N/%S.%C%R" xrefpart="/%S.%C%R">
<libraries>
<library name="holes">
<description>&lt;b&gt;Mounting Holes and Pads&lt;/b&gt;&lt;p&gt;
&lt;author&gt;Created by librarian@cadsoft.de&lt;/author&gt;</description>
<packages>
<package name="2,8-PAD">
<description>&lt;b&gt;MOUNTING PAD&lt;/b&gt; 2.8 mm, round</description>
<wire x1="0" y1="2.921" x2="0" y2="2.667" width="0.0508" layer="21"/>
<wire x1="0" y1="-2.667" x2="0" y2="-2.921" width="0.0508" layer="21"/>
<wire x1="-1.778" y1="0" x2="0" y2="-1.778" width="2.286" layer="51" curve="90" cap="flat"/>
<wire x1="0" y1="1.778" x2="1.778" y2="0" width="2.286" layer="51" curve="-90" cap="flat"/>
<circle x="0" y="0" radius="0.635" width="0.4572" layer="51"/>
<circle x="0" y="0" radius="2.921" width="0.1524" layer="21"/>
<circle x="0" y="0" radius="3.175" width="0.8128" layer="39"/>
<circle x="0" y="0" radius="3.175" width="0.8128" layer="40"/>
<circle x="0" y="0" radius="3.175" width="0.8128" layer="43"/>
<circle x="0" y="0" radius="1.5" width="0.2032" layer="21"/>
<pad name="B2,8" x="0" y="0" drill="2.8" diameter="5.334"/>
</package>
<package name="3,0-PAD">
<description>&lt;b&gt;MOUNTING PAD&lt;/b&gt; 3.0 mm, round</description>
<wire x1="-2.159" y1="0" x2="0" y2="-2.159" width="2.4892" layer="51" curve="90" cap="flat"/>
<wire x1="0" y1="2.159" x2="2.159" y2="0" width="2.4892" layer="51" curve="-90" cap="flat"/>
<circle x="0" y="0" radius="3.429" width="0.1524" layer="21"/>
<circle x="0" y="0" radius="0.762" width="0.4572" layer="51"/>
<circle x="0" y="0" radius="3.556" width="1.016" layer="39"/>
<circle x="0" y="0" radius="3.556" width="1.016" layer="40"/>
<circle x="0" y="0" radius="3.556" width="1.016" layer="43"/>
<circle x="0" y="0" radius="1.6" width="0.2032" layer="21"/>
<pad name="B3,0" x="0" y="0" drill="3" diameter="5.842"/>
<text x="-1.27" y="-3.81" size="1.27" layer="48">3,0</text>
</package>
<package name="3,2-PAD">
<description>&lt;b&gt;MOUNTING PAD&lt;/b&gt; 3.2 mm, round</description>
<wire x1="-2.159" y1="0" x2="0" y2="-2.159" width="2.4892" layer="51" curve="90" cap="flat"/>
<wire x1="0" y1="2.159" x2="2.159" y2="0" width="2.4892" layer="51" curve="-90" cap="flat"/>
<circle x="0" y="0" radius="3.429" width="0.1524" layer="21"/>
<circle x="0" y="0" radius="0.762" width="0.4572" layer="51"/>
<circle x="0" y="0" radius="3.683" width="1.27" layer="39"/>
<circle x="0" y="0" radius="3.683" width="1.27" layer="40"/>
<circle x="0" y="0" radius="3.556" width="1.016" layer="43"/>
<circle x="0" y="0" radius="1.7" width="0.1524" layer="21"/>
<pad name="B3,2" x="0" y="0" drill="3.2" diameter="5.842"/>
<text x="-1.27" y="-3.81" size="1.27" layer="48">3,2</text>
</package>
<package name="3,3-PAD">
<description>&lt;b&gt;MOUNTING PAD&lt;/b&gt; 3.3 mm, round</description>
<wire x1="-2.159" y1="0" x2="0" y2="-2.159" width="2.4892" layer="51" curve="90" cap="flat"/>
<wire x1="0" y1="2.159" x2="2.159" y2="0" width="2.4892" layer="51" curve="-90" cap="flat"/>
<circle x="0" y="0" radius="3.429" width="0.1524" layer="21"/>
<circle x="0" y="0" radius="0.762" width="0.4572" layer="51"/>
<circle x="0" y="0" radius="3.683" width="1.27" layer="39"/>
<circle x="0" y="0" radius="3.683" width="1.27" layer="40"/>
<circle x="0" y="0" radius="3.556" width="1.016" layer="43"/>
<circle x="0" y="0" radius="1.7" width="0.2032" layer="21"/>
<pad name="B3,3" x="0" y="0" drill="3.3" diameter="5.842"/>
</package>
<package name="3,6-PAD">
<description>&lt;b&gt;MOUNTING PAD&lt;/b&gt; 3.6 mm, round</description>
<wire x1="-2.159" y1="0" x2="0" y2="-2.159" width="2.4892" layer="51" curve="90" cap="flat"/>
<wire x1="0" y1="2.159" x2="2.159" y2="0" width="2.4892" layer="51" curve="-90" cap="flat"/>
<circle x="0" y="0" radius="3.429" width="0.1524" layer="21"/>
<circle x="0" y="0" radius="0.762" width="0.4572" layer="51"/>
<circle x="0" y="0" radius="3.683" width="1.397" layer="39"/>
<circle x="0" y="0" radius="3.683" width="1.397" layer="40"/>
<circle x="0" y="0" radius="3.556" width="1.016" layer="43"/>
<circle x="0" y="0" radius="1.9" width="0.2032" layer="21"/>
<pad name="B3,6" x="0" y="0" drill="3.6" diameter="5.842"/>
</package>
<package name="4,1-PAD">
<description>&lt;b&gt;MOUNTING PAD&lt;/b&gt; 4.1 mm, round</description>
<wire x1="-2.54" y1="0" x2="0" y2="-2.54" width="3.9116" layer="51" curve="90" cap="flat"/>
<wire x1="0" y1="2.54" x2="2.54" y2="0" width="3.9116" layer="51" curve="-90" cap="flat"/>
<circle x="0" y="0" radius="0.762" width="0.4572" layer="51"/>
<circle x="0" y="0" radius="4.572" width="0.1524" layer="21"/>
<circle x="0" y="0" radius="5.08" width="2" layer="43"/>
<circle x="0" y="0" radius="2.15" width="0.2032" layer="21"/>
<pad name="B4,1" x="0" y="0" drill="4.1" diameter="8"/>
</package>
<package name="4,3-PAD">
<description>&lt;b&gt;MOUNTING PAD&lt;/b&gt; 4.3 mm, round</description>
<wire x1="-2.54" y1="0" x2="0" y2="-2.54" width="3.9116" layer="51" curve="90" cap="flat"/>
<wire x1="0" y1="2.54" x2="2.54" y2="0" width="3.9116" layer="51" curve="-90" cap="flat"/>
<circle x="0" y="0" radius="4.4958" width="0.1524" layer="51"/>
<circle x="0" y="0" radius="0.762" width="0.4572" layer="51"/>
<circle x="0" y="0" radius="5.588" width="2" layer="43"/>
<circle x="0" y="0" radius="5.588" width="2" layer="39"/>
<circle x="0" y="0" radius="5.588" width="2" layer="40"/>
<circle x="0" y="0" radius="2.25" width="0.1524" layer="21"/>
<pad name="B4,3" x="0" y="0" drill="4.3" diameter="9"/>
</package>
<package name="4,5-PAD">
<description>&lt;b&gt;MOUNTING PAD&lt;/b&gt; 4.5 mm, round</description>
<wire x1="-2.54" y1="0" x2="0" y2="-2.54" width="3.9116" layer="51" curve="90" cap="flat"/>
<wire x1="0" y1="2.54" x2="2.54" y2="0" width="3.9116" layer="51" curve="-90" cap="flat"/>
<circle x="0" y="0" radius="4.4958" width="0.1524" layer="51"/>
<circle x="0" y="0" radius="0.762" width="0.4572" layer="51"/>
<circle x="0" y="0" radius="5.588" width="2" layer="43"/>
<circle x="0" y="0" radius="5.588" width="2" layer="39"/>
<circle x="0" y="0" radius="5.588" width="2" layer="40"/>
<circle x="0" y="0" radius="2.35" width="0.1524" layer="21"/>
<pad name="B4,5" x="0" y="0" drill="4.5" diameter="9"/>
</package>
<package name="5,0-PAD">
<description>&lt;b&gt;MOUNTING PAD&lt;/b&gt; 5.0 mm, round</description>
<wire x1="-2.54" y1="0" x2="0" y2="-2.54" width="3.9116" layer="51" curve="90" cap="flat"/>
<wire x1="0" y1="2.54" x2="2.54" y2="0" width="3.9116" layer="51" curve="-90" cap="flat"/>
<circle x="0" y="0" radius="4.4958" width="0.1524" layer="51"/>
<circle x="0" y="0" radius="0.762" width="0.4572" layer="51"/>
<circle x="0" y="0" radius="5.588" width="2" layer="43"/>
<circle x="0" y="0" radius="5.588" width="2" layer="39"/>
<circle x="0" y="0" radius="5.588" width="2" layer="40"/>
<circle x="0" y="0" radius="2.6" width="0.1524" layer="21"/>
<pad name="B5" x="0" y="0" drill="5" diameter="9"/>
</package>
<package name="5,5-PAD">
<description>&lt;b&gt;MOUNTING PAD&lt;/b&gt; 5.5 mm, round</description>
<wire x1="-2.54" y1="0" x2="0" y2="-2.54" width="3.9116" layer="51" curve="90" cap="flat"/>
<wire x1="0" y1="2.54" x2="2.54" y2="0" width="3.9116" layer="51" curve="-90" cap="flat"/>
<circle x="0" y="0" radius="4.4958" width="0.1524" layer="51"/>
<circle x="0" y="0" radius="0.762" width="0.4572" layer="51"/>
<circle x="0" y="0" radius="5.588" width="2" layer="43"/>
<circle x="0" y="0" radius="5.588" width="2" layer="39"/>
<circle x="0" y="0" radius="5.588" width="2" layer="40"/>
<circle x="0" y="0" radius="2.85" width="0.1524" layer="21"/>
<pad name="B5,5" x="0" y="0" drill="5.5" diameter="9"/>
</package>
</packages>
<symbols>
<symbol name="MOUNT-PAD">
<wire x1="0.254" y1="2.032" x2="2.032" y2="0.254" width="1.016" layer="94" curve="-75.749967" cap="flat"/>
<wire x1="-2.032" y1="0.254" x2="-0.254" y2="2.032" width="1.016" layer="94" curve="-75.749967" cap="flat"/>
<wire x1="-2.032" y1="-0.254" x2="-0.254" y2="-2.032" width="1.016" layer="94" curve="75.749967" cap="flat"/>
<wire x1="0.254" y1="-2.032" x2="2.032" y2="-0.254" width="1.016" layer="94" curve="75.749967" cap="flat"/>
<circle x="0" y="0" radius="1.524" width="0.0508" layer="94"/>
<text x="2.794" y="0.5842" size="1.778" layer="95">&gt;NAME</text>
<text x="2.794" y="-2.4638" size="1.778" layer="96">&gt;VALUE</text>
<pin name="MOUNT" x="-2.54" y="0" visible="off" length="short" direction="pas"/>
</symbol>
</symbols>
<devicesets>
<deviceset name="MOUNT-PAD-ROUND" prefix="H">
<description>&lt;b&gt;MOUNTING PAD&lt;/b&gt;, round</description>
<gates>
<gate name="G$1" symbol="MOUNT-PAD" x="0" y="0"/>
</gates>
<devices>
<device name="2.8" package="2,8-PAD">
<connects>
<connect gate="G$1" pin="MOUNT" pad="B2,8"/>
</connects>
<technologies>
<technology name=""/>
</technologies>
</device>
<device name="3.0" package="3,0-PAD">
<connects>
<connect gate="G$1" pin="MOUNT" pad="B3,0"/>
</connects>
<technologies>
<technology name=""/>
</technologies>
</device>
<device name="3.2" package="3,2-PAD">
<connects>
<connect gate="G$1" pin="MOUNT" pad="B3,2"/>
</connects>
<technologies>
<technology name=""/>
</technologies>
</device>
<device name="3.3" package="3,3-PAD">
<connects>
<connect gate="G$1" pin="MOUNT" pad="B3,3"/>
</connects>
<technologies>
<technology name=""/>
</technologies>
</device>
<device name="3.6" package="3,6-PAD">
<connects>
<connect gate="G$1" pin="MOUNT" pad="B3,6"/>
</connects>
<technologies>
<technology name=""/>
</technologies>
</device>
<device name="4.1" package="4,1-PAD">
<connects>
<connect gate="G$1" pin="MOUNT" pad="B4,1"/>
</connects>
<technologies>
<technology name=""/>
</technologies>
</device>
<device name="4.3" package="4,3-PAD">
<connects>
<connect gate="G$1" pin="MOUNT" pad="B4,3"/>
</connects>
<technologies>
<technology name=""/>
</technologies>
</device>
<device name="4.5" package="4,5-PAD">
<connects>
<connect gate="G$1" pin="MOUNT" pad="B4,5"/>
</connects>
<technologies>
<technology name=""/>
</technologies>
</device>
<device name="5.0" package="5,0-PAD">
<connects>
<connect gate="G$1" pin="MOUNT" pad="B5"/>
</connects>
<technologies>
<technology name=""/>
</technologies>
</device>
<device name="5.5" package="5,5-PAD">
<connects>
<connect gate="G$1" pin="MOUNT" pad="B5,5"/>
</connects>
<technologies>
<technology name=""/>
</technologies>
</device>
</devices>
</deviceset>
</devicesets>
</library>
<library name="dan-rcl">
<packages>
<package name="0402">
<description>&lt;b&gt;0402&lt;/b&gt;
&lt;p&gt;From Panasonic ERJ-2RKF1000X Recommended Land Patterns: http://industrial.panasonic.com/www-data/pdf/AOA0000/AOA0000PE32.pdf&lt;/p&gt;
&lt;p&gt;Can fit one 8-mil (0.2032mm) trace between pads&lt;/p&gt;</description>
<smd name="2" x="0.6548" y="0" dx="0.7" dy="0.6" layer="1"/>
<smd name="1" x="-0.6548" y="0" dx="0.7" dy="0.6" layer="1"/>
<text x="1.27" y="-0.635" size="1.016" layer="25" font="vector" ratio="20">&gt;NAME</text>
<rectangle x1="-0.3048" y1="-0.25" x2="0.3048" y2="-0.0468" layer="21"/>
<rectangle x1="-0.525" y1="-0.275" x2="-0.15" y2="0.275" layer="51"/>
<rectangle x1="0.15" y1="-0.275" x2="0.525" y2="0.275" layer="51" rot="R180"/>
<rectangle x1="-0.3048" y1="0.0468" x2="0.3048" y2="0.25" layer="21" rot="R180"/>
</package>
<package name="0603">
<description>&lt;b&gt;0603&lt;/b&gt;
&lt;p&gt;From Panasonic ERJ-2RKF1000X Recommended Land Patterns: http://industrial.panasonic.com/www-data/pdf/AOA0000/AOA0000PE32.pdf&lt;/p&gt;
&lt;p&gt;Can fit two 6.25-mil (0.15875mm) traces between pads (on 0.00625 grid)&lt;/p&gt;</description>
<smd name="2" x="0.725" y="0" dx="0.55" dy="1" layer="1"/>
<smd name="1" x="-0.725" y="0" dx="0.55" dy="1" layer="1"/>
<text x="1.27" y="-0.635" size="1.016" layer="25" font="vector" ratio="20">&gt;NAME</text>
<rectangle x1="-0.45" y1="-0.4" x2="0.45" y2="-0.1968" layer="21"/>
<rectangle x1="-0.825" y1="-0.425" x2="-0.4" y2="0.425" layer="51"/>
<rectangle x1="0.4" y1="-0.425" x2="0.825" y2="0.425" layer="51" rot="R180"/>
<rectangle x1="-0.45" y1="0.1968" x2="0.45" y2="0.4" layer="21" rot="R180"/>
</package>
<package name="0805">
<description>&lt;b&gt;0805&lt;/b&gt;
&lt;p&gt;From Panasonic ERJ-2RKF1000X Recommended Land Patterns: http://industrial.panasonic.com/www-data/pdf/AOA0000/AOA0000PE32.pdf&lt;/p&gt;
&lt;p&gt;Can fit three 6.25-mil (0.15875mm) traces between pads (on 0.00625 grid)&lt;/p&gt;</description>
<smd name="2" x="1.1" y="0" dx="0.9" dy="1.4" layer="1"/>
<smd name="1" x="-1.1" y="0" dx="0.9" dy="1.4" layer="1"/>
<text x="1.905" y="-0.635" size="1.016" layer="25" font="vector" ratio="20">&gt;NAME</text>
<rectangle x1="-0.65" y1="-0.625" x2="0.65" y2="-0.4218" layer="21"/>
<rectangle x1="-1.025" y1="-0.65" x2="-0.475" y2="0.65" layer="51"/>
<rectangle x1="0.475" y1="-0.65" x2="1.025" y2="0.65" layer="51" rot="R180"/>
<rectangle x1="-0.65" y1="0.4218" x2="0.65" y2="0.625" layer="21" rot="R180"/>
</package>
<package name="1206">
<description>&lt;b&gt;1206&lt;/b&gt;
&lt;p&gt;From Panasonic ERJ-2RKF1000X Recommended Land Patterns: http://industrial.panasonic.com/www-data/pdf/AOA0000/AOA0000PE32.pdf&lt;/p&gt;
&lt;p&gt;Can fit six 6.25-mil (0.15875mm) traces between pads (on 0.00625 grid)&lt;/p&gt;</description>
<smd name="1" x="-1.65" y="0" dx="1.1" dy="1.8" layer="1"/>
<smd name="2" x="1.65" y="0" dx="1.1" dy="1.8" layer="1" rot="R180"/>
<text x="3.175" y="-0.635" size="1.016" layer="25" font="vector" ratio="20">&gt;NAME</text>
<rectangle x1="-1.1" y1="-0.8" x2="1.1" y2="-0.5968" layer="21"/>
<rectangle x1="-1.625" y1="-0.825" x2="-1" y2="0.825" layer="51"/>
<rectangle x1="1" y1="-0.825" x2="1.625" y2="0.825" layer="51" rot="R180"/>
<rectangle x1="-1.1" y1="0.5968" x2="1.1" y2="0.8" layer="21" rot="R180"/>
</package>
<package name="1206H">
<description>&lt;b&gt;High-power 1206&lt;/b&gt;
&lt;p&gt;From Panasonic ERJ-2RKF1000X Recommended Land Patterns: http://industrial.panasonic.com/www-data/pdf/AOA0000/AOA0000PE32.pdf&lt;/p&gt;
&lt;p&gt;Can fit three 6.25-mil (0.15875mm) trace between pads (on 0.00625 grid)&lt;/p&gt;</description>
<smd name="1" x="-1.55" y="0" dx="1.9" dy="1.8" layer="1"/>
<smd name="2" x="1.55" y="0" dx="1.9" dy="1.8" layer="1" rot="R180"/>
<text x="3.175" y="-0.635" size="1.016" layer="25" font="vector" ratio="20">&gt;NAME</text>
<rectangle x1="-1.625" y1="-0.825" x2="-1" y2="0.825" layer="51"/>
<rectangle x1="1" y1="-0.825" x2="1.625" y2="0.825" layer="51" rot="R180"/>
<rectangle x1="-0.6" y1="0.5968" x2="0.6" y2="0.8" layer="21" rot="R180"/>
<rectangle x1="-0.6" y1="-0.8" x2="0.6" y2="-0.5968" layer="21"/>
</package>
</packages>
<symbols>
<symbol name="FERRITE">
<wire x1="0" y1="1.016" x2="0.508" y2="0" width="0.254" layer="94"/>
<wire x1="0.508" y1="0" x2="1.016" y2="-1.016" width="0.254" layer="94"/>
<wire x1="1.016" y1="-1.016" x2="2.54" y2="-1.016" width="0.254" layer="94"/>
<wire x1="2.54" y1="-1.016" x2="2.032" y2="0" width="0.254" layer="94"/>
<wire x1="2.032" y1="0" x2="1.524" y2="1.016" width="0.254" layer="94"/>
<wire x1="1.524" y1="1.016" x2="0" y2="1.016" width="0.254" layer="94"/>
<wire x1="0" y1="0" x2="0.508" y2="0" width="0.1524" layer="94"/>
<wire x1="2.54" y1="0" x2="2.032" y2="0" width="0.1524" layer="94"/>
<text x="2.794" y="1.524" size="1.27" layer="95" rot="MR180">&gt;NAME</text>
<text x="-0.254" y="1.524" size="1.27" layer="96" rot="R180">&gt;VALUE</text>
<pin name="2" x="5.08" y="0" visible="off" length="short" direction="pas" swaplevel="1" rot="R180"/>
<pin name="1" x="-2.54" y="0" visible="off" length="short" direction="pas" swaplevel="1"/>
</symbol>
</symbols>
<devicesets>
<deviceset name="FERRITE" prefix="FB" uservalue="yes">
<description>&lt;b&gt;Ferrite Bead&lt;/b&gt;</description>
<gates>
<gate name="G$1" symbol="FERRITE" x="0" y="0"/>
</gates>
<devices>
<device name="0402" package="0402">
<connects>
<connect gate="G$1" pin="1" pad="1"/>
<connect gate="G$1" pin="2" pad="2"/>
</connects>
<technologies>
<technology name=""/>
</technologies>
</device>
<device name="0603" package="0603">
<connects>
<connect gate="G$1" pin="1" pad="1"/>
<connect gate="G$1" pin="2" pad="2"/>
</connects>
<technologies>
<technology name=""/>
</technologies>
</device>
<device name="0805" package="0805">
<connects>
<connect gate="G$1" pin="1" pad="1"/>
<connect gate="G$1" pin="2" pad="2"/>
</connects>
<technologies>
<technology name=""/>
</technologies>
</device>
<device name="1206" package="1206">
<connects>
<connect gate="G$1" pin="1" pad="1"/>
<connect gate="G$1" pin="2" pad="2"/>
</connects>
<technologies>
<technology name=""/>
</technologies>
</device>
<device name="1206H" package="1206H">
<connects>
<connect gate="G$1" pin="1" pad="1"/>
<connect gate="G$1" pin="2" pad="2"/>
</connects>
<technologies>
<technology name=""/>
</technologies>
</device>
</devices>
</deviceset>
</devicesets>
</library>
<library name="trigger-simple">
<packages>
<package name="SOIC16">
<description>SOIC-16, 1.27mm pitch, 6.2mm width, 10.0mm length</description>
<wire x1="-4.445" y1="0.3175" x2="-4.445" y2="0" width="0.127" layer="21"/>
<wire x1="-4.445" y1="0" x2="-4.445" y2="-1.4605" width="0.127" layer="21"/>
<wire x1="-4.445" y1="-1.4605" x2="5.715" y2="-1.4605" width="0.127" layer="21"/>
<wire x1="5.715" y1="-1.4605" x2="5.715" y2="1.4605" width="0.127" layer="21"/>
<wire x1="5.715" y1="1.4605" x2="-4.445" y2="1.4605" width="0.127" layer="21"/>
<wire x1="-4.445" y1="1.4605" x2="-4.445" y2="0" width="0.127" layer="21"/>
<circle x="-3.81" y="-0.9525" radius="0.3175" width="0.127" layer="21"/>
<smd name="1" x="-3.81" y="-2.54" dx="0.6" dy="1.8" layer="1"/>
<smd name="2" x="-2.54" y="-2.54" dx="0.6" dy="1.8" layer="1"/>
<smd name="3" x="-1.27" y="-2.54" dx="0.6" dy="1.8" layer="1"/>
<smd name="4" x="0" y="-2.54" dx="0.6" dy="1.8" layer="1"/>
<smd name="5" x="1.27" y="-2.54" dx="0.6" dy="1.8" layer="1"/>
<smd name="6" x="2.54" y="-2.54" dx="0.6" dy="1.8" layer="1"/>
<smd name="7" x="3.81" y="-2.54" dx="0.6" dy="1.8" layer="1"/>
<smd name="10" x="3.81" y="2.54" dx="0.6" dy="1.8" layer="1"/>
<smd name="11" x="2.54" y="2.54" dx="0.6" dy="1.8" layer="1"/>
<smd name="12" x="1.27" y="2.54" dx="0.6" dy="1.8" layer="1"/>
<smd name="13" x="0" y="2.54" dx="0.6" dy="1.8" layer="1"/>
<smd name="14" x="-1.27" y="2.54" dx="0.6" dy="1.8" layer="1"/>
<smd name="15" x="-2.54" y="2.54" dx="0.6" dy="1.8" layer="1"/>
<smd name="16" x="-3.81" y="2.54" dx="0.6" dy="1.8" layer="1"/>
<smd name="9" x="5.08" y="2.54" dx="0.6" dy="1.8" layer="1"/>
<smd name="8" x="5.08" y="-2.54" dx="0.6" dy="1.8" layer="1"/>
<text x="8.255" y="-1.5875" size="1.27" layer="25" rot="R90">&gt;NAME</text>
</package>
<package name="SCREWTERMINAL-2.5MM-8">
<pad name="8" x="0" y="0" drill="1" shape="square"/>
<pad name="6" x="5" y="0" drill="1" shape="square"/>
<pad name="4" x="10" y="0" drill="1" shape="square"/>
<pad name="2" x="15" y="0" drill="1" shape="square"/>
<pad name="7" x="2.5" y="-5" drill="1" shape="square"/>
<pad name="5" x="7.5" y="-5" drill="1" shape="square"/>
<pad name="3" x="12.5" y="-5" drill="1" shape="square"/>
<pad name="1" x="17.5" y="-5" drill="1" shape="square"/>
<wire x1="-2.75" y1="2.3" x2="18.75" y2="2.3" width="0.127" layer="51"/>
<wire x1="18.75" y1="2.3" x2="18.75" y2="-9.7" width="0.127" layer="51"/>
<wire x1="18.75" y1="-9.7" x2="-2.75" y2="-9.7" width="0.127" layer="51"/>
<wire x1="-2.75" y1="-9.7" x2="-2.75" y2="2.3" width="0.127" layer="51"/>
<wire x1="-3" y1="2.55" x2="19" y2="2.55" width="0.127" layer="21"/>
<wire x1="19" y1="2.55" x2="19" y2="-10" width="0.127" layer="21"/>
<wire x1="19" y1="-10" x2="-3" y2="-10" width="0.127" layer="21"/>
<wire x1="-3" y1="-10" x2="-3" y2="2.55" width="0.127" layer="21"/>
<text x="17.3" y="-3.15" size="1.27" layer="21">1</text>
<text x="14.65" y="-3.15" size="1.27" layer="21">2</text>
<text x="12.2" y="-3.15" size="1.27" layer="21">3</text>
<text x="9.65" y="-3.15" size="1.27" layer="21">4</text>
<text x="7.15" y="-3.15" size="1.27" layer="21">5</text>
<text x="4.6" y="-3.15" size="1.27" layer="21">6</text>
<text x="2.3" y="-3.15" size="1.27" layer="21">7</text>
<text x="-0.5" y="-3.15" size="1.27" layer="21">8</text>
<text x="-3.7" y="-9.4" size="1.27" layer="25" rot="R90">&gt;Name</text>
</package>
<package name="CAP-PTH-SMALL">
<wire x1="1.27" y1="0.635" x2="1.27" y2="-0.635" width="0.2032" layer="21"/>
<pad name="1" x="0" y="0" drill="0.7" diameter="1.651"/>
<pad name="2" x="2.54" y="0" drill="0.7" diameter="1.651"/>
<text x="0.508" y="1.27" size="0.4064" layer="25">&gt;Name</text>
<text x="0.254" y="-1.524" size="0.4064" layer="27">&gt;Value</text>
</package>
<package name="CAP-PTH-SMALL2">
<wire x1="1.27" y1="0.635" x2="1.27" y2="-0.635" width="0.2032" layer="21"/>
<wire x1="-1.27" y1="1.27" x2="3.81" y2="1.27" width="0.2032" layer="21"/>
<wire x1="3.81" y1="1.27" x2="3.81" y2="-1.27" width="0.2032" layer="21"/>
<wire x1="3.81" y1="-1.27" x2="-1.27" y2="-1.27" width="0.2032" layer="21"/>
<wire x1="-1.27" y1="-1.27" x2="-1.27" y2="1.27" width="0.2032" layer="21"/>
<pad name="1" x="0" y="0" drill="0.7" diameter="1.651"/>
<pad name="2" x="2.54" y="0" drill="0.7" diameter="1.651"/>
<text x="-1.27" y="1.905" size="0.6096" layer="25">&gt;Name</text>
<text x="-1.27" y="-2.54" size="0.6096" layer="27">&gt;Value</text>
</package>
<package name="0805">
<wire x1="-0.3" y1="0.6" x2="0.3" y2="0.6" width="0.1524" layer="21"/>
<wire x1="-0.3" y1="-0.6" x2="0.3" y2="-0.6" width="0.1524" layer="21"/>
<smd name="1" x="-0.9" y="0" dx="0.8" dy="1.2" layer="1"/>
<smd name="2" x="0.9" y="0" dx="0.8" dy="1.2" layer="1"/>
<text x="-0.762" y="0.8255" size="0.4064" layer="25">&gt;NAME</text>
</package>
<package name="CAP-PTH-LARGE">
<wire x1="0" y1="0.635" x2="0" y2="0" width="0.2032" layer="21"/>
<wire x1="0" y1="0" x2="0" y2="-0.635" width="0.2032" layer="21"/>
<wire x1="0" y1="0" x2="-2.54" y2="0" width="0.2032" layer="21"/>
<wire x1="0" y1="0" x2="2.54" y2="0" width="0.2032" layer="21"/>
<pad name="1" x="-4.826" y="0" drill="0.9" diameter="1.905"/>
<pad name="2" x="4.572" y="0" drill="0.9" diameter="1.905"/>
<text x="-0.762" y="1.27" size="0.4064" layer="25">&gt;Name</text>
<text x="-1.016" y="-1.524" size="0.4064" layer="27">&gt;Value</text>
</package>
<package name="GRM43D">
<wire x1="2.25" y1="1.6" x2="1.1" y2="1.6" width="0.127" layer="51"/>
<wire x1="1.1" y1="1.6" x2="-1.1" y2="1.6" width="0.127" layer="51"/>
<wire x1="-1.1" y1="1.6" x2="-2.25" y2="1.6" width="0.127" layer="51"/>
<wire x1="-2.25" y1="1.6" x2="-2.25" y2="-1.6" width="0.127" layer="51"/>
<wire x1="-2.25" y1="-1.6" x2="-1.1" y2="-1.6" width="0.127" layer="51"/>
<wire x1="-1.1" y1="-1.6" x2="1.1" y2="-1.6" width="0.127" layer="51"/>
<wire x1="1.1" y1="-1.6" x2="2.25" y2="-1.6" width="0.127" layer="51"/>
<wire x1="2.25" y1="-1.6" x2="2.25" y2="1.6" width="0.127" layer="51"/>
<wire x1="1.1" y1="1.6" x2="1.1" y2="-1.6" width="0.127" layer="51"/>
<wire x1="-1.1" y1="1.6" x2="-1.1" y2="-1.6" width="0.127" layer="51"/>
<wire x1="-2.3" y1="1.8" x2="2.3" y2="1.8" width="0.127" layer="21"/>
<wire x1="-2.3" y1="-1.8" x2="2.3" y2="-1.8" width="0.127" layer="21"/>
<smd name="A" x="1.927" y="0" dx="3.2" dy="1.65" layer="1" rot="R90"/>
<smd name="C" x="-1.927" y="0" dx="3.2" dy="1.65" layer="1" rot="R90"/>
<text x="-2" y="2" size="0.4064" layer="25">&gt;NAME</text>
<text x="0" y="-2" size="0.4064" layer="27" rot="R180">&gt;VALUE</text>
<rectangle x1="-2.2" y1="-1.6" x2="-1.1" y2="1.6" layer="51"/>
<rectangle x1="1.1" y1="-1.6" x2="2.2" y2="1.6" layer="51"/>
</package>
<package name="0603-CAP">
<wire x1="-1.473" y1="0.983" x2="1.473" y2="0.983" width="0.0508" layer="39"/>
<wire x1="1.473" y1="0.983" x2="1.473" y2="-0.983" width="0.0508" layer="39"/>
<wire x1="1.473" y1="-0.983" x2="-1.473" y2="-0.983" width="0.0508" layer="39"/>
<wire x1="-1.473" y1="-0.983" x2="-1.473" y2="0.983" width="0.0508" layer="39"/>
<wire x1="-0.356" y1="0.432" x2="0.356" y2="0.432" width="0.1016" layer="51"/>
<wire x1="-0.356" y1="-0.419" x2="0.356" y2="-0.419" width="0.1016" layer="51"/>
<wire x1="0" y1="0.0305" x2="0" y2="-0.0305" width="0.5588" layer="21"/>
<smd name="1" x="-0.85" y="0" dx="1.1" dy="1" layer="1"/>
<smd name="2" x="0.85" y="0" dx="1.1" dy="1" layer="1"/>
<text x="-0.889" y="0.762" size="0.4064" layer="25" font="vector">&gt;NAME</text>
<text x="-1.016" y="-1.143" size="0.4064" layer="27" font="vector">&gt;VALUE</text>
<rectangle x1="-0.8382" y1="-0.4699" x2="-0.3381" y2="0.4801" layer="51"/>
<rectangle x1="0.3302" y1="-0.4699" x2="0.8303" y2="0.4801" layer="51"/>
<rectangle x1="-0.1999" y1="-0.3" x2="0.1999" y2="0.3" layer="35"/>
</package>
<package name="0402-CAP">
<description>&lt;b&gt;CAPACITOR&lt;/b&gt;&lt;p&gt;
chip</description>
<wire x1="-0.245" y1="0.224" x2="0.245" y2="0.224" width="0.1524" layer="51"/>
<wire x1="0.245" y1="-0.224" x2="-0.245" y2="-0.224" width="0.1524" layer="51"/>
<wire x1="-1.473" y1="0.483" x2="1.473" y2="0.483" width="0.0508" layer="39"/>
<wire x1="1.473" y1="0.483" x2="1.473" y2="-0.483" width="0.0508" layer="39"/>
<wire x1="1.473" y1="-0.483" x2="-1.473" y2="-0.483" width="0.0508" layer="39"/>
<wire x1="-1.473" y1="-0.483" x2="-1.473" y2="0.483" width="0.0508" layer="39"/>
<wire x1="0" y1="0.0305" x2="0" y2="-0.0305" width="0.4064" layer="21"/>
<smd name="1" x="-0.65" y="0" dx="0.7" dy="0.9" layer="1"/>
<smd name="2" x="0.65" y="0" dx="0.7" dy="0.9" layer="1"/>
<text x="-0.889" y="0.6985" size="0.4064" layer="25">&gt;NAME</text>
<text x="-1.0795" y="-1.143" size="0.4064" layer="27">&gt;VALUE</text>
<rectangle x1="-0.554" y1="-0.3048" x2="-0.254" y2="0.2951" layer="51"/>
<rectangle x1="0.2588" y1="-0.3048" x2="0.5588" y2="0.2951" layer="51"/>
<rectangle x1="-0.1999" y1="-0.3" x2="0.1999" y2="0.3" layer="35"/>
</package>
<package name="CAP-PTH-5MM">
<wire x1="0" y1="0.635" x2="0" y2="-0.635" width="0.2032" layer="21"/>
<pad name="1" x="-2.5" y="0" drill="0.7" diameter="1.651"/>
<pad name="2" x="2.5" y="0" drill="0.7" diameter="1.651"/>
<text x="-0.762" y="1.27" size="0.4064" layer="25">&gt;Name</text>
<text x="-1.016" y="-1.524" size="0.4064" layer="27">&gt;Value</text>
</package>
<package name="AXIAL-5MM">
<wire x1="-1.14" y1="0.762" x2="1.14" y2="0.762" width="0.2032" layer="21"/>
<wire x1="1.14" y1="0.762" x2="1.14" y2="0" width="0.2032" layer="21"/>
<wire x1="1.14" y1="0" x2="1.14" y2="-0.762" width="0.2032" layer="21"/>
<wire x1="1.14" y1="-0.762" x2="-1.14" y2="-0.762" width="0.2032" layer="21"/>
<wire x1="-1.14" y1="-0.762" x2="-1.14" y2="0" width="0.2032" layer="21"/>
<wire x1="-1.14" y1="0" x2="-1.14" y2="0.762" width="0.2032" layer="21"/>
<wire x1="1.14" y1="0" x2="1.394" y2="0" width="0.2032" layer="21"/>
<wire x1="-1.14" y1="0" x2="-1.394" y2="0" width="0.2032" layer="21"/>
<pad name="P$1" x="-2.5" y="0" drill="0.9" diameter="1.8796"/>
<pad name="P$2" x="2.5" y="0" drill="0.9" diameter="1.8796"/>
<text x="-2.54" y="1.17" size="0.4" layer="25">&gt;Name</text>
<text x="-1.032" y="-0.208" size="0.4" layer="21" ratio="15">&gt;Value</text>
</package>
<package name="1210">
<wire x1="-1.6" y1="1.3" x2="1.6" y2="1.3" width="0.127" layer="51"/>
<wire x1="1.6" y1="1.3" x2="1.6" y2="-1.3" width="0.127" layer="51"/>
<wire x1="1.6" y1="-1.3" x2="-1.6" y2="-1.3" width="0.127" layer="51"/>
<wire x1="-1.6" y1="-1.3" x2="-1.6" y2="1.3" width="0.127" layer="51"/>
<wire x1="-1.6" y1="1.3" x2="1.6" y2="1.3" width="0.2032" layer="21"/>
<wire x1="-1.6" y1="-1.3" x2="1.6" y2="-1.3" width="0.2032" layer="21"/>
<smd name="1" x="-1.6" y="0" dx="1.2" dy="2" layer="1"/>
<smd name="2" x="1.6" y="0" dx="1.2" dy="2" layer="1"/>
<text x="-0.8" y="0.5" size="0.4064" layer="25">&gt;NAME</text>
<text x="-0.9" y="-0.7" size="0.4064" layer="27">&gt;VALUE</text>
</package>
<package name="1206">
<wire x1="-2.473" y1="0.983" x2="2.473" y2="0.983" width="0.0508" layer="39"/>
<wire x1="2.473" y1="-0.983" x2="-2.473" y2="-0.983" width="0.0508" layer="39"/>
<wire x1="-2.473" y1="-0.983" x2="-2.473" y2="0.983" width="0.0508" layer="39"/>
<wire x1="2.473" y1="0.983" x2="2.473" y2="-0.983" width="0.0508" layer="39"/>
<wire x1="-0.965" y1="0.787" x2="0.965" y2="0.787" width="0.1016" layer="51"/>
<wire x1="-0.965" y1="-0.787" x2="0.965" y2="-0.787" width="0.1016" layer="51"/>
<smd name="1" x="-1.4" y="0" dx="1.6" dy="1.8" layer="1"/>
<smd name="2" x="1.4" y="0" dx="1.6" dy="1.8" layer="1"/>
<text x="-1.27" y="1.143" size="0.4064" layer="25">&gt;NAME</text>
<text x="-1.397" y="-1.524" size="0.4064" layer="27">&gt;VALUE</text>
<rectangle x1="-1.7018" y1="-0.8509" x2="-0.9517" y2="0.8491" layer="51"/>
<rectangle x1="0.9517" y1="-0.8491" x2="1.7018" y2="0.8509" layer="51"/>
<rectangle x1="-0.1999" y1="-0.4001" x2="0.1999" y2="0.4001" layer="35"/>
</package>
<package name="CTZ3">
<description>CTZ3 Series land pattern for variable capacitor - CTZ3E-50C-W1-PF</description>
<wire x1="-1.6" y1="1.4" x2="-1.6" y2="-2.25" width="0.127" layer="51"/>
<wire x1="-1.6" y1="-2.25" x2="1.6" y2="-2.25" width="0.127" layer="51"/>
<wire x1="1.6" y1="1.4" x2="1.6" y2="-2.25" width="0.127" layer="51"/>
<wire x1="-0.5" y1="0" x2="0.5" y2="0" width="0.127" layer="51"/>
<wire x1="-1.6" y1="1.4" x2="-1" y2="2.2" width="0.127" layer="51"/>
<wire x1="1.6" y1="1.4" x2="1" y2="2.2" width="0.127" layer="51"/>
<wire x1="-1" y1="2.2" x2="1" y2="2.2" width="0.127" layer="51"/>
<wire x1="0" y1="0.8" x2="0" y2="-0.8" width="0.127" layer="51"/>
<wire x1="-0.8" y1="0" x2="0.8" y2="0" width="0.127" layer="51"/>
<wire x1="-1.05" y1="2.25" x2="-1.7" y2="1.45" width="0.127" layer="21"/>
<wire x1="-1.7" y1="1.45" x2="-1.7" y2="-2.35" width="0.127" layer="21"/>
<wire x1="-1.7" y1="-2.35" x2="-1.05" y2="-2.35" width="0.127" layer="21"/>
<wire x1="1.05" y1="2.25" x2="1.7" y2="1.4" width="0.127" layer="21"/>
<wire x1="1.7" y1="1.4" x2="1.7" y2="-2.35" width="0.127" layer="21"/>
<wire x1="1.7" y1="-2.35" x2="1.05" y2="-2.35" width="0.127" layer="21"/>
<smd name="+" x="0" y="2.05" dx="1.5" dy="1.2" layer="1"/>
<smd name="-" x="0" y="-2.05" dx="1.5" dy="1.2" layer="1"/>
<text x="-2" y="3" size="0.4064" layer="25">&gt;NAME</text>
<text x="-2" y="-3.4" size="0.4064" layer="27">&gt;VALUE</text>
</package>
<package name="CAP-PTH-SMALL-KIT">
<description>&lt;h3&gt;CAP-PTH-SMALL-KIT&lt;/h3&gt;
Commonly used for small ceramic capacitors. Like our 0.1uF (http://www.sparkfun.com/products/8375) or 22pF caps (http://www.sparkfun.com/products/8571).&lt;br&gt;
&lt;br&gt;
&lt;b&gt;Warning:&lt;/b&gt; This is the KIT version of this package. This package has a smaller diameter top stop mask, which doesn't cover the diameter of the pad. This means only the bottom side of the pads' copper will be exposed. You'll only be able to solder to the bottom side.</description>
<wire x1="0" y1="0.635" x2="0" y2="-0.635" width="0.254" layer="21"/>
<wire x1="-2.667" y1="1.27" x2="2.667" y2="1.27" width="0.254" layer="21"/>
<wire x1="2.667" y1="1.27" x2="2.667" y2="-1.27" width="0.254" layer="21"/>
<wire x1="2.667" y1="-1.27" x2="-2.667" y2="-1.27" width="0.254" layer="21"/>
<wire x1="-2.667" y1="-1.27" x2="-2.667" y2="1.27" width="0.254" layer="21"/>
<pad name="1" x="-1.397" y="0" drill="1.016" diameter="2.032" stop="no"/>
<pad name="2" x="1.397" y="0" drill="1.016" diameter="2.032" stop="no"/>
<polygon width="0.127" layer="30">
<vertex x="-1.4021" y="-0.9475" curve="-90"/>
<vertex x="-2.357" y="-0.0178" curve="-90.011749"/>
<vertex x="-1.4046" y="0.9576" curve="-90"/>
<vertex x="-0.4546" y="-0.0204" curve="-90.024193"/>
</polygon>
<polygon width="0.127" layer="29">
<vertex x="-1.4046" y="-0.4395" curve="-90.012891"/>
<vertex x="-1.8491" y="-0.0153" curve="-90"/>
<vertex x="-1.4046" y="0.452" curve="-90"/>
<vertex x="-0.9627" y="-0.0051" curve="-90.012967"/>
</polygon>
<polygon width="0.127" layer="30">
<vertex x="1.397" y="-0.9475" curve="-90"/>
<vertex x="0.4421" y="-0.0178" curve="-90.011749"/>
<vertex x="1.3945" y="0.9576" curve="-90"/>
<vertex x="2.3445" y="-0.0204" curve="-90.024193"/>
</polygon>
<polygon width="0.127" layer="29">
<vertex x="1.3945" y="-0.4395" curve="-90.012891"/>
<vertex x="0.95" y="-0.0153" curve="-90"/>
<vertex x="1.3945" y="0.452" curve="-90"/>
<vertex x="1.8364" y="-0.0051" curve="-90.012967"/>
</polygon>
</package>
<package name="CAP-PTH-SMALLEZ">
<description>This is the "EZ" version of the .1" spaced ceramic thru-hole cap.&lt;br&gt;
It has reduced top mask to make it harder to put the component on the wrong side of the board.</description>
<wire x1="1.27" y1="0.635" x2="1.27" y2="-0.635" width="0.2032" layer="21"/>
<wire x1="-1.27" y1="1.27" x2="3.81" y2="1.27" width="0.2032" layer="21"/>
<wire x1="3.81" y1="1.27" x2="3.81" y2="-1.27" width="0.2032" layer="21"/>
<wire x1="3.81" y1="-1.27" x2="-1.27" y2="-1.27" width="0.2032" layer="21"/>
<wire x1="-1.27" y1="-1.27" x2="-1.27" y2="1.27" width="0.2032" layer="21"/>
<pad name="1" x="0" y="0" drill="0.7" diameter="1.651" stop="no"/>
<pad name="2" x="2.54" y="0" drill="0.7" diameter="1.651" stop="no"/>
<text x="-1.27" y="1.905" size="0.6096" layer="25">&gt;Name</text>
<text x="-1.27" y="-2.54" size="0.6096" layer="27">&gt;Value</text>
<circle x="0" y="0" radius="0.898025" width="0" layer="30"/>
<circle x="2.54" y="0" radius="0.915809375" width="0" layer="30"/>
<circle x="0" y="0" radius="0.40160625" width="0" layer="29"/>
<circle x="2.54" y="0" radius="0.40160625" width="0" layer="29"/>
</package>
<package name="AXIAL-0.3">
<wire x1="-2.54" y1="0.762" x2="2.54" y2="0.762" width="0.2032" layer="21"/>
<wire x1="2.54" y1="0.762" x2="2.54" y2="0" width="0.2032" layer="21"/>
<wire x1="2.54" y1="0" x2="2.54" y2="-0.762" width="0.2032" layer="21"/>
<wire x1="2.54" y1="-0.762" x2="-2.54" y2="-0.762" width="0.2032" layer="21"/>
<wire x1="-2.54" y1="-0.762" x2="-2.54" y2="0" width="0.2032" layer="21"/>
<wire x1="-2.54" y1="0" x2="-2.54" y2="0.762" width="0.2032" layer="21"/>
<wire x1="2.54" y1="0" x2="2.794" y2="0" width="0.2032" layer="21"/>
<wire x1="-2.54" y1="0" x2="-2.794" y2="0" width="0.2032" layer="21"/>
<pad name="P$1" x="-3.81" y="0" drill="0.9" diameter="1.8796"/>
<pad name="P$2" x="3.81" y="0" drill="0.9" diameter="1.8796"/>
<text x="-2.54" y="1.27" size="0.4064" layer="25" font="vector">&gt;Name</text>
<text x="-2.032" y="-0.381" size="1.016" layer="21" font="vector" ratio="15">&gt;Value</text>
</package>
<package name="R2010">
<description>&lt;b&gt;RESISTOR&lt;/b&gt;&lt;p&gt;
chip</description>
<wire x1="-1.662" y1="1.245" x2="1.662" y2="1.245" width="0.1524" layer="51"/>
<wire x1="-1.637" y1="-1.245" x2="1.687" y2="-1.245" width="0.1524" layer="51"/>
<wire x1="-3.473" y1="1.483" x2="3.473" y2="1.483" width="0.0508" layer="39"/>
<wire x1="3.473" y1="1.483" x2="3.473" y2="-1.483" width="0.0508" layer="39"/>
<wire x1="3.473" y1="-1.483" x2="-3.473" y2="-1.483" width="0.0508" layer="39"/>
<wire x1="-3.473" y1="-1.483" x2="-3.473" y2="1.483" width="0.0508" layer="39"/>
<wire x1="-1.027" y1="1.245" x2="1.027" y2="1.245" width="0.1524" layer="21"/>
<wire x1="-1.002" y1="-1.245" x2="1.016" y2="-1.245" width="0.1524" layer="21"/>
<smd name="1" x="-2.2" y="0" dx="1.8" dy="2.7" layer="1"/>
<smd name="2" x="2.2" y="0" dx="1.8" dy="2.7" layer="1"/>
<text x="-2.54" y="1.5875" size="0.4064" layer="25">&gt;NAME</text>
<text x="-2.54" y="-2.032" size="0.4064" layer="27">&gt;VALUE</text>
<rectangle x1="-2.4892" y1="-1.3208" x2="-1.6393" y2="1.3292" layer="51"/>
<rectangle x1="1.651" y1="-1.3208" x2="2.5009" y2="1.3292" layer="51"/>
</package>
<package name="0603-RES">
<wire x1="-1.473" y1="0.983" x2="1.473" y2="0.983" width="0.0508" layer="39"/>
<wire x1="1.473" y1="0.983" x2="1.473" y2="-0.983" width="0.0508" layer="39"/>
<wire x1="1.473" y1="-0.983" x2="-1.473" y2="-0.983" width="0.0508" layer="39"/>
<wire x1="-1.473" y1="-0.983" x2="-1.473" y2="0.983" width="0.0508" layer="39"/>
<wire x1="-0.356" y1="0.432" x2="0.356" y2="0.432" width="0.1016" layer="51"/>
<wire x1="-0.356" y1="-0.419" x2="0.356" y2="-0.419" width="0.1016" layer="51"/>
<smd name="1" x="-0.85" y="0" dx="1.1" dy="1" layer="1"/>
<smd name="2" x="0.85" y="0" dx="1.1" dy="1" layer="1"/>
<text x="-0.889" y="0.762" size="0.4064" layer="25" font="vector">&gt;NAME</text>
<text x="-1.016" y="-1.143" size="0.4064" layer="27" font="vector">&gt;VALUE</text>
<rectangle x1="-0.8382" y1="-0.4699" x2="-0.3381" y2="0.4801" layer="51"/>
<rectangle x1="0.3302" y1="-0.4699" x2="0.8303" y2="0.4801" layer="51"/>
<rectangle x1="-0.1999" y1="-0.3" x2="0.1999" y2="0.3" layer="35"/>
<rectangle x1="-0.2286" y1="-0.381" x2="0.2286" y2="0.381" layer="21"/>
</package>
<package name="0402-RES">
<description>&lt;b&gt;CAPACITOR&lt;/b&gt;&lt;p&gt;
chip</description>
<wire x1="-0.245" y1="0.224" x2="0.245" y2="0.224" width="0.1524" layer="51"/>
<wire x1="0.245" y1="-0.224" x2="-0.245" y2="-0.224" width="0.1524" layer="51"/>
<wire x1="-1.473" y1="0.483" x2="1.473" y2="0.483" width="0.0508" layer="39"/>
<wire x1="1.473" y1="0.483" x2="1.473" y2="-0.483" width="0.0508" layer="39"/>
<wire x1="1.473" y1="-0.483" x2="-1.473" y2="-0.483" width="0.0508" layer="39"/>
<wire x1="-1.473" y1="-0.483" x2="-1.473" y2="0.483" width="0.0508" layer="39"/>
<smd name="1" x="-0.65" y="0" dx="0.7" dy="0.9" layer="1"/>
<smd name="2" x="0.65" y="0" dx="0.7" dy="0.9" layer="1"/>
<text x="-0.889" y="0.6985" size="0.4064" layer="25">&gt;NAME</text>
<text x="-1.0795" y="-1.143" size="0.4064" layer="27">&gt;VALUE</text>
<rectangle x1="-0.554" y1="-0.3048" x2="-0.254" y2="0.2951" layer="51"/>
<rectangle x1="0.2588" y1="-0.3048" x2="0.5588" y2="0.2951" layer="51"/>
<rectangle x1="-0.1999" y1="-0.3" x2="0.1999" y2="0.3" layer="35"/>
<rectangle x1="-0.2032" y1="-0.3556" x2="0.2032" y2="0.3556" layer="21"/>
</package>
<package name="1/6W-RES">
<description>1/6W Thru-hole Resistor - *UNPROVEN*</description>
<wire x1="-1.55" y1="0.85" x2="-1.55" y2="-0.85" width="0.2032" layer="21"/>
<wire x1="-1.55" y1="-0.85" x2="1.55" y2="-0.85" width="0.2032" layer="21"/>
<wire x1="1.55" y1="-0.85" x2="1.55" y2="0.85" width="0.2032" layer="21"/>
<wire x1="1.55" y1="0.85" x2="-1.55" y2="0.85" width="0.2032" layer="21"/>
<pad name="1" x="-2.5" y="0" drill="0.762"/>
<pad name="2" x="2.5" y="0" drill="0.762"/>
<text x="-1.2662" y="0.9552" size="0.6096" layer="25">&gt;NAME</text>
<text x="-1.423" y="-0.4286" size="0.8128" layer="21" ratio="15">&gt;VALUE</text>
</package>
<package name="R2512">
<wire x1="-2.362" y1="1.473" x2="2.387" y2="1.473" width="0.1524" layer="51"/>
<wire x1="-2.362" y1="-1.473" x2="2.387" y2="-1.473" width="0.1524" layer="51"/>
<smd name="1" x="-2.8" y="0" dx="1.8" dy="3.2" layer="1"/>
<smd name="2" x="2.8" y="0" dx="1.8" dy="3.2" layer="1"/>
<text x="-2.54" y="1.905" size="1.27" layer="25">&gt;NAME</text>
<text x="-2.54" y="-3.175" size="1.27" layer="27">&gt;VALUE</text>
<rectangle x1="-3.2004" y1="-1.5494" x2="-2.3505" y2="1.5507" layer="51"/>
<rectangle x1="2.3622" y1="-1.5494" x2="3.2121" y2="1.5507" layer="51"/>
</package>
<package name="AXIAL-0.4">
<description>1/4W Resistor, 0.4" wide&lt;p&gt;

Yageo CFR series &lt;a href="http://www.yageo.com/pdf/yageo/Leaded-R_CFR_2008.pdf"&gt;http://www.yageo.com/pdf/yageo/Leaded-R_CFR_2008.pdf&lt;/a&gt;</description>
<wire x1="-3.15" y1="-1.2" x2="-3.15" y2="1.2" width="0.2032" layer="21"/>
<wire x1="-3.15" y1="1.2" x2="3.15" y2="1.2" width="0.2032" layer="21"/>
<wire x1="3.15" y1="1.2" x2="3.15" y2="-1.2" width="0.2032" layer="21"/>
<wire x1="3.15" y1="-1.2" x2="-3.15" y2="-1.2" width="0.2032" layer="21"/>
<pad name="P$1" x="-5.08" y="0" drill="0.9" diameter="1.8796"/>
<pad name="P$2" x="5.08" y="0" drill="0.9" diameter="1.8796"/>
<text x="-3.175" y="1.905" size="0.8128" layer="25" font="vector" ratio="15">&gt;Name</text>
<text x="-2.286" y="-0.381" size="0.8128" layer="21" font="vector" ratio="15">&gt;Value</text>
</package>
<package name="AXIAL-0.5">
<description>1/2W Resistor, 0.5" wide&lt;p&gt;

Yageo CFR series &lt;a href="http://www.yageo.com/pdf/yageo/Leaded-R_CFR_2008.pdf"&gt;http://www.yageo.com/pdf/yageo/Leaded-R_CFR_2008.pdf&lt;/a&gt;</description>
<wire x1="-4.5" y1="-1.65" x2="-4.5" y2="1.65" width="0.2032" layer="21"/>
<wire x1="-4.5" y1="1.65" x2="4.5" y2="1.65" width="0.2032" layer="21"/>
<wire x1="4.5" y1="1.65" x2="4.5" y2="-1.65" width="0.2032" layer="21"/>
<wire x1="4.5" y1="-1.65" x2="-4.5" y2="-1.65" width="0.2032" layer="21"/>
<pad name="P$1" x="-6.35" y="0" drill="0.9" diameter="1.8796"/>
<pad name="P$2" x="6.35" y="0" drill="0.9" diameter="1.8796"/>
<text x="-4.445" y="2.54" size="0.8128" layer="25" font="vector" ratio="15">&gt;Name</text>
<text x="-3.429" y="-0.381" size="0.8128" layer="21" font="vector" ratio="15">&gt;Value</text>
</package>
<package name="AXIAL-0.6">
<description>1W Resistor, 0.6" wide&lt;p&gt;

Yageo CFR series &lt;a href="http://www.yageo.com/pdf/yageo/Leaded-R_CFR_2008.pdf"&gt;http://www.yageo.com/pdf/yageo/Leaded-R_CFR_2008.pdf&lt;/a&gt;</description>
<wire x1="-5.75" y1="-2.25" x2="-5.75" y2="2.25" width="0.2032" layer="21"/>
<wire x1="-5.75" y1="2.25" x2="5.75" y2="2.25" width="0.2032" layer="21"/>
<wire x1="5.75" y1="2.25" x2="5.75" y2="-2.25" width="0.2032" layer="21"/>
<wire x1="5.75" y1="-2.25" x2="-5.75" y2="-2.25" width="0.2032" layer="21"/>
<pad name="P$1" x="-7.62" y="0" drill="1.2" diameter="1.8796"/>
<pad name="P$2" x="7.62" y="0" drill="1.2" diameter="1.8796"/>
<text x="-5.715" y="3.175" size="0.8128" layer="25" font="vector" ratio="15">&gt;Name</text>
<text x="-4.064" y="-0.381" size="0.8128" layer="21" font="vector" ratio="15">&gt;Value</text>
</package>
<package name="AXIAL-0.8">
<description>2W Resistor, 0.8" wide&lt;p&gt;

Yageo CFR series &lt;a href="http://www.yageo.com/pdf/yageo/Leaded-R_CFR_2008.pdf"&gt;http://www.yageo.com/pdf/yageo/Leaded-R_CFR_2008.pdf&lt;/a&gt;</description>
<wire x1="-7.75" y1="-2.5" x2="-7.75" y2="2.5" width="0.2032" layer="21"/>
<wire x1="-7.75" y1="2.5" x2="7.75" y2="2.5" width="0.2032" layer="21"/>
<wire x1="7.75" y1="2.5" x2="7.75" y2="-2.5" width="0.2032" layer="21"/>
<wire x1="7.75" y1="-2.5" x2="-7.75" y2="-2.5" width="0.2032" layer="21"/>
<pad name="P$1" x="-10.16" y="0" drill="1.2" diameter="1.8796"/>
<pad name="P$2" x="10.16" y="0" drill="1.2" diameter="1.8796"/>
<text x="-7.62" y="3.175" size="0.8128" layer="25" font="vector" ratio="15">&gt;Name</text>
<text x="-5.969" y="-0.381" size="0.8128" layer="21" font="vector" ratio="15">&gt;Value</text>
</package>
<package name="AXIAL-0.3-KIT">
<description>&lt;h3&gt;AXIAL-0.3-KIT&lt;/h3&gt;

Commonly used for 1/4W through-hole resistors. 0.3" pitch between holes.&lt;br&gt;
&lt;br&gt;

&lt;b&gt;Warning:&lt;/b&gt; This is the KIT version of the AXIAL-0.3 package. This package has a smaller diameter top stop mask, which doesn't cover the diameter of the pad. This means only the bottom side of the pads' copper will be exposed. You'll only be able to solder to the bottom side.</description>
<wire x1="-2.54" y1="1.27" x2="2.54" y2="1.27" width="0.254" layer="21"/>
<wire x1="2.54" y1="1.27" x2="2.54" y2="0" width="0.254" layer="21"/>
<wire x1="2.54" y1="0" x2="2.54" y2="-1.27" width="0.254" layer="21"/>
<wire x1="2.54" y1="-1.27" x2="-2.54" y2="-1.27" width="0.254" layer="21"/>
<wire x1="-2.54" y1="-1.27" x2="-2.54" y2="0" width="0.254" layer="21"/>
<wire x1="-2.54" y1="0" x2="-2.54" y2="1.27" width="0.254" layer="21"/>
<wire x1="2.54" y1="0" x2="2.794" y2="0" width="0.254" layer="21"/>
<wire x1="-2.54" y1="0" x2="-2.794" y2="0" width="0.254" layer="21"/>
<pad name="P$1" x="-3.81" y="0" drill="1.016" diameter="2.032" stop="no"/>
<pad name="P$2" x="3.81" y="0" drill="1.016" diameter="2.032" stop="no"/>
<text x="-2.54" y="1.27" size="0.4064" layer="25" font="vector">&gt;Name</text>
<text x="-2.159" y="-0.762" size="1.27" layer="21" font="vector" ratio="15">&gt;Value</text>
<polygon width="0.127" layer="30">
<vertex x="3.8201" y="-0.9449" curve="-90"/>
<vertex x="2.8652" y="-0.0152" curve="-90.011749"/>
<vertex x="3.8176" y="0.9602" curve="-90"/>
<vertex x="4.7676" y="-0.0178" curve="-90.024193"/>
</polygon>
<polygon width="0.127" layer="29">
<vertex x="3.8176" y="-0.4369" curve="-90.012891"/>
<vertex x="3.3731" y="-0.0127" curve="-90"/>
<vertex x="3.8176" y="0.4546" curve="-90"/>
<vertex x="4.2595" y="-0.0025" curve="-90.012967"/>
</polygon>
<polygon width="0.127" layer="30">
<vertex x="-3.8075" y="-0.9525" curve="-90"/>
<vertex x="-4.7624" y="-0.0228" curve="-90.011749"/>
<vertex x="-3.81" y="0.9526" curve="-90"/>
<vertex x="-2.86" y="-0.0254" curve="-90.024193"/>
</polygon>
<polygon width="0.127" layer="29">
<vertex x="-3.81" y="-0.4445" curve="-90.012891"/>
<vertex x="-4.2545" y="-0.0203" curve="-90"/>
<vertex x="-3.81" y="0.447" curve="-90"/>
<vertex x="-3.3681" y="-0.0101" curve="-90.012967"/>
</polygon>
</package>
<package name="AXIAL-0.3EZ">
<description>This is the "EZ" version of the standard .3" spaced resistor package.&lt;br&gt;
It has a reduced top mask to make it harder to install upside-down.</description>
<wire x1="-2.54" y1="0.762" x2="2.54" y2="0.762" width="0.2032" layer="21"/>
<wire x1="2.54" y1="0.762" x2="2.54" y2="0" width="0.2032" layer="21"/>
<wire x1="2.54" y1="0" x2="2.54" y2="-0.762" width="0.2032" layer="21"/>
<wire x1="2.54" y1="-0.762" x2="-2.54" y2="-0.762" width="0.2032" layer="21"/>
<wire x1="-2.54" y1="-0.762" x2="-2.54" y2="0" width="0.2032" layer="21"/>
<wire x1="-2.54" y1="0" x2="-2.54" y2="0.762" width="0.2032" layer="21"/>
<wire x1="2.54" y1="0" x2="2.794" y2="0" width="0.2032" layer="21"/>
<wire x1="-2.54" y1="0" x2="-2.794" y2="0" width="0.2032" layer="21"/>
<pad name="P$1" x="-3.81" y="0" drill="0.9" diameter="1.8796" stop="no"/>
<pad name="P$2" x="3.81" y="0" drill="0.9" diameter="1.8796" stop="no"/>
<text x="-2.54" y="1.27" size="0.4064" layer="25" font="vector">&gt;Name</text>
<text x="-2.032" y="-0.381" size="1.016" layer="21" font="vector" ratio="15">&gt;Value</text>
<circle x="-3.81" y="0" radius="0.508" width="0" layer="29"/>
<circle x="3.81" y="0" radius="0.523634375" width="0" layer="29"/>
<circle x="-3.81" y="0" radius="1.02390625" width="0" layer="30"/>
<circle x="3.81" y="0" radius="1.04726875" width="0" layer="30"/>
</package>
<package name="SCREWTERMINAL-2.5MM-2">
<pad name="2" x="0" y="0" drill="1" shape="square"/>
<pad name="1" x="2.5" y="-5" drill="1" shape="square"/>
<wire x1="-3" y1="2.55" x2="4.2" y2="2.55" width="0.127" layer="21"/>
<wire x1="4.2" y1="2.55" x2="4.2" y2="-10" width="0.127" layer="21"/>
<wire x1="4.2" y1="-10" x2="-3" y2="-10" width="0.127" layer="21"/>
<wire x1="-3" y1="-10" x2="-3" y2="2.55" width="0.127" layer="21"/>
<wire x1="-2.75" y1="2.3" x2="3.75" y2="2.3" width="0.127" layer="51"/>
<wire x1="3.75" y1="2.3" x2="3.75" y2="-9.7" width="0.127" layer="51"/>
<wire x1="3.75" y1="-9.7" x2="-2.75" y2="-9.7" width="0.127" layer="51"/>
<wire x1="-2.75" y1="-9.7" x2="-2.75" y2="2.3" width="0.127" layer="51"/>
<text x="2.2" y="-3.25" size="1.27" layer="21">1</text>
<text x="-0.45" y="-3.3" size="1.27" layer="21">2</text>
<text x="-3.95" y="-9.5" size="1.27" layer="25" rot="R90">&gt;Name</text>
</package>
</packages>
<symbols>
<symbol name="GND_EARTH">
<wire x1="-1.27" y1="-0.635" x2="0" y2="-0.635" width="0.1524" layer="94"/>
<wire x1="0" y1="-0.635" x2="1.27" y2="-0.635" width="0.1524" layer="94"/>
<wire x1="-1.27" y1="-0.635" x2="-2.54" y2="-1.905" width="0.1524" layer="94"/>
<wire x1="0" y1="-0.635" x2="-1.27" y2="-1.905" width="0.1524" layer="94"/>
<wire x1="1.27" y1="-0.635" x2="0" y2="-1.905" width="0.1524" layer="94"/>
<wire x1="0" y1="-0.635" x2="0" y2="0" width="0.1524" layer="94"/>
<pin name="E_GND" x="0" y="0" visible="off" length="point" direction="sup" rot="R270"/>
<text x="-2.54" y="-2.54" size="0.8128" layer="96">&gt;VALUE</text>
</symbol>
<symbol name="DGND">
<wire x1="-1.905" y1="0" x2="1.905" y2="0" width="0.254" layer="94"/>
<text x="-2.54" y="-2.54" size="1.778" layer="96">&gt;VALUE</text>
<pin name="GND" x="0" y="2.54" visible="off" length="short" direction="sup" rot="R270"/>
</symbol>
<symbol name="TPL7407L">
<pin name="IN1" x="-7.62" y="10.16" length="middle"/>
<pin name="IN2" x="-7.62" y="7.62" length="middle"/>
<pin name="IN3" x="-7.62" y="5.08" length="middle"/>
<pin name="IN4" x="-7.62" y="2.54" length="middle"/>
<pin name="IN5" x="-7.62" y="-2.54" length="middle"/>
<pin name="IN6" x="-7.62" y="-5.08" length="middle"/>
<pin name="IN7" x="-7.62" y="-7.62" length="middle"/>
<pin name="GND" x="-7.62" y="-10.16" length="middle"/>
<pin name="OUT1" x="20.32" y="7.62" length="middle" rot="R180"/>
<pin name="OUT2" x="20.32" y="5.08" length="middle" rot="R180"/>
<pin name="OUT3" x="20.32" y="2.54" length="middle" rot="R180"/>
<pin name="OUT4" x="20.32" y="0" length="middle" rot="R180"/>
<pin name="OUT5" x="20.32" y="-5.08" length="middle" rot="R180"/>
<pin name="OUT6" x="20.32" y="-7.62" length="middle" rot="R180"/>
<pin name="OUT7" x="20.32" y="-10.16" length="middle" rot="R180"/>
<pin name="COM" x="20.32" y="10.16" length="middle" rot="R180"/>
<wire x1="-2.54" y1="12.7" x2="-2.54" y2="-12.7" width="0.254" layer="94"/>
<wire x1="-2.54" y1="-12.7" x2="15.24" y2="-12.7" width="0.254" layer="94"/>
<wire x1="15.24" y1="-12.7" x2="15.24" y2="12.7" width="0.254" layer="94"/>
<wire x1="15.24" y1="12.7" x2="-2.54" y2="12.7" width="0.254" layer="94"/>
<text x="-2.54" y="-15.24" size="1.778" layer="95" ratio="10">&gt;Name</text>
<text x="-2.54" y="15.24" size="1.778" layer="96">TPL7407</text>
</symbol>
<symbol name="CONN-8">
<pin name="8" x="-5.08" y="7.62" length="short"/>
<pin name="7" x="-5.08" y="5.08" length="short"/>
<pin name="6" x="-5.08" y="2.54" length="short"/>
<pin name="5" x="-5.08" y="0" length="short"/>
<pin name="4" x="-5.08" y="-2.54" length="short"/>
<pin name="3" x="-5.08" y="-5.08" length="short"/>
<pin name="2" x="-5.08" y="-7.62" length="short"/>
<pin name="1" x="-5.08" y="-10.16" length="short"/>
<wire x1="-2.54" y1="10.16" x2="-2.54" y2="-12.7" width="0.254" layer="94"/>
<wire x1="-2.54" y1="-12.7" x2="2.54" y2="-12.7" width="0.254" layer="94"/>
<wire x1="2.54" y1="-12.7" x2="2.54" y2="10.16" width="0.254" layer="94"/>
<wire x1="2.54" y1="10.16" x2="-2.54" y2="10.16" width="0.254" layer="94"/>
<text x="-2.54" y="-15.24" size="1.27" layer="95">&gt;Name</text>
</symbol>
<symbol name="VCC">
<wire x1="0.762" y1="1.27" x2="0" y2="2.54" width="0.254" layer="94"/>
<wire x1="0" y1="2.54" x2="-0.762" y2="1.27" width="0.254" layer="94"/>
<text x="-1.016" y="3.556" size="1.778" layer="96">&gt;VALUE</text>
<pin name="VCC" x="0" y="0" visible="off" length="short" direction="sup" rot="R90"/>
</symbol>
<symbol name="CAP">
<wire x1="0" y1="2.54" x2="0" y2="2.032" width="0.1524" layer="94"/>
<wire x1="0" y1="0" x2="0" y2="0.508" width="0.1524" layer="94"/>
<text x="1.524" y="2.921" size="1.778" layer="95">&gt;NAME</text>
<text x="1.524" y="-2.159" size="1.778" layer="96">&gt;VALUE</text>
<rectangle x1="-2.032" y1="0.508" x2="2.032" y2="1.016" layer="94"/>
<rectangle x1="-2.032" y1="1.524" x2="2.032" y2="2.032" layer="94"/>
<pin name="1" x="0" y="5.08" visible="off" length="short" direction="pas" swaplevel="1" rot="R270"/>
<pin name="2" x="0" y="-2.54" visible="off" length="short" direction="pas" swaplevel="1" rot="R90"/>
</symbol>
<symbol name="RESISTOR">
<wire x1="-2.54" y1="0" x2="-2.159" y2="1.016" width="0.1524" layer="94"/>
<wire x1="-2.159" y1="1.016" x2="-1.524" y2="-1.016" width="0.1524" layer="94"/>
<wire x1="-1.524" y1="-1.016" x2="-0.889" y2="1.016" width="0.1524" layer="94"/>
<wire x1="-0.889" y1="1.016" x2="-0.254" y2="-1.016" width="0.1524" layer="94"/>
<wire x1="-0.254" y1="-1.016" x2="0.381" y2="1.016" width="0.1524" layer="94"/>
<wire x1="0.381" y1="1.016" x2="1.016" y2="-1.016" width="0.1524" layer="94"/>
<wire x1="1.016" y1="-1.016" x2="1.651" y2="1.016" width="0.1524" layer="94"/>
<wire x1="1.651" y1="1.016" x2="2.286" y2="-1.016" width="0.1524" layer="94"/>
<wire x1="2.286" y1="-1.016" x2="2.54" y2="0" width="0.1524" layer="94"/>
<text x="-3.81" y="1.4986" size="1.778" layer="95">&gt;NAME</text>
<text x="-3.81" y="-3.302" size="1.778" layer="96">&gt;VALUE</text>
<pin name="2" x="5.08" y="0" visible="off" length="short" direction="pas" swaplevel="1" rot="R180"/>
<pin name="1" x="-5.08" y="0" visible="off" length="short" direction="pas" swaplevel="1"/>
</symbol>
<symbol name="CONN-2">
<pin name="2" x="-2.54" y="2.54" length="short"/>
<pin name="1" x="-2.54" y="0" length="short"/>
<wire x1="0" y1="5.08" x2="0" y2="-2.54" width="0.254" layer="94"/>
<wire x1="0" y1="-2.54" x2="5.08" y2="-2.54" width="0.254" layer="94"/>
<wire x1="5.08" y1="-2.54" x2="5.08" y2="5.08" width="0.254" layer="94"/>
<wire x1="5.08" y1="5.08" x2="0" y2="5.08" width="0.254" layer="94"/>
<text x="0" y="-5.08" size="1.27" layer="95">&gt;Name</text>
</symbol>
</symbols>
<devicesets>
<deviceset name="GND_EARTH" uservalue="yes">
<gates>
<gate name="G$1" symbol="GND_EARTH" x="0" y="0"/>
</gates>
<devices>
<device name="">
<technologies>
<technology name=""/>
</technologies>
</device>
</devices>
</deviceset>
<deviceset name="GND" prefix="GND">
<description>&lt;b&gt;SUPPLY SYMBOL&lt;/b&gt;</description>
<gates>
<gate name="1" symbol="DGND" x="0" y="0"/>
</gates>
<devices>
<device name="">
<technologies>
<technology name=""/>
</technologies>
</device>
</devices>
</deviceset>
<deviceset name="TPL7407L" prefix="U" uservalue="yes">
<description>&lt;b&gt;TPL7407LDR&lt;/b&gt; - IC MOSFET DVR 7CH 40V
     
    &lt;p&gt;Technical Specifications:
    &lt;ul&gt;
    &lt;li&gt;VCC: 0-40V&lt;/li&gt;
    &lt;li&gt;Operating Temperature: -40°C to 125°C&lt;/li&gt;
    &lt;li&gt;Non Inverting Input&lt;/li&gt;
    &lt;li&gt;Low Side&lt;/li&gt;
    &lt;/ul&gt;
    &lt;/p&gt;
     
    &lt;p&gt;Digikey: 296-37284-1-ND &lt;br/&gt;
    &lt;/p&gt;</description>
<gates>
<gate name="G$1" symbol="TPL7407L" x="-5.08" y="0"/>
</gates>
<devices>
<device name="" package="SOIC16">
<connects>
<connect gate="G$1" pin="COM" pad="9"/>
<connect gate="G$1" pin="GND" pad="8"/>
<connect gate="G$1" pin="IN1" pad="1"/>
<connect gate="G$1" pin="IN2" pad="2"/>
<connect gate="G$1" pin="IN3" pad="3"/>
<connect gate="G$1" pin="IN4" pad="4"/>
<connect gate="G$1" pin="IN5" pad="5"/>
<connect gate="G$1" pin="IN6" pad="6"/>
<connect gate="G$1" pin="IN7" pad="7"/>
<connect gate="G$1" pin="OUT1" pad="16"/>
<connect gate="G$1" pin="OUT2" pad="15"/>
<connect gate="G$1" pin="OUT3" pad="14"/>
<connect gate="G$1" pin="OUT4" pad="13"/>
<connect gate="G$1" pin="OUT5" pad="12"/>
<connect gate="G$1" pin="OUT6" pad="11"/>
<connect gate="G$1" pin="OUT7" pad="10"/>
</connects>
<technologies>
<technology name=""/>
</technologies>
</device>
</devices>
</deviceset>
<deviceset name="CONN-8" prefix="J" uservalue="yes">
<description>&lt;b&gt;CONN TERM BLOCK SPRING 8POS 2.5MM&lt;/b&gt; 
&lt;p&gt;
Pitch 2.50 mm&lt;br&gt;
2A - 300V&lt;br&gt;
Wire Gauge 20-26 AWG&lt;br&gt;
Digikey No: 277-1800-ND
&lt;/p&gt;</description>
<gates>
<gate name="G$1" symbol="CONN-8" x="0" y="2.54"/>
</gates>
<devices>
<device name="" package="SCREWTERMINAL-2.5MM-8">
<connects>
<connect gate="G$1" pin="1" pad="1"/>
<connect gate="G$1" pin="2" pad="2"/>
<connect gate="G$1" pin="3" pad="3"/>
<connect gate="G$1" pin="4" pad="4"/>
<connect gate="G$1" pin="5" pad="5"/>
<connect gate="G$1" pin="6" pad="6"/>
<connect gate="G$1" pin="7" pad="7"/>
<connect gate="G$1" pin="8" pad="8"/>
</connects>
<technologies>
<technology name=""/>
</technologies>
</device>
</devices>
</deviceset>
<deviceset name="VCC" prefix="SUPPLY">
<description>&lt;b&gt;SUPPLY SYMBOL&lt;/b&gt;</description>
<gates>
<gate name="G$1" symbol="VCC" x="0" y="0"/>
</gates>
<devices>
<device name="">
<technologies>
<technology name=""/>
</technologies>
</device>
</devices>
</deviceset>
<deviceset name="CAP" prefix="C" uservalue="yes">
<description>&lt;b&gt;Capacitor&lt;/b&gt;
Standard 0603 ceramic capacitor, and 0.1" leaded capacitor.</description>
<gates>
<gate name="G$1" symbol="CAP" x="0" y="0"/>
</gates>
<devices>
<device name="PTH" package="CAP-PTH-SMALL">
<connects>
<connect gate="G$1" pin="1" pad="1"/>
<connect gate="G$1" pin="2" pad="2"/>
</connects>
<technologies>
<technology name=""/>
</technologies>
</device>
<device name="PTH2" package="CAP-PTH-SMALL2">
<connects>
<connect gate="G$1" pin="1" pad="1"/>
<connect gate="G$1" pin="2" pad="2"/>
</connects>
<technologies>
<technology name=""/>
</technologies>
</device>
<device name="0805" package="0805">
<connects>
<connect gate="G$1" pin="1" pad="1"/>
<connect gate="G$1" pin="2" pad="2"/>
</connects>
<technologies>
<technology name=""/>
</technologies>
</device>
<device name="PTH3" package="CAP-PTH-LARGE">
<connects>
<connect gate="G$1" pin="1" pad="1"/>
<connect gate="G$1" pin="2" pad="2"/>
</connects>
<technologies>
<technology name=""/>
</technologies>
</device>
<device name="SMD" package="GRM43D">
<connects>
<connect gate="G$1" pin="1" pad="A"/>
<connect gate="G$1" pin="2" pad="C"/>
</connects>
<technologies>
<technology name=""/>
</technologies>
</device>
<device name="0603-CAP" package="0603-CAP">
<connects>
<connect gate="G$1" pin="1" pad="1"/>
<connect gate="G$1" pin="2" pad="2"/>
</connects>
<technologies>
<technology name=""/>
</technologies>
</device>
<device name="0402-CAP" package="0402-CAP">
<connects>
<connect gate="G$1" pin="1" pad="1"/>
<connect gate="G$1" pin="2" pad="2"/>
</connects>
<technologies>
<technology name=""/>
</technologies>
</device>
<device name="PTH1" package="CAP-PTH-5MM">
<connects>
<connect gate="G$1" pin="1" pad="1"/>
<connect gate="G$1" pin="2" pad="2"/>
</connects>
<technologies>
<technology name=""/>
</technologies>
</device>
<device name="_" package="AXIAL-5MM">
<connects>
<connect gate="G$1" pin="1" pad="P$1"/>
<connect gate="G$1" pin="2" pad="P$2"/>
</connects>
<technologies>
<technology name=""/>
</technologies>
</device>
<device name="1210" package="1210">
<connects>
<connect gate="G$1" pin="1" pad="1"/>
<connect gate="G$1" pin="2" pad="2"/>
</connects>
<technologies>
<technology name=""/>
</technologies>
</device>
<device name="1206" package="1206">
<connects>
<connect gate="G$1" pin="1" pad="1"/>
<connect gate="G$1" pin="2" pad="2"/>
</connects>
<technologies>
<technology name=""/>
</technologies>
</device>
<device name="ASMD" package="CTZ3">
<connects>
<connect gate="G$1" pin="1" pad="+"/>
<connect gate="G$1" pin="2" pad="-"/>
</connects>
<technologies>
<technology name=""/>
</technologies>
</device>
<device name="KIT" package="CAP-PTH-SMALL-KIT">
<connects>
<connect gate="G$1" pin="1" pad="1"/>
<connect gate="G$1" pin="2" pad="2"/>
</connects>
<technologies>
<technology name=""/>
</technologies>
</device>
<device name="EZ" package="CAP-PTH-SMALLEZ">
<connects>
<connect gate="G$1" pin="1" pad="1"/>
<connect gate="G$1" pin="2" pad="2"/>
</connects>
<technologies>
<technology name=""/>
</technologies>
</device>
</devices>
</deviceset>
<deviceset name="RESISTOR" prefix="R" uservalue="yes">
<description>&lt;b&gt;Resistor&lt;/b&gt;
Basic schematic elements and footprints for 0603, 1206, and PTH resistors.</description>
<gates>
<gate name="G$1" symbol="RESISTOR" x="0" y="0"/>
</gates>
<devices>
<device name="1206" package="1206">
<connects>
<connect gate="G$1" pin="1" pad="1"/>
<connect gate="G$1" pin="2" pad="2"/>
</connects>
<technologies>
<technology name=""/>
</technologies>
</device>
<device name="AXIAL-0.3" package="AXIAL-0.3">
<connects>
<connect gate="G$1" pin="1" pad="P$1"/>
<connect gate="G$1" pin="2" pad="P$2"/>
</connects>
<technologies>
<technology name=""/>
</technologies>
</device>
<device name="2010" package="R2010">
<connects>
<connect gate="G$1" pin="1" pad="1"/>
<connect gate="G$1" pin="2" pad="2"/>
</connects>
<technologies>
<technology name=""/>
</technologies>
</device>
<device name="0805-RES" package="0805">
<connects>
<connect gate="G$1" pin="1" pad="1"/>
<connect gate="G$1" pin="2" pad="2"/>
</connects>
<technologies>
<technology name=""/>
</technologies>
</device>
<device name="0603-RES" package="0603-RES">
<connects>
<connect gate="G$1" pin="1" pad="1"/>
<connect gate="G$1" pin="2" pad="2"/>
</connects>
<technologies>
<technology name=""/>
</technologies>
</device>
<device name="0402-RES" package="0402-RES">
<connects>
<connect gate="G$1" pin="1" pad="1"/>
<connect gate="G$1" pin="2" pad="2"/>
</connects>
<technologies>
<technology name=""/>
</technologies>
</device>
<device name="PTH-1/6W" package="1/6W-RES">
<connects>
<connect gate="G$1" pin="1" pad="1"/>
<connect gate="G$1" pin="2" pad="2"/>
</connects>
<technologies>
<technology name=""/>
</technologies>
</device>
<device name="2512" package="R2512">
<connects>
<connect gate="G$1" pin="1" pad="1"/>
<connect gate="G$1" pin="2" pad="2"/>
</connects>
<technologies>
<technology name=""/>
</technologies>
</device>
<device name="PTH-1/4W" package="AXIAL-0.4">
<connects>
<connect gate="G$1" pin="1" pad="P$1"/>
<connect gate="G$1" pin="2" pad="P$2"/>
</connects>
<technologies>
<technology name=""/>
</technologies>
</device>
<device name="PTH-1/2W" package="AXIAL-0.5">
<connects>
<connect gate="G$1" pin="1" pad="P$1"/>
<connect gate="G$1" pin="2" pad="P$2"/>
</connects>
<technologies>
<technology name=""/>
</technologies>
</device>
<device name="PTH-1W" package="AXIAL-0.6">
<connects>
<connect gate="G$1" pin="1" pad="P$1"/>
<connect gate="G$1" pin="2" pad="P$2"/>
</connects>
<technologies>
<technology name=""/>
</technologies>
</device>
<device name="PTH-2W" package="AXIAL-0.8">
<connects>
<connect gate="G$1" pin="1" pad="P$1"/>
<connect gate="G$1" pin="2" pad="P$2"/>
</connects>
<technologies>
<technology name=""/>
</technologies>
</device>
<device name="KIT" package="AXIAL-0.3-KIT">
<connects>
<connect gate="G$1" pin="1" pad="P$1"/>
<connect gate="G$1" pin="2" pad="P$2"/>
</connects>
<technologies>
<technology name=""/>
</technologies>
</device>
<device name="EZ" package="AXIAL-0.3EZ">
<connects>
<connect gate="G$1" pin="1" pad="P$1"/>
<connect gate="G$1" pin="2" pad="P$2"/>
</connects>
<technologies>
<technology name=""/>
</technologies>
</device>
</devices>
</deviceset>
<deviceset name="CONN-2" prefix="J" uservalue="yes">
<description>&lt;b&gt;CONN TERM BLOCK SPRING 2POS 2.5MM&lt;/b&gt; 
&lt;p&gt;
Pitch 2.50 mm&lt;br&gt;
2A - 300V&lt;br&gt;
Wire Gauge 20-26 AWG&lt;br&gt;
Digikey No: 277-1794-ND
&lt;/p&gt;</description>
<gates>
<gate name="G$1" symbol="CONN-2" x="-5.08" y="0"/>
</gates>
<devices>
<device name="" package="SCREWTERMINAL-2.5MM-2">
<connects>
<connect gate="G$1" pin="1" pad="1"/>
<connect gate="G$1" pin="2" pad="2"/>
</connects>
<technologies>
<technology name=""/>
</technologies>
</device>
</devices>
</deviceset>
</devicesets>
</library>
</libraries>
<attributes>
</attributes>
<variantdefs>
</variantdefs>
<classes>
<class number="0" name="default" width="0" drill="0">
</class>
</classes>
<parts>
<part name="H1" library="holes" deviceset="MOUNT-PAD-ROUND" device="3.2" value="M3"/>
<part name="H4" library="holes" deviceset="MOUNT-PAD-ROUND" device="3.2" value="M3"/>
<part name="FB1" library="dan-rcl" deviceset="FERRITE" device="0805"/>
<part name="U$1" library="trigger-simple" deviceset="GND_EARTH" device=""/>
<part name="U$2" library="trigger-simple" deviceset="GND_EARTH" device=""/>
<part name="U$3" library="trigger-simple" deviceset="GND_EARTH" device=""/>
<part name="GND1" library="trigger-simple" deviceset="GND" device=""/>
<part name="U1" library="trigger-simple" deviceset="TPL7407L" device=""/>
<part name="GND2" library="trigger-simple" deviceset="GND" device=""/>
<part name="J1" library="trigger-simple" deviceset="CONN-8" device=""/>
<part name="GND3" library="trigger-simple" deviceset="GND" device=""/>
<part name="SUPPLY1" library="trigger-simple" deviceset="VCC" device=""/>
<part name="C1" library="trigger-simple" deviceset="CAP" device="0805" value="470uF"/>
<part name="C2" library="trigger-simple" deviceset="CAP" device="0805" value="1uF"/>
<part name="C3" library="trigger-simple" deviceset="CAP" device="0805" value="0.1uF"/>
<part name="SUPPLY2" library="trigger-simple" deviceset="VCC" device=""/>
<part name="GND4" library="trigger-simple" deviceset="GND" device=""/>
<part name="R5" library="trigger-simple" deviceset="RESISTOR" device="0805-RES" value="DNP"/>
<part name="R6" library="trigger-simple" deviceset="RESISTOR" device="0805-RES" value="DNP"/>
<part name="R7" library="trigger-simple" deviceset="RESISTOR" device="0805-RES" value="DNP"/>
<part name="R8" library="trigger-simple" deviceset="RESISTOR" device="0805-RES" value="DNP"/>
<part name="R9" library="trigger-simple" deviceset="RESISTOR" device="0805-RES" value="DNP"/>
<part name="R10" library="trigger-simple" deviceset="RESISTOR" device="0805-RES" value="DNP"/>
<part name="R11" library="trigger-simple" deviceset="RESISTOR" device="0805-RES" value="DNP"/>
<part name="J4" library="trigger-simple" deviceset="CONN-8" device=""/>
<part name="J5" library="trigger-simple" deviceset="CONN-2" device=""/>
<part name="SUPPLY7" library="trigger-simple" deviceset="VCC" device=""/>
<part name="J6" library="trigger-simple" deviceset="CONN-2" device=""/>
<part name="GND6" library="trigger-simple" deviceset="GND" device=""/>
<part name="GND7" library="trigger-simple" deviceset="GND" device=""/>
<part name="SUPPLY8" library="trigger-simple" deviceset="VCC" device=""/>
</parts>
<sheets>
<sheet>
<plain>
<wire x1="2.54" y1="187.96" x2="195.58" y2="187.96" width="0.1524" layer="94"/>
<wire x1="195.58" y1="187.96" x2="195.58" y2="73.66" width="0.1524" layer="94"/>
<wire x1="195.58" y1="73.66" x2="2.54" y2="73.66" width="0.1524" layer="94"/>
<wire x1="2.54" y1="73.66" x2="2.54" y2="187.96" width="0.1524" layer="94"/>
<text x="7.62" y="182.88" size="1.778" layer="94">40V, 7Chn Low Side Driver</text>
<text x="7.62" y="177.8" size="1.778" layer="94">Transistor On/Off switch</text>
</plain>
<instances>
<instance part="H1" gate="G$1" x="17.78" y="154.94" rot="R180"/>
<instance part="H4" gate="G$1" x="17.78" y="132.08" rot="R180"/>
<instance part="FB1" gate="G$1" x="17.78" y="124.46"/>
<instance part="U$1" gate="G$1" x="25.4" y="149.86"/>
<instance part="U$2" gate="G$1" x="25.4" y="134.62"/>
<instance part="U$3" gate="G$1" x="12.7" y="119.38"/>
<instance part="GND1" gate="1" x="25.4" y="119.38"/>
<instance part="U1" gate="G$1" x="109.22" y="149.86"/>
<instance part="GND2" gate="1" x="68.58" y="114.3"/>
<instance part="J1" gate="G$1" x="40.64" y="149.86" rot="R180"/>
<instance part="GND3" gate="1" x="99.06" y="134.62"/>
<instance part="SUPPLY1" gate="G$1" x="132.08" y="162.56"/>
<instance part="C1" gate="G$1" x="109.22" y="116.84" smashed="yes">
<attribute name="NAME" x="110.744" y="119.761" size="1.778" layer="95"/>
<attribute name="VALUE" x="106.299" y="115.824" size="1.778" layer="96" rot="R90"/>
</instance>
<instance part="C2" gate="G$1" x="116.84" y="116.84"/>
<instance part="C3" gate="G$1" x="124.46" y="116.84"/>
<instance part="SUPPLY2" gate="G$1" x="116.84" y="124.46"/>
<instance part="GND4" gate="1" x="116.84" y="109.22"/>
<instance part="R5" gate="G$1" x="83.82" y="127" smashed="yes" rot="R90">
<attribute name="NAME" x="82.3214" y="123.19" size="1.778" layer="95" rot="R90"/>
<attribute name="VALUE" x="82.042" y="130.81" size="1.778" layer="96" rot="R90"/>
</instance>
<instance part="R6" gate="G$1" x="78.74" y="127" smashed="yes" rot="R90">
<attribute name="NAME" x="77.2414" y="123.19" size="1.778" layer="95" rot="R90"/>
<attribute name="VALUE" x="76.962" y="130.81" size="1.778" layer="96" rot="R90"/>
</instance>
<instance part="R7" gate="G$1" x="73.66" y="127" smashed="yes" rot="R90">
<attribute name="NAME" x="72.1614" y="123.19" size="1.778" layer="95" rot="R90"/>
<attribute name="VALUE" x="71.882" y="130.81" size="1.778" layer="96" rot="R90"/>
</instance>
<instance part="R8" gate="G$1" x="68.58" y="127" smashed="yes" rot="R90">
<attribute name="NAME" x="67.0814" y="123.19" size="1.778" layer="95" rot="R90"/>
<attribute name="VALUE" x="66.802" y="130.81" size="1.778" layer="96" rot="R90"/>
</instance>
<instance part="R9" gate="G$1" x="63.5" y="127" smashed="yes" rot="R90">
<attribute name="NAME" x="62.0014" y="123.19" size="1.778" layer="95" rot="R90"/>
<attribute name="VALUE" x="61.722" y="130.81" size="1.778" layer="96" rot="R90"/>
</instance>
<instance part="R10" gate="G$1" x="58.42" y="127" smashed="yes" rot="R90">
<attribute name="NAME" x="56.9214" y="123.19" size="1.778" layer="95" rot="R90"/>
<attribute name="VALUE" x="56.642" y="130.81" size="1.778" layer="96" rot="R90"/>
</instance>
<instance part="R11" gate="G$1" x="53.34" y="127" smashed="yes" rot="R90">
<attribute name="NAME" x="51.8414" y="123.19" size="1.778" layer="95" rot="R90"/>
<attribute name="VALUE" x="51.562" y="130.81" size="1.778" layer="96" rot="R90"/>
</instance>
<instance part="J4" gate="G$1" x="167.64" y="149.86"/>
<instance part="J5" gate="G$1" x="83.82" y="91.44" rot="R180"/>
<instance part="SUPPLY7" gate="G$1" x="88.9" y="96.52"/>
<instance part="J6" gate="G$1" x="55.88" y="99.06" rot="R180"/>
<instance part="GND6" gate="1" x="60.96" y="88.9"/>
<instance part="GND7" gate="1" x="66.04" y="88.9"/>
<instance part="SUPPLY8" gate="G$1" x="93.98" y="96.52"/>
</instances>
<busses>
</busses>
<nets>
<net name="E_GND" class="0">
<segment>
<pinref part="H1" gate="G$1" pin="MOUNT"/>
<wire x1="22.86" y1="152.4" x2="22.86" y2="154.94" width="0.1524" layer="91"/>
<wire x1="22.86" y1="154.94" x2="20.32" y2="154.94" width="0.1524" layer="91"/>
<wire x1="22.86" y1="152.4" x2="25.4" y2="152.4" width="0.1524" layer="91"/>
<pinref part="U$1" gate="G$1" pin="E_GND"/>
<wire x1="25.4" y1="152.4" x2="25.4" y2="149.86" width="0.1524" layer="91"/>
</segment>
<segment>
<pinref part="H4" gate="G$1" pin="MOUNT"/>
<wire x1="20.32" y1="132.08" x2="22.86" y2="132.08" width="0.1524" layer="91"/>
<wire x1="22.86" y1="132.08" x2="22.86" y2="137.16" width="0.1524" layer="91"/>
<wire x1="22.86" y1="137.16" x2="25.4" y2="137.16" width="0.1524" layer="91"/>
<pinref part="U$2" gate="G$1" pin="E_GND"/>
<wire x1="25.4" y1="137.16" x2="25.4" y2="134.62" width="0.1524" layer="91"/>
</segment>
<segment>
<pinref part="U$3" gate="G$1" pin="E_GND"/>
<wire x1="12.7" y1="119.38" x2="12.7" y2="124.46" width="0.1524" layer="91"/>
<pinref part="FB1" gate="G$1" pin="1"/>
<wire x1="12.7" y1="124.46" x2="15.24" y2="124.46" width="0.1524" layer="91"/>
</segment>
</net>
<net name="GND" class="0">
<segment>
<pinref part="FB1" gate="G$1" pin="2"/>
<wire x1="22.86" y1="124.46" x2="25.4" y2="124.46" width="0.1524" layer="91"/>
<pinref part="GND1" gate="1" pin="GND"/>
<wire x1="25.4" y1="124.46" x2="25.4" y2="121.92" width="0.1524" layer="91"/>
</segment>
<segment>
<pinref part="U1" gate="G$1" pin="GND"/>
<wire x1="101.6" y1="139.7" x2="99.06" y2="139.7" width="0.1524" layer="91"/>
<pinref part="GND3" gate="1" pin="GND"/>
<wire x1="99.06" y1="139.7" x2="99.06" y2="137.16" width="0.1524" layer="91"/>
</segment>
<segment>
<pinref part="GND4" gate="1" pin="GND"/>
<pinref part="C2" gate="G$1" pin="2"/>
<wire x1="116.84" y1="111.76" x2="116.84" y2="114.3" width="0.1524" layer="91"/>
<pinref part="C3" gate="G$1" pin="2"/>
<wire x1="116.84" y1="114.3" x2="124.46" y2="114.3" width="0.1524" layer="91"/>
<junction x="116.84" y="114.3"/>
<pinref part="C1" gate="G$1" pin="2"/>
<wire x1="116.84" y1="114.3" x2="109.22" y2="114.3" width="0.1524" layer="91"/>
</segment>
<segment>
<pinref part="R11" gate="G$1" pin="1"/>
<pinref part="R10" gate="G$1" pin="1"/>
<wire x1="53.34" y1="121.92" x2="58.42" y2="121.92" width="0.1524" layer="91"/>
<pinref part="R9" gate="G$1" pin="1"/>
<wire x1="58.42" y1="121.92" x2="63.5" y2="121.92" width="0.1524" layer="91"/>
<junction x="58.42" y="121.92"/>
<pinref part="R8" gate="G$1" pin="1"/>
<wire x1="63.5" y1="121.92" x2="68.58" y2="121.92" width="0.1524" layer="91"/>
<junction x="63.5" y="121.92"/>
<pinref part="R7" gate="G$1" pin="1"/>
<wire x1="68.58" y1="121.92" x2="73.66" y2="121.92" width="0.1524" layer="91"/>
<junction x="68.58" y="121.92"/>
<pinref part="R6" gate="G$1" pin="1"/>
<wire x1="73.66" y1="121.92" x2="78.74" y2="121.92" width="0.1524" layer="91"/>
<junction x="73.66" y="121.92"/>
<pinref part="R5" gate="G$1" pin="1"/>
<wire x1="78.74" y1="121.92" x2="83.82" y2="121.92" width="0.1524" layer="91"/>
<junction x="78.74" y="121.92"/>
<pinref part="GND2" gate="1" pin="GND"/>
<wire x1="68.58" y1="116.84" x2="68.58" y2="121.92" width="0.1524" layer="91"/>
</segment>
<segment>
<pinref part="J6" gate="G$1" pin="2"/>
<wire x1="58.42" y1="96.52" x2="60.96" y2="96.52" width="0.1524" layer="91"/>
<pinref part="GND6" gate="1" pin="GND"/>
<wire x1="60.96" y1="96.52" x2="60.96" y2="91.44" width="0.1524" layer="91"/>
</segment>
<segment>
<pinref part="J6" gate="G$1" pin="1"/>
<wire x1="58.42" y1="99.06" x2="66.04" y2="99.06" width="0.1524" layer="91"/>
<pinref part="GND7" gate="1" pin="GND"/>
<wire x1="66.04" y1="99.06" x2="66.04" y2="91.44" width="0.1524" layer="91"/>
</segment>
</net>
<net name="N$4" class="0">
<segment>
<pinref part="J1" gate="G$1" pin="1"/>
<pinref part="U1" gate="G$1" pin="IN1"/>
<wire x1="45.72" y1="160.02" x2="83.82" y2="160.02" width="0.1524" layer="91"/>
<pinref part="R5" gate="G$1" pin="2"/>
<wire x1="83.82" y1="160.02" x2="101.6" y2="160.02" width="0.1524" layer="91"/>
<wire x1="83.82" y1="132.08" x2="83.82" y2="160.02" width="0.1524" layer="91"/>
<junction x="83.82" y="160.02"/>
</segment>
</net>
<net name="N$5" class="0">
<segment>
<pinref part="J1" gate="G$1" pin="2"/>
<pinref part="U1" gate="G$1" pin="IN2"/>
<wire x1="45.72" y1="157.48" x2="78.74" y2="157.48" width="0.1524" layer="91"/>
<pinref part="R6" gate="G$1" pin="2"/>
<wire x1="78.74" y1="157.48" x2="101.6" y2="157.48" width="0.1524" layer="91"/>
<wire x1="78.74" y1="132.08" x2="78.74" y2="157.48" width="0.1524" layer="91"/>
<junction x="78.74" y="157.48"/>
</segment>
</net>
<net name="N$6" class="0">
<segment>
<pinref part="J1" gate="G$1" pin="3"/>
<pinref part="U1" gate="G$1" pin="IN3"/>
<wire x1="45.72" y1="154.94" x2="73.66" y2="154.94" width="0.1524" layer="91"/>
<pinref part="R7" gate="G$1" pin="2"/>
<wire x1="73.66" y1="154.94" x2="101.6" y2="154.94" width="0.1524" layer="91"/>
<wire x1="73.66" y1="132.08" x2="73.66" y2="154.94" width="0.1524" layer="91"/>
<junction x="73.66" y="154.94"/>
</segment>
</net>
<net name="N$7" class="0">
<segment>
<pinref part="J1" gate="G$1" pin="4"/>
<pinref part="U1" gate="G$1" pin="IN4"/>
<wire x1="45.72" y1="152.4" x2="68.58" y2="152.4" width="0.1524" layer="91"/>
<pinref part="R8" gate="G$1" pin="2"/>
<wire x1="68.58" y1="152.4" x2="101.6" y2="152.4" width="0.1524" layer="91"/>
<wire x1="68.58" y1="132.08" x2="68.58" y2="152.4" width="0.1524" layer="91"/>
<junction x="68.58" y="152.4"/>
</segment>
</net>
<net name="N$8" class="0">
<segment>
<pinref part="J1" gate="G$1" pin="5"/>
<wire x1="45.72" y1="149.86" x2="63.5" y2="149.86" width="0.1524" layer="91"/>
<wire x1="63.5" y1="149.86" x2="99.06" y2="149.86" width="0.1524" layer="91"/>
<wire x1="99.06" y1="149.86" x2="99.06" y2="147.32" width="0.1524" layer="91"/>
<pinref part="U1" gate="G$1" pin="IN5"/>
<wire x1="99.06" y1="147.32" x2="101.6" y2="147.32" width="0.1524" layer="91"/>
<pinref part="R9" gate="G$1" pin="2"/>
<wire x1="63.5" y1="132.08" x2="63.5" y2="149.86" width="0.1524" layer="91"/>
<junction x="63.5" y="149.86"/>
</segment>
</net>
<net name="N$9" class="0">
<segment>
<pinref part="J1" gate="G$1" pin="6"/>
<wire x1="45.72" y1="147.32" x2="58.42" y2="147.32" width="0.1524" layer="91"/>
<wire x1="58.42" y1="147.32" x2="96.52" y2="147.32" width="0.1524" layer="91"/>
<wire x1="96.52" y1="147.32" x2="96.52" y2="144.78" width="0.1524" layer="91"/>
<pinref part="U1" gate="G$1" pin="IN6"/>
<wire x1="96.52" y1="144.78" x2="101.6" y2="144.78" width="0.1524" layer="91"/>
<pinref part="R10" gate="G$1" pin="2"/>
<wire x1="58.42" y1="132.08" x2="58.42" y2="147.32" width="0.1524" layer="91"/>
<junction x="58.42" y="147.32"/>
</segment>
</net>
<net name="N$10" class="0">
<segment>
<pinref part="J1" gate="G$1" pin="7"/>
<wire x1="45.72" y1="144.78" x2="53.34" y2="144.78" width="0.1524" layer="91"/>
<wire x1="53.34" y1="144.78" x2="93.98" y2="144.78" width="0.1524" layer="91"/>
<wire x1="93.98" y1="144.78" x2="93.98" y2="142.24" width="0.1524" layer="91"/>
<pinref part="U1" gate="G$1" pin="IN7"/>
<wire x1="93.98" y1="142.24" x2="101.6" y2="142.24" width="0.1524" layer="91"/>
<pinref part="R11" gate="G$1" pin="2"/>
<wire x1="53.34" y1="132.08" x2="53.34" y2="144.78" width="0.1524" layer="91"/>
<junction x="53.34" y="144.78"/>
</segment>
</net>
<net name="VCC" class="0">
<segment>
<pinref part="U1" gate="G$1" pin="COM"/>
<wire x1="129.54" y1="160.02" x2="132.08" y2="160.02" width="0.1524" layer="91"/>
<pinref part="SUPPLY1" gate="G$1" pin="VCC"/>
<wire x1="132.08" y1="160.02" x2="132.08" y2="162.56" width="0.1524" layer="91"/>
</segment>
<segment>
<pinref part="C1" gate="G$1" pin="1"/>
<wire x1="109.22" y1="121.92" x2="116.84" y2="121.92" width="0.1524" layer="91"/>
<pinref part="C3" gate="G$1" pin="1"/>
<pinref part="SUPPLY2" gate="G$1" pin="VCC"/>
<wire x1="116.84" y1="121.92" x2="124.46" y2="121.92" width="0.1524" layer="91"/>
<wire x1="116.84" y1="121.92" x2="116.84" y2="124.46" width="0.1524" layer="91"/>
<junction x="116.84" y="121.92"/>
<pinref part="C2" gate="G$1" pin="1"/>
</segment>
<segment>
<pinref part="J5" gate="G$1" pin="1"/>
<wire x1="86.36" y1="91.44" x2="88.9" y2="91.44" width="0.1524" layer="91"/>
<pinref part="SUPPLY7" gate="G$1" pin="VCC"/>
<wire x1="88.9" y1="91.44" x2="88.9" y2="96.52" width="0.1524" layer="91"/>
</segment>
<segment>
<pinref part="J5" gate="G$1" pin="2"/>
<wire x1="86.36" y1="88.9" x2="93.98" y2="88.9" width="0.1524" layer="91"/>
<pinref part="SUPPLY8" gate="G$1" pin="VCC"/>
<wire x1="93.98" y1="88.9" x2="93.98" y2="96.52" width="0.1524" layer="91"/>
</segment>
</net>
<net name="OUT5" class="0">
<segment>
<pinref part="U1" gate="G$1" pin="OUT5"/>
<label x="132.08" y="144.78" size="1.778" layer="95"/>
<wire x1="129.54" y1="144.78" x2="154.94" y2="144.78" width="0.1524" layer="91"/>
<wire x1="154.94" y1="144.78" x2="154.94" y2="147.32" width="0.1524" layer="91"/>
<pinref part="J4" gate="G$1" pin="4"/>
<wire x1="154.94" y1="147.32" x2="162.56" y2="147.32" width="0.1524" layer="91"/>
</segment>
</net>
<net name="OUT6" class="0">
<segment>
<pinref part="U1" gate="G$1" pin="OUT6"/>
<label x="132.08" y="142.24" size="1.778" layer="95"/>
<wire x1="129.54" y1="142.24" x2="157.48" y2="142.24" width="0.1524" layer="91"/>
<wire x1="157.48" y1="142.24" x2="157.48" y2="144.78" width="0.1524" layer="91"/>
<pinref part="J4" gate="G$1" pin="3"/>
<wire x1="157.48" y1="144.78" x2="162.56" y2="144.78" width="0.1524" layer="91"/>
</segment>
</net>
<net name="OUT7" class="0">
<segment>
<pinref part="U1" gate="G$1" pin="OUT7"/>
<label x="132.08" y="139.7" size="1.778" layer="95"/>
<wire x1="129.54" y1="139.7" x2="160.02" y2="139.7" width="0.1524" layer="91"/>
<wire x1="160.02" y1="139.7" x2="160.02" y2="142.24" width="0.1524" layer="91"/>
<pinref part="J4" gate="G$1" pin="2"/>
<wire x1="160.02" y1="142.24" x2="162.56" y2="142.24" width="0.1524" layer="91"/>
</segment>
</net>
<net name="OUT1" class="0">
<segment>
<pinref part="U1" gate="G$1" pin="OUT1"/>
<label x="132.08" y="157.48" size="1.778" layer="95"/>
<pinref part="J4" gate="G$1" pin="8"/>
<wire x1="129.54" y1="157.48" x2="162.56" y2="157.48" width="0.1524" layer="91"/>
</segment>
</net>
<net name="OUT2" class="0">
<segment>
<pinref part="U1" gate="G$1" pin="OUT2"/>
<label x="132.08" y="154.94" size="1.778" layer="95"/>
<pinref part="J4" gate="G$1" pin="7"/>
<wire x1="129.54" y1="154.94" x2="162.56" y2="154.94" width="0.1524" layer="91"/>
</segment>
</net>
<net name="OUT3" class="0">
<segment>
<pinref part="U1" gate="G$1" pin="OUT3"/>
<label x="132.08" y="152.4" size="1.778" layer="95"/>
<pinref part="J4" gate="G$1" pin="6"/>
<wire x1="129.54" y1="152.4" x2="162.56" y2="152.4" width="0.1524" layer="91"/>
</segment>
</net>
<net name="OUT4" class="0">
<segment>
<pinref part="U1" gate="G$1" pin="OUT4"/>
<label x="132.08" y="149.86" size="1.778" layer="95"/>
<pinref part="J4" gate="G$1" pin="5"/>
<wire x1="129.54" y1="149.86" x2="162.56" y2="149.86" width="0.1524" layer="91"/>
</segment>
</net>
</nets>
</sheet>
</sheets>
</schematic>
</drawing>
</eagle>
